{
    "label": "Archives sombres",
    "entries": {
        "Disorienting Illusions": {
            "name": "Illusions distordues (Disorienting Illusions)",
            "desc (hazard)": "<p>Les illusions qui entourent cette chambre la font apparaître distordue et en perpétuel mouvement, la pièce et tout son contenu semblant inclinés, irréguliers et en mouvement.</p>",
            "disable": "<p>@Check[type:crafting|dc:17|name:Calculer les dimensions de la pièce] (qualifié) pour calculer les dimensions de la pièce malgré les illusions ou <em>@UUID[Compendium.pf2e.spells-srd.Item.9HpwDN4MYQJnW0LG]{Dissipation de la magie}</em> (Niveau 1 ; Contre DD 17) pour contrer les illusions</p>",
            "reset": "<p>1 minute</p>",
            "items": {
                "ZJEa0ERwBrbsozjF": {
                    "name": "Désorienter (Disorient)",
                    "description": "<p><strong>Déclencheur</strong> Une créature entre dans la pièce</p>\n<hr />\n<p><strong>Effet</strong> Les illusions font que l'apparence de la pièce et des objets qui s'y trouvent se déforment, se déplacent, se plient et se distordent constamment pendant 1 minute. Chaque créature présente dans la pièce pendant que les déformations doit tenter un test de @Check[type:perception|dc:17|action:seek].</p>\n<hr />\n<p><strong>Succès critique</strong> La créature perce l'illusion et n'est pas affectée.</p>\n<p><strong>Succès</strong> La créature sait que c'est une illusion mais voit l'illusion. Elle traite la zone comme étant du terrain difficile.</p>\n<p><strong>Échec</strong> La créature croit en l'illusion. Elle traite la zone comme étant du terrain difficile et devient @UUID[Compendium.pf2e.conditionitems.Item.fesd1n5eVhpCSS18]{Malade/nauséeuse 1}. Pour aussi longtemps qu'elle reste dans la pièce, elle ne peut pas réduire son état Malade/nauséeux en dessous de 1.</p>\n<p><strong>Échec critique</strong> Tout comme échec, mais chaque fois que le créature Archive tente une action de movement, elle doit réussir un test @Check[type:flat|dc:5] ou perdre son action, et sur un échec critique, elle est également renversée @UUID[Compendium.pf2e.conditionitems.Item.j91X7x0XSomq8d60]{À terre}.</p>"
                }
            }
        },
        "The Weaver in Dreams": {
            "name": "Le Tisseur dans les Rêves (The Weaver in Dreams)",
            "speeds": "Harceleur dans les Rêves",
            "items": {
                "4A7cNLcKMBz6WJiy": {
                    "name": "Ficeler le corps astral (String Astral Body)",
                    "description": "<p>Le tisseur attache des cordes au corps astral d'une créature pour la déplacer. Il force le déplacement le corps astral à sa portée de Frappe de soie soit jusqu'à 6 mètres, sans jet de sauvegarde.</p>"
                },
                "5ziv4KKVkKAcChTU": {
                    "name": "Harceleur dans les rêves (Stalker in Dreams)",
                    "description": "<p><strong>Déclencheur</strong> Le Tisseur devient @UUID[Compendium.pf2e.conditionitems.Item.DmAIPqOBomZ7H95W]{Masqué} à toutes les créatures dans les 18 mètres ou il n'est pas observe par les créatures dans les 18 mètres</p>\n<hr />\n<p><strong>Effet</strong> La présence du Tisseur dans l'Univers est liée à la perception que les autres ont de lui, et lorsque cette perception faiblit, il peut se déplacer vers un nouvel endroit. Le Tisseur se téléporte dans un espace inoccupé dans un rayon de 18 mètres, hors de la ligne de vue de toute créature se trouvant dans un rayon de 18 mètres. Si le Tisseur s'est Masqué ou n'a pas été observé dans le cadre d'une action de mouvement qu'il effectuait, il peut reprendre son mouvement après s'être téléporté. Une créature qui Détourne son regard du Tisseur n'est pas en train de l'observer.</p>"
                },
                "G4i0tp7lYajN7KwD": {
                    "name": "Évolutions des rêves (Dreams Unraveling)",
                    "description": "<p>Lorsque le Tisseur a moins de 155 points de vie, sa forme s'effiloche partiellement, révélant des plaques d'horreur pure suffisamment aiguës pour laisser des blessures physiques. Ceci crée une @Template[type:emanation|distance:10]{émanation de 3 mètres} qui inflige @Damage[3d6[mental],3d6[slashing]]{3d6 dégâts mentaux et 3d6 dégâts tranchants}, avec un jet de @Check[type:will|dc:36|basic:true]. Une créature qui Détourne le regard est immunisée à cet aura.</p>"
                },
                "GGttpO7eWtif6ZON": {
                    "name": "Cauchemar sans nom (Nameless Nightmare)",
                    "description": "<p>Le TIsseur a arraché son propre nom pour devenir un être de terreur. Il est immunisé à tout effet de langue et tout effet qui pourrait imposer l'état de @UUID[Compendium.pf2e.conditionitems.Item.TBSHQspnbcqxsmjL]{Effrayé}. Sans nom, c'est difficile d'être affecté par un phénomène. Le Tisseur se remet des conditions @UUID[Compendium.pf2e.conditionitems.Item.6uEgoh53GbXuHpTF]{Paralysé}, @UUID[Compendium.pf2e.conditionitems.Item.xYTAsEpcJE1Ccni3]{Ralenti}, et @UUID[Compendium.pf2e.conditionitems.Item.dfCMdR4wnpbYNTix]{Étourdi} à la fin de son tour, et ses test nu pour combattre les effets persistants est ramené à @Check[type:flat|dc:5]{5}. Quiconque qui prononce, écrit ou tente d'enregistrer son nom, subit [[/r 10[mental]]]{10 dégâts mentaux} et la tentative échoue automatiquement.</p>"
                },
                "PFLlpNCLFoMvvzjF": {
                    "name": "Séparation du corps astral (Separate Astral Body)",
                    "description": "<p>Le Tisseur creuse dans le psyché de la cible insérant un fil de soie et tire, séparant la forme astrale de la cible hors de son corps. A moins que la cible ne réussisse un jet de @Check[type:will|dc:36], sa forme astrale est tirée hors de son corps, causant l'apparition de sa forme fantomatique sur une case adjacente au choix du Tisseur.</p>\n<p>Un corps astral est immunisé contre les dégâts physiques mais affecté normalement par les effets mentaux, les effets de force et les effets qui ciblent directement l'esprit. La cible reste reliée à son corps physique par une corde d'argent, qui est toujours visible et peut déjouer les tentatives de se Cacher. La séparation d'avec son corps astral a des effets néfastes sur la psyché, imposant une pénalité de statut aux jets de sauvegarde de -1 et infligeant [[/r 1d6[persistent,mental]]]{1d6 dégâts mentaux persistants} pour aussi longtemps que le corps astral et le corps sont séparés. Ces dégâts persistants augmentent à 3d6 si le corps de la cible est à plus de 9 mètres de sa forme astrale.</p>\n<p>La cible peut utiliser une action simple, avec le trait Concentration, pour déplacer son corps astral d'une quantité égale à sa Vitesse. Lorsque la cible cesse de subir des dégâts mentaux persistants, le corps astral se rattache au corps physique, ce qui met fin à l'effet. Si la cible porte de l'argent, la première fois que cette capacité est utilisée sur elle, elle échoue et tout l'argent qu'elle porte et qui est plus grand qu'une pièce de monnaie se ternit. Bien que cela ne détruise pas complètement les objets comme les armes ou les instruments de thaumaturge, cela les empêche de se protéger contre cette capacité plus d'une fois.</p>"
                },
                "UPEC8mJThmuoRkKJ": {
                    "name": "Soie astrale (Astral Silk)"
                },
                "XcNlseVC4Ik7ETIX": {
                    "name": "Rompre le lien astral (Sever Astral Threads)",
                    "description": "<p>Le Tisseur utilise une griffe pour couper la corde d'argent reliant les corps astral et physique d'une créature. Ceci inflige [[/r 16d6[mental]]]{16d6 dégâts mentaux} à n'importe quelle cible affectée par Séparation du corps astral et dont le corps astral ou le corps physique est situé dans les 3 mètres du Tisseur (@Check[type:will|dc:37|basic:true]). Après avoir été ciblé par cette capacité, le corps astral revient violemment dans le corps physique de la cible, provoquant une perte de vision et l'aveuglant jusqu'au début de son prochain tour, à moins qu'elle n'ait réussi son jet de sauvegarde.</p>"
                },
                "lMprNG8h8WUaezg1": {
                    "name": "Griffe (Claw)"
                },
                "s0uQRVp56Th5lEsd": {
                    "name": "Cousu dans la toile (Stitch Into the Web)",
                    "description": "<p><strong>Déclencheur</strong> Le Tisseur est déplacé contre sa volonté ou une créature tente de quitter une case dans les 6 mètres de lui par n'importe quel moyen, téléportation inclus.</p>\n<hr />\n<p><strong>Effet</strong> La soie du Tisseur suture un corps en place pour empêcher tout mouvement. La créature cesse de bouger et l'action est interrompue. La perturbation n'affecte pas les corps astraux.</p>"
                }
            }
        },
        "Constricting Hall": {
            "name": "Couloir étrangleur (Constricting Hall)",
            "desc (hazard)": "<p>Les quatre murs d'une salle deviennent fluides et élastiques lorsqu'une créature atteint le milieu de la salle.</p>",
            "disable": "<p>@Check[type:thievery|dc:28|name:Stabilisation des murs|traits:action:disable-a-device] (qualifié) pour stabiliser chaque mur ou <em>@UUID[Compendium.pf2e.spells-srd.Item.9HpwDN4MYQJnW0LG]{Dissipation de la magie}</em> (Niveau 4; contre DD 26) pour contrer chaque mur.</p>",
            "reset": "<p>1 heure</p>",
            "routine": "<p>(4 actions) Ce piège perd 1 action par round pour chaque mur désactivé. Chaque mur utilise 1 action pour claquer d'avant en arrière rapidement, frappant une créature dans le hall avec un Frappe de mur. Sur un succès la cible également poussée @UUID[Compendium.pf2e.conditionitems.Item.j91X7x0XSomq8d60]{À terre}. Les murs distribuent les attaques de manière aussi égale que possible entre les créatures dans le couloir, et les Frappes n'appliquent pas les pénalités d'attaque.</p>",
            "items": {
                "Q0howoIf0TfR9YuR": {
                    "name": "Forme élastique (Lose Form)",
                    "description": "<p><strong>Déclencheur</strong> Une créature arrive au milieu du couloir</p>\n<hr />\n<p><strong>Effet</strong> Le couloir perdent leur rigidité, devenant élastiques et fluides. Le couloir devient terrain difficile, et chaque créature dans le couloir est renversée @UUID[Compendium.pf2e.conditionitems.Item.j91X7x0XSomq8d60] à moins qu'elle ne réussisse un jet de @Check[type:reflex|dc:26]. Puis le piège lance l'initiative.</p>"
                },
                "URApeqv0vXz0Usnr": {
                    "name": "Mur (Wall)"
                }
            }
        },
        "Call of the Void": {
            "name": "Appel du néant (Call of the Void)",
            "desc (hazard)": "<p>Une compulsion surnaturelle à sauter dans l'inconnu s'exerce sur tous ceux qui s'approchent de la corniche</p>",
            "disable": "<p>@Check[type:occultism|dc:34|name:Repousser cette compulsion magique] ou d'@Check[type:arcana|dc:36|name:Repousser cette compulsion magique] pour repousser la compulsion magique de l'île en question et de toutes les cordes rouges qui y sont directement attachées, en assombrissant la couleur de la corde. L'Écho désactive aussi automatiquement le danger de toute île sur laquelle il se trouve, et de toute corde rouge qui y est directement attachée, lorsqu'il se reconstitue à partir de la Pensée sur cette île.</p>",
            "reset": "<p>L'appel du néant persiste pour aussi longtemps que l'Écho existe, quoique l'appel ne s'active que lorsque l'Écho ait lancé l'initiative. Le piège se réinitialise chaque jour.</p>",
            "routine": "<p>(1 action) L'appel cible toutes les créatures adjacentes à une corniche ou sur l'une des cordes rouges et exerce une pression sur leur esprit. Une créature qui est déjà tombée ce round est immunisée.</p>",
            "stealth": "<p>Expert pour remarquer cette sensation d'attraction</p>",
            "items": {
                "eA8cwxuJWpDq8jgk": {
                    "name": "Sauter dans l'inconnu (Leap into the Unknown)",
                    "description": "<p><strong>Déclencheur</strong> Une créature pénètre dans une case adjacente du rebord d'une île ou s'engage sur l'une des cordes rouges</p>\n<hr />\n<p><strong>Effet</strong> L'appel du néant attire l'attention des intrus, les poussant à sauter de la corniche. La créature doit réussir un jet de @Check[type:will|dc:34] ou un test d'@Check[type:acrobatics|dc:32|traits:action:balance] pour @UUID[Compendium.pf2e.actionspf2e.Item.M76ycLAqHoAgbcej]{Garder l'équilibre} ou sauter de la corniche. Si la créature tombe, elle chute de 30 mètres, traverse l'espace clos du paysage mental et atterrit sur la case d'où elle est tombée, subissant les dégâts de chute comme normal (habituellement [[/r 50[bludgeoning]]]{50 dégâts contondants}). Puis, l'appel du néant lance l'initiative.</p>"
                }
            }
        },
        "Sigil of Deepest Fears": {
            "name": "Symbole des angoisses (Sigil of Deepest Fears)",
            "desc (hazard)": "<p>Un symbole arcanique force la créature de confronter ses plus grandes angoisses</p>",
            "disable": "<p>@Check[type:thievery|dc:43|name:Drainer l'énergie du symbole|traits:action:disable-a-device] (maître) pour drainer l'énergie du symbole de façon sécurisée, ou <em>@UUID[Compendium.pf2e.spells-srd.Item.9HpwDN4MYQJnW0LG]</em> (niveau 9; contre DD 42) pour contrer le symbole magique</p>",
            "reset": "<p>1 jour</p>",
            "stealth": "Maître",
            "items": {
                "mF3Y5psHWHrkB81u": {
                    "name": "Confronte tes angoisses (Face Your Fear)",
                    "description": "<p><strong>Déclencheur</strong> Une créature se déplace dans les 3 mètres du symbole magique</p>\n<hr />\n<p><strong>Effet</strong> Toutes les créatures dans les 36 mètres du symbole magique sont affectée par le sort <em>@UUID[Compendium.pf2e.spells-srd.Item.qDjeG6dxT4aEEC6J]</em> (@Check[type:will|dc:40|traits:damaging-effect]) </p>"
                }
            }
        },
        "Exhaling Portal": {
            "name": "Porte venteuse (Exhaling Portal)",
            "desc (hazard)": "<p>Des runes magiques gravées dans le cadre d'une porte relient celle-ci au plan de l'air lorsqu'on l'ouvre, soufflant les créatures dans le couloir qui la relie.</p>",
            "disable": "<p>@Check[type:thievery|dc:30|name:Rayer les runes|traits:action:disable-a-device] (expert) deux fois pour rayer les runes ou <em>@UUID[Compendium.pf2e.spells-srd.Item.9HpwDN4MYQJnW0LG]{Dissipation de la magie}</em> (Niveau 5; contre DD 30) pour contrer les runes planaires ; test d'@Check[type:athletics|dc:32|name:Fermer la porte] pour refermer la porte lorsqu'elle est ouverte (Utiliser l'Athlétisme arrête le piège, mais ne le désactive pas)</p>",
            "reset": "<p>Automatique une fois que la porte est fermée</p>",
            "routine": "<p>(1 action) Le piège utilise 1 action pour souffle des vents violents dans le couloir. Chaque créature dans le couloir doit tenter un jet de @Check[type:fortitude|dc:32] avec les mêmes résultats que pour Bourrasque. Si ce déplacement forcé pourrait cause une créature à se heurter avec un objet solide ou tomber des escaliers ou par une fenêtre, cette créature subira [[/r (2d10 + 11)[bludgeoning]]]{2d10 dégâts contondants} supplémentaires (ou [[/r 20[bludgeoning]]]{20 dégâts contondant} causé par la chute).</p>",
            "items": {
                "0l35fQJcnzJb7vMi": {
                    "name": "Bourrasque (Gust)",
                    "description": "<p><strong>Déclencheur</strong> Une créature ouvre la porte.</p>\n<hr />\n<p><strong>Effect</strong> Le couloir est secoué par des vents violents pour aussi longtemps que la porte dans le couloir reste ouverte. Une créature qui rate son jet de sauvegarde est repoussé de 1,5 mètre et tombe @UUID[Compendium.pf2e.conditionitems.Item.j91X7x0XSomq8d60]{À terre}.</p>\n<p>De plus la créature déclencheuse est visée d'une violente bourrasque et doit tenter un jet de @Check[type:fortitude|dc:32]. Puis le piège lance l'initiative.</p>\n<hr />\n<p><strong>Succès critique</strong> La créature n'est pas affectée.</p>\n<p><strong>Succès</strong> La créature est repoussée de 1,5 mètre.</p>\n<p><strong>Échec</strong> La créature est repoussée de 3 mètres.</p>\n<p><strong>Échec critique</strong> La créature est repoussée de 3 mètres et est poussée @UUID[Compendium.pf2e.conditionitems.Item.j91X7x0XSomq8d60]{À terre}.</p>"
                }
            }
        },
        "Shuffling Hall": {
            "name": "Couloir de mélanges (Shuffling Hall)",
            "desc (hazard)": "<p>Quatre plaques de pression situées le long de ce hall en miroir tournent verticalement lorsqu'on marche dessus, ce qui fait basculer la créature qui se trouve sur la plaque de pression dans une pièce adjacente dépourvue de caractéristiques, tout en remplaçant simultanément la plaque de pression et les murs dans le hall. Chaque plaque de pression fait basculer les créatures dans une pièce différente</p>",
            "disable": "<p>@Check[type:thievery|dc:12|name:Désactiver la plaque de pression|traits:action:disable-a-device] pour désactiver la plaque de pression</p>",
            "reset": "<p>Automatique</p>",
            "items": {
                "mLNLTTi0YhxCWKWq": {
                    "name": "Retournement (Flip)",
                    "description": "<p><strong>Déclencheur</strong> Un créature marche sur la plaque de pression</p>\n<hr />\n<p><strong>Effet</strong> Le sol et le mur adjacent tournent sur un axe central, faisant basculer la créature déclencheuse dans une pièce adjacente dépourvue de caractéristiques et remplaçant simultanément la plaque de pression et le mur par un autre ensemble sur le même axe. La créature déclencheuse qui est poussée dans une pièce adjacente subit [[/r 1d8[bludgeoning]]]{1d8 dégâts contondants}, et tombe @UUID[Compendium.pf2e.conditionitems.Item.j91X7x0XSomq8d60]{À terre}. Une créature qui réussit un jet de @Check[type:reflex|dc:19|traits:damaging-effect] ne subit aucun dégât et ne fait que glisser hors du piège, retournant dans l'espace qu'elle était avant de marcher sur la plaque de pression.</p>"
                }
            }
        },
        "Mirror Door": {
            "name": "Porte Miroir (Mirror Door)",
            "desc (hazard)": "<p>Le reflet d'un mur dans le miroir montre une porte fantôme, là où il n'y en a pas. Cette porte ne peut être manipulée que lorsqu'elle est vue dans le reflet du miroir.</p>",
            "disable": "<p>@Check[type:thievery|dc:18|name:Ouvrir la porte|traits:action:disable-a-device] pour ouvrir la porte vue dans le reflet.</p>",
            "reset": "<p>Automatique</p>",
            "items": {
                "dXHZxCKOYXB0IsAL": {
                    "name": "Apparaître (Appear)",
                    "description": "<p><strong>Déclencheur</strong> Une créature voit une porte dans le mur au travers d'un reflet de miroir</p>\n<hr />\n<p><strong>Effet</strong> Une porte apparaît dans le reflet du miroir sur le mur. La créature qui déclenche le sort peut ouvrir et manipuler cette porte tant qu'elle la voit à travers le miroir et en réussissant un test de @Check[type:thievery|dc:18|name:Désactiver le piège|traits:action:disable-a-device] pour désactiver le piège.</p>"
                }
            }
        },
        "K. H. W.'s Echo": {
            "name": "Écho de KHW (K. H. W.'s Echo)",
            "hpdetails": "Forme déstabilisée",
            "items": {
                "2LrlEIwWcp7z9jL4": {
                    "name": "Frappe réactive (spécial) (Attack of Opportunity (Special))",
                    "description": "<p>L'Écho a une allonge 4,5 mètres pour déterminer les déclencheurs de Frappe réactive et le moment où la Frappe réactive s'effectue.</p>\n<hr />\n<p>@Localize[PF2E.NPC.Abilities.Glossary.AttackOfOpportunity]</p>"
                },
                "6LPHouUKdhwChveQ": {
                    "name": "Corde fléchette (Rope Dart)"
                },
                "9AePbujsZky8xUjK": {
                    "name": "Implément fuseau (Astral Spindel Implement)",
                    "description": "<p>L'écho transporte un fuseau qui tisse constamment un fil astral rouge. Ce fuseau est à la fois un implément thaumaturgique et une arme. Si sa <em>@UUID[Compendium.pf2e.equipment-srd.Item.djSCel13i1p8JeXv]{corde fléchette}</em> est perdue ou cassée, il peut la reformer par une action Interagir. S'il obtient un coup critique sur une Frappe de <em>corde fléchette</em>, des pensées envahissantes et des chimères transitent par le fil jusque dans les pensées de la cible. La cible devient @UUID[Compendium.pf2e.conditionitems.Item.yblD8fOR1J8rDwEQ]{Confuse} pendant 1 round.</p>"
                },
                "PSN0OsnaXCyM9qu3": {
                    "name": "Contrôle du lien astral (Astral Thread Control)",
                    "description": "<p><strong>Fréquence</strong> Une fois par round</p>\n<p><strong>Conditions</strong> L'action précédente de l'Écho était une Frappe réussie de corde fléchette.</p>\n<hr />\n<p><strong>Effet</strong> L'Écho fait un mouvement de poignet et effectue une nouvelle Frappe de corde fléchette vers une cible différente qui se situe dans les 9 mètres de la première cible, utilisant la même pénalité d'attaque que la première cible. Que l'attaque réussisse ou pas, il peut ensuite récupérer l'arme.</p>"
                },
                "VdAYDEzY4gulPTVL": {
                    "name": "Connaissance ésotérique (Esoteric Lore)"
                },
                "crjSzGgHUw6zPIVX": {
                    "name": "Reconstitution par la Pensée (Reconstitute from Thought)",
                    "description": "<p><strong>Conditions</strong> L'Écho est situé sur une des huit grandes îles sur la carte et l'île n'a pas été assombrie.</p>\n<hr />\n<p><strong>Effet</strong> L'écho projette sa corde fléchette dans l'île et l'utilise pour absorber l'essence mentale du paysage mental, afin de se réparer. Il regagne [[/r 45[healing]]]{45 Points de vie} et l'île prend une couleur grise désaturée pendant 1 jour, empêchant toute future absorption et en désactivant le piège @UUID[Compendium.pf2e.pathfinder-dark-archive.Actor.0AdtolhMWrPlzVZY]{Appel du néant} sur cette île.</p>"
                },
                "g86YWdXagoWqk0OQ": {
                    "name": "Forme déstabilisée (Destabilized Form)",
                    "description": "<p>Lorsque l'Écho a moins de 140 points de vie, sa forme se déstabilise, des gros morceaux se désintégrant sur son visage, son torse et ses membres. Des phalènes blanches sortent en flots continus des espaces manquants, créant une @Template[type:emanation|distance:10]{émanation de 3 mètres} qui infige [[/r 6d6[mental]]]{6d6 dégâts mentaux} avec un jet de @Check[type:will|dc:34|basic:true].</p>\n<p>Tant que l'aura persiste, il peut se dissoudre en phalènes et se reformer dans un autre lieu dans les 4,5 mètres par une action gratuite au début de chacun de ses tours. Cette capacité possède les traits occulte, invocation et téléportation.</p>"
                },
                "gjGhslPt9ZQSI0yX": {
                    "name": "Contingence du Neuf-Rova-Jour de promesse (Contingency Oathday-Nine-Rova)",
                    "description": "<p><strong>Fréquence</strong> Une fois par jour</p>\n<p><strong>Déclencheur</strong> Le tour de l'Écho commence et il est Étourdi, Ralenti, @UUID[Compendium.pf2e.conditionitems.Item.yblD8fOR1J8rDwEQ]{Confus}, @UUID[Compendium.pf2e.conditionitems.Item.9qGBRpbX9NEwtAAr]{Contrôlé}, @UUID[Compendium.pf2e.conditionitems.Item.eIcWbB5o3pP6OIMe]{Immobilisé}, @UUID[Compendium.pf2e.conditionitems.Item.kWc1fhmv9LBiTuei]{Empoigné/agrippé}, @UUID[Compendium.pf2e.conditionitems.Item.6uEgoh53GbXuHpTF]{Paralysé}, @UUID[Compendium.pf2e.conditionitems.Item.VcDeM8A5oI6VqhbM]{Entravé} ou est empêché autrement d'agir.</p>\n<hr />\n<p><strong>Effet</strong> L'Écho a prévu un nombre de cas dans le cas où il pourrait se trouver compromis. Les talismans sur son corps éclatent, contrant l'effet déclencheur. L'Écho peut utiliser cette action gratuite, même s'il ne pourrait pas normalement agir.</p>"
                },
                "hwQM6l4pirYi7vuV": {
                    "name": "Corde fléchette (Rope Dart)"
                },
                "vt810lsvoNHLaCNF": {
                    "name": "Toile du fuseau (Spindle's Web)",
                    "description": "<p>Le fuseau de l'Écho tourne de plus en plus vite jusqu'à ce qu'elle devienne floue, projettant des fils rouges dans toutes les directions. Les fils infligent [[/r {7d6[slashing],7d6[mental]}]]{7d6 dégâts tranchants et 7d6 dégâts mentaux} à toutes les créatures dans une @Template[type:emanation|distance:30]{émanation de 9 mètres} avec un jet de @Check[type:reflex|dc:34|basic:true]. Si une créature obtient un échec sur son jet de sauvegarde, les fils réveillent un ancrage de paysage mental qui est contenu à l'intérieur, l'affectant différement, en fonction de l'ancrage que la créature utilise pour obtenir l'accès au centre du paysage mental. (S'il y a un PJ qui n'a pas absorbé l'ancrage du paysage mental, par exemple parce qu'il y a plus de 4 joueurs, utilisez l'ancrage du PJ le plus proche de lui)</p>\n<ul>\n<li><strong>Calice</strong> Le calice draine la force vitale, donnant à l'Écho des Points de vie temporaires d'un montant équivalent à la moitié des dégâts infligés.</li>\n<li><strong>Lanterne</strong> La lanterne délimite la créature avec des <em>@UUID[Compendium.pf2e.spells-srd.Item.HRb2doyaLtaoCfi3]{Lueurs féeriques}</em> flamboyantes qui infligent [[/r 2d6[persistent,fire]]]{2d6 dégâts de feu persistants}.</li>\n<li><strong>Livre</strong> Le livre envahit les pensées de la créature d'informations. La cible est @UUID[Compendium.pf2e.conditionitems.Item.xYTAsEpcJE1Ccni3]{Ralentie 1} pendant 1 round.</li>\n<li><strong>Miroir</strong> Le miroir réfléchit la créature dans un autre lieu, la téléportant dans un espace inoccupé dans les 7,5 mètres de sa position actuelle.</li>\n</ul>"
                }
            }
        },
        "Cocoon of Lucid Potential": {
            "name": "Cocon du Potentiel lucide (Cocoon of Lucid Potential)",
            "items": {
                "EC0YgI9NRxD1ISHc": {
                    "name": "Sorts occultes spontanés (Occult Spontaneous Spells)"
                },
                "H5No3yLHugKzgNQr": {
                    "name": "Ancré par la soie (Anchored in Silk)",
                    "description": "<p>Le cocon est incapable de se déplacer autrement qu'en se tortillant légèrement sur place. Il n'a pas de Vitesse et ne peut ni se déplacer ni être déplacé, même par des moyens tels que la Téléportation, car les fils du Tisseur le retiennent en place physiquement et astralement. Le cocon lance ses sorts psychiquement, remplaçant les composantes verbales et somatiques par des expressions de pure volonté débridée et retirant le trait de manipulation de son action Lancer un sort.</p>"
                },
                "HHFw3W3cOgIJv8xE": {
                    "name": "Don de soi (Give of Oneself)",
                    "description": "<p><strong>Déclencheur</strong> Le Tisseur serait réduit à 0 PV</p>\n<hr />\n<p><strong>Effet</strong> La vitalité du cocon est lié à celle du Tisseur. Le cocon perd [[/r 30]] points de vie, restituant [[/r 15[healing]]]{15 points de vie} aux Tisseur. Il peut utiliser cette capacité même s'il n'est pas en mesure d'agir autrement. </p>"
                },
                "Hc9RMNJy8VQgbgt8": {
                    "name": "Quelque part à l'intérieur (In There Somewhere)",
                    "description": "<p>L'individualité de Killia repose toujours dans le cocon, tout en essayant de résister à l'assimilation. Si un personnage joueur réussit un test de @Check[type:diplomacy|dc:32] sur le cocon, ce dernier subit [[/r 5d6[mental]]]{5d6 dégâts mentaux} et devient @UUID[Compendium.pf2e.conditionitems.Item.dfCMdR4wnpbYNTix]{Étourdi 1} puisque la conscience de Killia se bat contre le Tisseur. Le cocon ne peut pas être affecté de cette manière plus d'une fois par tour. </p>"
                },
                "JDyK8pMI9CudXO02": {
                    "name": "Écervelé (Feeblemind)"
                },
                "jHHE5GG2biaCiVYC": {
                    "name": "Cri psychique (Psychic Scream)"
                },
                "jcfVSRrTqala0aq6": {
                    "name": "Manipulation télékinésique (Mage Hand)"
                },
                "pqQB2JJ1Z8S2K9ay": {
                    "name": "De la même essence (Of Same Essence)",
                    "description": "<p>Le cocon et le Tisseur partagent la même essence. Les sorts du cocon n'affectent jamais le Tisseur, et le Tisseur peut ignorer tout effet de sorts actifs du cocon si il le désire (comme par exemple <em>@UUID[Compendium.pf2e.spells-srd.Item.tSosbMsftXcRaQgT])</em></p>"
                }
            }
        },
        "Shrinking Hall": {
            "name": "Couloir rétrécissant (Shrinking Hall)",
            "desc (hazard)": "<p>Ce couloir est conçu pour rétrécir au fur et à mesure que les créatures le traversent, rendant impossible l'accès à la porte située au bout du couloir.</p>",
            "disable": "<p>@Check[type:thievery|dc:21|name:Bloquer les poids|traits:action:disable-a-device] (qualifié) pour bloquer les poids qui sont dans le mur.</p>",
            "reset": "<p>Après 10 minutes sans qu'aucun poids n'ait été placé sur le sol de cette salle, ce piège se réinitialise, ramenant la salle à sa taille d'origine.</p>",
            "items": {
                "jGLOByWSFpkvum9N": {
                    "name": "Rétrécissement (Shrink)",
                    "description": "<p><strong>Déclencheur</strong> Au moins 50 kg sont placés sur le sol du couloir</p>\n<hr />\n<p><strong>Effet</strong> Les derniers 12 mètres du couloir s'inclinent vers l'intérieur, provoquant le rétrécissement et la contraction du couloir, jusqu'à atteindre 15 centimètres de hauteur et de largeur à son extrémité, bloquant complètement l'accès à la porte pour sortir du couloir à toute créature à l'exception d'une créature Très Petite qui peut Se faufiler.</p>"
                }
            }
        },
        "Shrouded Assailant": {
            "name": "Agresseur voilé (Shrouded Assailant)",
            "hpdetails": "esprit",
            "desc (hazard)": "<p>Un esprit sort d'un miroir recouvert, retire le drap et se retrouve enveloppé dans le drap, ce qui révèle le miroir. La figure enveloppée attaque les vivants jusqu'à ce que le drap soit arraché, ce qui bannit la silhouette informe.</p>",
            "disable": "<p>@Check[type:thievery|dc:43|name:Voler le drap|traits:action:disable-a-device] (maître) pour voler le drap avant que l'esprit ne se manifeste ou test d'@Check[type:athletics|dc:47|name:Arracher le drap] pour arracher le drap après que l'esprit soit manifesté</p>",
            "reset": "<p>L'apparition peut se reformer si le miroir est recouvert d'un drap ou à nouveau voilé</p>",
            "routine": "<p>(3 actions) L'esprit utilise trois actions pour Marcher rapidement, Voler 18 mètres, ou Frapper dans n'importe quel odre. Sur une Frappe réussie, la cible de l'esprit est @UUID[Compendium.pf2e.conditionitems.Item.TBSHQspnbcqxsmjL]{Effrayée 1} et sur une Frappe critique la cible est @UUID[Compendium.pf2e.conditionitems.Item.TBSHQspnbcqxsmjL]{Effrayée 2}</p>",
            "items": {
                "HOnJVrqXXtc3EGEu": {
                    "name": "Touché de suaire (Shrouded Touch)"
                },
                "ljtEKeEjWZpLfCLL": {
                    "name": "Revêtement (Don Shroud)",
                    "description": "<p><strong>Déclencheur</strong> Une créature entre dans la zone</p>\n<hr />\n<p><strong>Effet</strong> L'esprit sort du miroir portant le drap comme un suaire et révélant le miroir. La créature déclencheuse est @UUID[Compendium.pf2e.conditionitems.Item.TBSHQspnbcqxsmjL]{Effrayée 3} à moins qu'elle ne réussisse un jet de @Check[type:will|dc:38]. Puis le piège lance l'initiative.</p>"
                }
            }
        },
        "Reflected Desires": {
            "name": "Reflet des désirs (Reflected Desires)",
            "desc (hazard)": "<p>Ce miroir réfléchit les désirs les plus profonds de celui qui regarde</p>",
            "disable": "<p>@Check[type:thievery|dc:18|name:Occulter le miroir|traits:action:disable-a-device] (qualifié) pour occulter le miroir sans regarder dedans, ou test d'@Check[type:occultism|dc:17|name:Ériger des barrières mentales] (qualifié) pour ériger des barrières mentales.</p>",
            "reset": "<p>Automatique</p>",
            "stealth": "<p>0 pour remarquer le miroir</p>",
            "items": {
                "1MnFDLD3UqAsLnmn": {
                    "name": "Tentation (Tempt)",
                    "description": "<p><strong>Déclencheur</strong> Une créature regarde dans le miroir.</p>\n<hr />\n<p><strong>Effet</strong> La créature déclencheuse se voit dans la réflexion du miroir en train de s'adonner à ses désirs les plus profonds, ce qui la rend @UUID[Compendium.pf2e.conditionitems.Item.AdPVz7rbaVSRxHFg]{Fascinée} (@Check[type:will|dc:20] pour interrompre). La fascination s'arrête automatiquement lorsque le miroir est brisé ou occulté.</p>"
                }
            }
        },
        "The Morrowkin": {
            "name": "Le Morrowkin (The Morrowkin)",
            "items": {
                "41MourwRyz9uDnd8": {
                    "name": "Griffe (Claw)"
                },
                "C5zKC61h7GcivnD5": {
                    "name": "Dégoûté par la nourriture (Disgusted by Food)",
                    "description": "<p>Le morrokin mange les rêves et le possible, pas de la nourriture. Une créature qui dépense une action pour brandir de la nourriture face au morrokin le rend automatiquement @UUID[Compendium.pf2e.conditionitems.Item.fesd1n5eVhpCSS18]{Malade/nauséeux 1} (ou augmente sa valeur de Malade/nauséeux de 1, jusqu'à un maximum de 6). Cet état décroît la CA du morrowkin, ainsi que ses jets d'attaque, de sauvegarde et ses DD de capacité, comme normal pour l'était de Malade/nauséeux. Le morrokin ne peut pas vomir pour réduire son état de Malade/nauséeux.</p>"
                },
                "GufPL7fXAz1R4tFA": {
                    "name": "Infini (Endless)",
                    "description": "<p>Si il est réduit à 0 point de vie ou incapacité pendant plus de quelques rounds, le morrowkin disparaît. Au bout d'une minute, il réapparaît complètement rafraîchi, comme si le combat précédent n'avait jamais eu lieu, avec tous ses PV, tous les effets sur lui étant effacés et sa capacité Avaler le futur prête à être utilisée à nouveau.</p>"
                },
                "Vcb2fzxMkjOhWNPz": {
                    "name": "Drain des possibles (Drain Potential)",
                    "description": "<p>Le morrokin essaie de drainer la motivation de sa cible, qui doit tenter un jet de @Check[type:fortitude|dc:31]. Si la cible rate son jet de sauvegarde, elle est @UUID[Compendium.pf2e.conditionitems.Item.3uh1r86TzbQvosxv]{Condamnée 1} (@UUID[Compendium.pf2e.conditionitems.Item.3uh1r86TzbQvosxv]{Condamnée 2} sur un échec critique) et doit lancer le dé deux fois et utiliser le plus mauvais résultat sur tous ses jets pendant 1 minute. Les créatures qui portent le talisman d'espoir ne sont pas affectées.</p>"
                },
                "pAa1q5ts9oP6qdky": {
                    "name": "Furie de demain (Tomorrow's Fury)",
                    "description": "<p>Le morrokin effectue des attaques de Griffes contre n'importe quel nombre de cibles dans son allonge. Les attaques de Griffes compte en ce qui concernent la pénalité d'attaques multiples du morrokin, mais cette pénalité ne s'applique qu'après que toutes les attaques aient été effectuées.</p>"
                },
                "sxD01nPswudJsjzS": {
                    "name": "Avaler le futur (Swallow Future)",
                    "description": "<p>Le morrowkin inspire profondément puis ramène les actions futures de toutes les créatures autour de lui. Toutes les créature dans une @Template[type:emanation|distance:30]{émanation de 9 mètres} autour du morrokin subissent [[/r (6d8+18)[mental]]]{6d8+18 dégâts mentaux} et doivent tenter un jet de @Check[type:will|dc:39].</p>\n<p>Le morrokin ne peut plus utiliser Avaler le futur avant 1 minute.</p>\n<p>Les créatures qui portent des alismans d'espoir peuvent choisir de les laisser se briser afin d'igoner les effets après avoir constaté les résultats de leur jets de Volonté.</p>\n<hr />\n<p><strong>Succès critique</strong> Les créatures ne subissent aucun dégâts.</p>\n<p><strong>Succès</strong> Les créatures subissent la moitié des dégâts et sont @UUID[Compendium.pf2e.conditionitems.Item.3uh1r86TzbQvosxv]{Condamnées 1}.</p>\n<p><strong>Échec</strong> Les créatures subissent tous les dégâts et sont @UUID[Compendium.pf2e.conditionitems.Item.3uh1r86TzbQvosxv]{Condamnées 2}.</p>\n<p><strong>Échec critique</strong> Les créatures subissent le double des dégâts et sont @UUID[Compendium.pf2e.conditionitems.Item.3uh1r86TzbQvosxv]{Condamnées 4} (causant fort probablement leur mort immédiate).</p>"
                }
            }
        },
        "Reflection": {
            "name": "Reflet (Reflection)",
            "items": {
                "TpYNcJKE1v9ktu1H": {
                    "name": "Arme de reflet (Reflected Weapon)"
                },
                "qTHgALlk6FGnqd7W": {
                    "name": "Routine du reflet (Reflection Routine)",
                    "description": "<p>Chaque reflet possède 2 actions qu'il peut utiliser pour Faire un pas, Marcher rapidement ou Frapper (la combinaison au choix). Les reflets ne peuvent pas agir au tour où ils ont été crées.</p>"
                }
            }
        },
        "Quartz-Spawned Shadow": {
            "name": "Ombre rejeton de quartz (Quartz-Spawned Shadow)",
            "description": "<p>Les mystérieux morts-vivants connus sous le nom d'ombres rôdent dans les lieux sombres et se nourrissent de ceux qui s'éloignent trop de la lumière. Ceux qui arrivent à parlementer avec les ombres, généralement en réussissant à les tenir à distance avec une arme lumineuse, peuvent apprendre de grands secrets car elles sont de parfaits espions.</p>",
            "items": {
                "0QWVJ7Of8cQNKp0N": {
                    "name": "Se fondre dans les ombres (Slink in Shadows)",
                    "description": "<p>L'ombre peut @UUID[Compendium.pf2e.actionspf2e.Item.XMcnh4cSI32tljXa]{Se cacher} ou terminer son déplacement en @UUID[Compendium.pf2e.actionspf2e.Item.VMozDqMMuK5kpoX4]{Étant furtive} dans l'ombre d'une créature ou d'un objet.</p>"
                },
                "ACHlnYzXVxizzqPw": {
                    "name": "Vulnérabilité à la lumière (Light Vulnerability)",
                    "description": "<p>Un objet qui projette une lumière magique (comme celle créée par le sort <em>@UUID[Compendium.pf2e.spells-srd.Item.WBmvzNDfpwka3qT4]{Lumière}</em>) est considéré comme magique s'il est utilisé pour attaquer une ombre.</p>"
                },
                "LkqCkG3YFw362zdS": {
                    "name": "Siphon de cristal (Crystal Siphon)",
                    "description": "<p><strong>Conditions</strong> L'ombre et la cible sont tous deux dans les 12 mètres qu cristal dont est issue l'ombre et le cristal n'est pas recouvert ou obstrué</p>\n<hr />\n<p><strong>Effet</strong> Des ombres en forme de volutes s'enroulent autour de la cible, puisant une partie de sa vitalité pour la siphonner au sein du cristal. La cible subit [[/r 4d6[void]]]{4d6 dégâts de vide} (@Check[type:fortitude|dc:21|basic:true]). En cas d'échec, elle est également @UUID[Compendium.pf2e.conditionitems.Item.MIRkyAjyBeXivMa7]{Affaiblie 1}. Cet état Affaibli se cumule avec les autres états Affaibli des ombres engendrées par le quartz, jusqu'à atteindre Affaibli 4. Si le Siphon de cristal augmente la valeur de l'état Affaibli à 3 ou plus, l'ombre de la cible est entièrement aspirée dans le cristal de l'ombre.</p>\n<p>Tant que l'ombre de la cible est piégée, elle sent un lien invisible qui la relie au cristal et elle devient @UUID[Compendium.pf2e.conditionitems.Item.xYTAsEpcJE1Ccni3]{Ralentie 1} lorsqu'elle se tient à plus de 12 mètres de ce dernier. L'état Affaibli du Siphon de cristal ne peut être réduit avant que le cristal ne soit Brisé. Si le cristal est brisé, l'effet est immédiatement interrompu.</p>"
                },
                "x47iDfIE9albveGl": {
                    "name": "Main d'ombre (Shadow Hand)"
                }
            }
        },
        "Entrapping Chair": {
            "name": "Chaise piégeuse (Entrapping Chair)",
            "desc (hazard)": "<p>Une chaise dissimulée dans les rails s'avance brusquement, poussant une créature dans le siège et l'emprisonnant avec des accoudoirs bloquants.</p>",
            "disable": "<p>@Check[type:thievery|dc:23|name:Désactiver les rails|traits:action:disable-a-device] (expert) pour désactiver les rails</p>",
            "reset": "<p>Le piège se réinitialise automatiquement sur deux rounds, si la chaise est inoccupée.</p>",
            "stealth": "<p>0 pour remarquer la chaise</p>",
            "items": {
                "V4xSx1Z7pl5RTlY8": {
                    "name": "Assied-toi ! (Take a Seat!)",
                    "description": "<p><strong>Déclencheur</strong> Un créature marche sur le rail</p>\n<hr />\n<p><strong>Effet</strong> La chaise s'avance rapidement sur les rails et cogne la créature déclencheuse, infligeant [[/r (3d8+15)[bludgeoning]]]{3d8+15 dégâts contondants}. Une créature qui réussit un jet @Check[type:reflex|dc:22|traits:damaging-effect] ne subit aucun dégâts alors qu'elle s'écarte du chemin de la chaise dans une case aléatoire adjacente qui ne contient pas de rail. Une créature qui rate son jet de sauvegarde est projetté dans le siège et immédiatement capturé par la accoudoirs, devenant @UUID[Compendium.pf2e.conditionitems.Item.kWc1fhmv9LBiTuei]{Empoigné/Agrippé} (@UUID[Compendium.pf2e.conditionitems.Item.VcDeM8A5oI6VqhbM]{Entravée} sur un échec critique ; S'échapper DD 26).</p>"
                }
            }
        },
        "Mother Mitera": {
            "name": "Mère Mitéra (Mother Mitera)",
            "hpdetails": "Lien cristal de vitalité",
            "items": {
                "27gvcHsNqsw223ci": {
                    "name": "Mouvement sans entrave (Freedom of Movement)"
                },
                "5n8EB4Rkx3GH7H9F": {
                    "name": "L'ascension est proche (Ascension is Near)",
                    "description": "<p><strong>Fréquence</strong> Une fois par rituel d'ascension</p>\n<hr />\n<p><strong>Effet</strong> Mitéral active le lien de la fleur de lune avec ses fidèles. Tout fidèle dans une @Template[type:emanation|distance:30]{émanation de 9 mètres} qui a raté son jet de sauvegarde contre le thé de fleur de lune devient @UUID[Compendium.pf2e.conditionitems.Item.fesd1n5eVhpCSS18]{Malade/nauséeux 1}. Tout fidèle qui a raté de façon critique son jet de sauvegarde et qui n'a pas reçu l'antidote explose (ceci constitue environ la moitié de la congréation si les PJ n'ont pas réussi à donner l'antidote). Si quelqu'un explose, Mitéra gagne 30 points de vie temporaires et devient @UUID[Compendium.pf2e.conditionitems.Item.nlCjDvLMf2EkV2dl]{Accélérée} pendant 3 rounds. Elle ne peut utiliser son action supplémentaire chaque round que pour Marcher rapidement ou pour Frapper.</p>"
                },
                "AlwQQa9VMlKZZ4Lh": {
                    "name": "Uni aux plantes (Tree Shape)"
                },
                "EnzeIZIIDQUKABJc": {
                    "name": "Lumière (Dancing Lights)"
                },
                "GTidGY6vXi9cj9yz": {
                    "name": "Lien cristal de vitalité (Crystal Vitality Link)",
                    "description": "<p>Le pouvoir de l'île lie la vitalité de Mitéra à ses disciples. Tant que l'une des trois formations de quartz est intacte, chaque fois que Mitéra subit des dégâts, tous ses disciples situés dans un rayon de 3 kilomètres perdent le même nombre de points de vie.</p>"
                },
                "IWLtNJgGKZE4sql1": {
                    "name": "Dague (Dagger)"
                },
                "QTtxdQfCEdIlwxnV": {
                    "name": "Flore enchevêtrante (Tanglefoot)"
                },
                "QXfvM6FrHEOhlDqg": {
                    "name": "Flore enchevêtrante (Entangle)"
                },
                "SzPTvuxOEAOJsUZN": {
                    "name": "Couronne de fleurs de cristal (Crystal Flower Crown)"
                },
                "WYO8PLbig5DM9bF0": {
                    "name": "Lumière révélatrice (Glitterdust)"
                },
                "cOno50AugBRsfxaZ": {
                    "name": "Robes cérémonielles (Ceremonial Robes)"
                },
                "nvyRpGOfcTh5qgcI": {
                    "name": "Sorts primordiaux préparés (Primal Prepared Spells)"
                },
                "spFa0equ7phkEcc9": {
                    "name": "Connaissance de Ludovica (Ludovica Lore)"
                },
                "wOS1PPw34UfnTuPS": {
                    "name": "Dague (Dagger)"
                }
            }
        },
        "Spirit Window": {
            "name": "Fenêtres hantées (Spirit Window)",
            "desc (hazard)": "<p>Des esprits sont emprisonnés dans la fenêtre hantée. Ils blessent ceux qui touchent la fenêtre.</p>",
            "disable": "<p>@Check[type:occultism|dc:48|name:Libérer les esprits] (légendaire) pour libérer les esprits du miroir ou de @Check[type:religion|dc:48|name:Bannir les esprits] (légendaire) pour bannir les esprits.</p>",
            "reset": "<p>1 round</p>",
            "items": {
                "2WfGqYcBTEQfIJje": {
                    "name": "Siphon d'âme (Siphon Soul)",
                    "description": "<p><strong>Déclencheur</strong> Une créature touche la fenêtre</p>\n<hr />\n<p><strong>Effet</strong> La créature déclencheuse subit [[/r (8d10+44)[void]]]{8d10+44 dégâts de vide} (@Check[type:will|dc:42|basic:true]) alors que la fenêtre hantée tente de voler son âme. Si les dégâts amènent à la mort de la créature, son âme sera emprisonnée dans la fenêtre avec les effets de <em>@UUID[Compendium.pf2e.spells-srd.Item.GYmXvS9NJ7QwfWGg]{Appropriation de l'âme}</em>.</p>"
                }
            }
        },
        "Bounding Hounds": {
            "name": "Molosses fantômes (Bounding Hounds)",
            "hpdetails": "60 PV par molosse",
            "desc (hazard)": "<p>Trois molosses fantômes chassent les intrus, infligeant des dégâts aux créatures qu'ils traversent.</p>",
            "disable": "<p>@Check[type:nature|dc:36|name:Calmer le molosse] (expert) pour calmer chaque molosse ou test d'@Check[type:occultism|dc:38|name:Bannir les molosses] (maître) pour bannir chaque molosse.</p>",
            "reset": "<p>1 heure</p>",
            "routine": "<p>(9 actions) Le piège perd 3 actions par round pour chaque molosse neutralisé. Chaque molosse utilise trois actions pour Marcher rapidement sur une distance de 12 mètres poursuivant les créatures dans la pièce, en passant à travers les créatures corporelles pendant ce mouvement si possible. Chaque créature que le molosse traverse subit [[/r (2d8+7)[void]]]{2d8+7 dégâts de vide} (@Check[type:reflex|dc:37|traits:damaging-effect] annule les dégâts). Une créature ne peut subir des dégâts qu'une seule fois par molosse et par round, quel que soit le nombre de fois où le molosse se déplace dans son espace. </p>",
            "items": {
                "lY8P3VlUAyOoBnVJ": {
                    "name": "Aboyer (Bay)",
                    "description": "<p><strong>Déclencheur</strong> Une créature pénètre dans la zone.</p>\n<hr />\n<p><strong>Effet</strong> Le molosse se manifeste en aboyant bruyamment, infligeant [[/r (3d10+16)[sonic]]]{3d10+16 dégâts de son} à toutes les créatures dans les 9 mètres du molosse (@Check[type:fortitude|dc:33|basic:true]). Sur un échec au jet de sauvegarde, la créature est également @UUID[Compendium.pf2e.conditionitems.Item.TBSHQspnbcqxsmjL]{Effrayée 2}. Le piège lance ensuite l'initiative.</p>"
                }
            }
        },
        "Clone Mirrors": {
            "name": "Miroir de clônage (Clone Mirrors)",
            "hpdetails": "par miroir",
            "desc (hazard)": "<p>Deux miroirs opposés engendrent des doubles illusoires des créatures dans le hall, dans une marée incessante.</p>",
            "disable": "<p>@Check[type:thievery|dc:28|name:Déplacer les miroirs|traits:action:disable-a-device] (expert) pour déplacer les miroirs et les replacer ou <em>@UUID[Compendium.pf2e.spells-srd.Item.9HpwDN4MYQJnW0LG]{Dissipation de la magie}</em> (Niveau 3 ; contre DD 25) pour contrer chaque miroir</p>",
            "reset": "<p>1 jour</p>",
            "routine": "<p>(2 actions) Ce piège perd 1 action pour chaque miroir désactivé. Chaque miroir utilise 1 action pour engendrer un reflet d'une créature reflétée dans le miroir. Le piège peut engendrer un maximum de quatre reflets à la fois.</p>",
            "items": {
                "M6pVTXxAJ26CuNx5": {
                    "name": "Création de reflets (Spawn Reflection)",
                    "description": "<p><strong>Déclencheur</strong> La créature est réfléchie dans le miroir</p>\n<hr />\n<p><strong>Effet</strong> Le miroir crée un @UUID[Compendium.pf2e.pathfinder-dark-archive.Actor.ICdVjs6JEs0YAefl]{Reflet} de la créature déclencheuse, qui Fait un pas hors du miroir dans le couloir. Puis le piège lance l'initiative.</p>"
                }
            }
        },
        "False Floor": {
            "name": "Sol illusoire (False Floor)",
            "desc (hazard)": "<p>Le sol de cette chambre est une illusion qui dissimule une chute de 12 mètres jusqu'au véritable sol situé en dessous. De plus, la zone située sous le plancher est magiquement réduite au silence : aucun son n'est audible à l'intérieur et aucun son ne sort de cet espace.</p>",
            "disable": "<p>Réussir un test de Perception contre le DD de Discrétion 21 (incluant le test pour trouver le piège) révèle le sol illusoire ou <em>@UUID[Compendium.pf2e.spells-srd.Item.9HpwDN4MYQJnW0LG]{Dissipation de la magie}</em> (Niveau 2 ; contre DD 18) pour dissiper l'illusion ; <em>Dissipation de la magie</em> (Niveau 2 ; contret DD 20) pour dissiper la magie du silence.</p>",
            "reset": "<p>Automatique</p>",
            "stealth": "<p>Qualifié ou 0 si l'illusion du sol a été dissipé</p>",
            "items": {
                "0bSHLXIeRbwxpKtv": {
                    "name": "Chute (Drop)",
                    "description": "<p><strong>Déclencheur</strong> La créature s'avance sur le sol illusoire.</p>\n<hr />\n<p><strong>Effet</strong> La créature déclencheuse tombe au travers de l'illusion et subit des dégâts de chute (typiquement [[/r 20[bludgeoning]]]{20 points de dégâts contondants}). Cette créature peut tenter la réaction de @UUID[Compendium.pf2e.actionspf2e.Item.3yoajuKjwHZ9ApUY]{Se raccrocher in extremis} pour ne pas tomber. Le DD pour @UUID[Compendium.pf2e.actionspf2e.Item.pprgrYQ1QnIDGZiy]{Escalader} les murs (@Check[type:athletics|dc:20|traits:action:climb]) ou pour Se raccrocher in extremis @Check[type:reflex|dc:20|traits:action:grab-an-edge].</p>"
                }
            }
        },
        "Confounding Portal": {
            "name": "Portail déconcertant (Confounding Portal)",
            "desc (hazard)": "<p>De minuscules runes gravées autour d'un cadre de porte ou sur les murs d'un hall d'entrée déconcertent subrepticement les créatures à tourner autour de la pièce ou du couloir qu'elles tentent de quitter ou de traverser.</p>",
            "disable": "<p>@Check[type:thievery|dc:17|name:Gratter les runes|traits:action:disable-a-device] pour faire disparaître les runes en les grattant, ou d'@Check[type:arcana|dc:16|name:Détruire les runes] pour détruire les runes</p>",
            "reset": "<p>Automatique</p>",
            "items": {
                "K7zv6GnWMFnvcN2z": {
                    "name": "Détournement déconcertant (Confounding Misdirection)",
                    "description": "<p><strong>Déclencheur</strong> Une créature traverse la porte ou le couloir sculpté de runes. </p>\n<hr />\n<p><strong>Effet</strong> La créature est The creature is @UUID[Compendium.pf2e.conditionitems.Item.yblD8fOR1J8rDwEQ]{Confuse} par les illusions et est redirigée une nouvelle fois vers la pièce qu'elle tentait de quitter en passant par la porte ou le couloir où elle était. Pour la créature déclencheuse, cela ne semble pas différent d'un passage dans une porte ou un couloir, et les spectateurs sont tout aussi déroutés. Une créature qui réussit un jet de @Check[type:will|dc:19] résiste à l'illusion et quitte la pièce ou continue le couloir sans être détournée.</p>"
                }
            }
        },
        "Thalassophobic Pool": {
            "name": "Bassin thalassophobique (Thalassophobic Pool)",
            "desc (hazard)": "<p>Le bassin aspire les créatures qui y tombent et les fait sombrer dans ses profondeurs infinies.</p>",
            "disable": "<p>@Check[type:diplomacy|dc:32|name:Calmer le bassin] (maître) ou test de @Check[type:deception|dc:32|name:Calmer le bassin] (maître) pour faire taire la peur et calmer le bassin ou test d'@Check[type:intimidation|dc:35|name:Effrayer le bassin] pour flanquer la frousse au bassin ; trois succès sont requis.</p>",
            "reset": "<p>Le piège se réinitialise lorsqu'il n'y a plus de créatures qui se déplacent dedans</p>",
            "routine": "<p>(3 actions) De l'eau du calice augmente la profondeur du bassin de 3 mètres par action. Chaque fois que cela arrive, les créatures dans le bassin sont poussés de 3 mètres sous l'eau et subissent @Damage[1d6[bludgeoning]]{1d6 dégâts contondants}. Comme le bassin n'a pas de fond, les créatures qui s'y trouvent peuvent tomber indifiniment. Les créatures doivent @UUID[Compendium.pf2e.actionspf2e.Item.c8TGiZ48ygoSPofx]{Nager} pour ne pas se noyer, mais l'eau est particulièrement mouvante, ce qui augmente le DD d'Athlétisme à @Check[type:athletics|dc:25|traits:action:swim]. Le bassin ne déborde jamais. Chaque test réussi pour le désactiver le bassin réduit le nombre d'actions du bassin de 1 et dès que le bassin est totalement désactivé, l'eau devient calme et le DD d'Athlétisme pour Nager est de @Check[type:athletics|dc:10|traits:action:swim].</p>",
            "stealth": "Qualifié",
            "items": {
                "GReYolkvohIlgdbM": {
                    "name": "Averse (Downpour)",
                    "description": "<p><strong>déclencheur</strong> Une créature tombe dans le bassin</p>\n<hr />\n<p><strong>Effet</strong> Davantage d'eau se déverse du calice. Les créatures dans le bassin sont @UUID[Compendium.pf2e.conditionitems.Item.i3OJZU2nk64Df3xm]{Maladroites 1} et elles ne peuvent réduire leur état Maladroit tant qu'elles restent dans le bassin. Puis le piège lance l'initiative.</p>"
                }
            }
        },
        "False Step Floor": {
            "name": "Faux-plancher (False Step Floor)",
            "desc (hazard)": "<p>Chaque fois qu'une créature entre dans la pièce, elle glisse à travers le sol, bascule dans un vide interdimensionnel et retombe dans la pièce à travers le plafond, atterrissant sur le sol</p>",
            "disable": "<p>@Check[type:thievery|dc:28|name:Interrompre l'énergie magique|traits:action:disable-a-device] (qualifié) pour interrompre l'énergie de la magie, ou test d'@Check[type:arcana|dc:27|name:Réaligner la magie] ou @Check[type:occultism|dc:27|name:Réaligner la magie] (qualifié) pour réaligner l'énergie magique</p>",
            "items": {
                "WYeWa4hUK5Lu9dLb": {
                    "name": "Faux-plancher (False Step)",
                    "description": "<p><strong>Déclencheur</strong> Une créature entre dans la pièce et marche sur le sol</p>\n<p><strong>Effet</strong> La créature glisse à travers le sol ; elle bascule dans un vide interdimensionnel avant de retomber dans la pièce à travers le plafond et d'atterrir sur le sol. La créature déclencheuse subit [[/r 40[bludgeoning]]]{40 points de dégâts contondants} de la chute. La créature peut tenter de @UUID[Compendium.pf2e.actionspf2e.Item.3yoajuKjwHZ9ApUY]{Se raccrocher in extremis} (DD 24) pour s'empêcher de tomber.</p>"
                }
            }
        },
        "Distortion Mirror": {
            "name": "Miroir déformant (Distortion Mirror)",
            "desc (hazard)": "<p>Les miroirs grossissants déforment le reflet de l'observateur, remodelant douloureusement son corps pour qu'il corresponde à ce qui apparaît dans les images reflétées.</p>",
            "disable": "<p>@Check[type:thievery|dc:38|name:Dégrader le miroir|traits:action:disable-a-device] (master) pour dégrader la vitre du miroir, ou <em>@UUID[Compendium.pf2e.spells-srd.Item.9HpwDN4MYQJnW0LG]{Dissipation de la magie}</em> (Niveau 7 ; contre DD 36) pour dissiper la magie du miroir ou contrer la transformation.</p>",
            "reset": "<p>1 jour</p>",
            "stealth": "<p>0 pour remarquer le miroir</p>",
            "items": {
                "rKdbdgqCvS4u8s4L": {
                    "name": "Transformation douloureuse (Painful Transformation)",
                    "description": "<p><strong>Déclencheur</strong> Une créature est réfléchie dans un miroir.</p>\n<hr />\n<p><strong>Effet</strong> Le corps de la créature est écrasé, étiré et déformé pour correspondre à son reflet. La créature subit [[/r (6d10+30)[force]]]{6d10 dégâts de force} et doit tenter un jet de @Check[type:fortitude|dc:39|traits:damaging-effect].</p>\n<hr />\n<p><strong>Succès critique</strong> La cible n'est pas affectée.</p>\n<p><strong>Succès</strong> La cible subit la moitié de dégâts et est @UUID[Compendium.pf2e.conditionitems.Item.i3OJZU2nk64Df3xm]{Maladroite 1} et @UUID[Compendium.pf2e.conditionitems.Item.MIRkyAjyBeXivMa7]{Affaiblie 1} pendant 1 round.</p>\n<p><strong>Échec</strong> La cible subit la totalité des dégâts et est @UUID[Compendium.pf2e.conditionitems.Item.i3OJZU2nk64Df3xm]{Maladroite 2} et @UUID[Compendium.pf2e.conditionitems.Item.MIRkyAjyBeXivMa7]{Affaiblie 2} pendant 4 rounds.</p>\n<p><strong>Échec critique</strong> La cible subir le double des dégâts et est Maladroite 2 et Affaiblie 2 pendant 1 minute. Pour aussi longtemps que la créature est Affaiblie ou Maladroite, elle subit également une pénalité de -3 mètres à ses Vitesses.</p>\n<p>Lorsque les effets de ce piège s'arrêtent, la transformation de la créature déclencheuse s'arrête, et son corps revient à sa forme normale.</p>"
                }
            }
        },
        "Verdure's Moonflower": {
            "name": "Fleur de lune de verdure (Verdure's Moonflower)",
            "description": "<p>Ces énormes plantes possèdent de larges troncs noueux et leurs fleurs sont garnies de crocs. Une bouche grande ouverte se situe au sommet de leurs troncs, capable d'avaler la plupart des créatures plus petites que la fleur de lune elle-même. Les fleurs de lune peuvent se déplacer lentement sur leurs puissantes racines ou les utiliser pour attaquer, mais en général, elles les enterrent profondément dans le terrain et se tiennent immobiles afin de guetter leurs proies.</p>\n<p>Bien que les fleurs de lune ne s'expriment pas de façon conventionnelle, elles communiquent par télépathie avec leurs semblables. C'est pourquoi les explorateurs qui croisent une fleur de lune peuvent être sûrs que toutes celles se trouvant aux alentours seront prêtes à les accueillir. Ceux qui parviennent à intercepter les communications télépathiques des fleurs de lune sont assaillis par des visions de terribles jungles primitives sur lesquelles règnent des plantes gigantesques. On ignore s'il s'agit d'une vision du passé ou d'un rêve du futur partagé par toutes les fleurs de lune.</p>\n<p>Les fleurs de lune sont des formes de vie qui viennent d'une planète morte depuis longtemps, mais leur prolifération à travers la galaxie a été assurée par les machinations du Sombre Domaine, une sinistre organisation qui vient de l'obscurité entre les étoiles.</p>",
            "hpdetails": "Guérison accélérée 10",
            "items": {
                "6Psn5RSYm8UGDpwM": {
                    "name": "Cosse prison (Pod Prison)",
                    "description": "<p><strong>Déclencheur</strong> La fleur de lune a gobé une créature</p>\n<hr />\n<p><strong>Effet</strong> La créature gobée est enveloppée dans un cocon étroit et expulsée hors du corps de la fleur de lune dans une case adjacente. La créature continue à être Gobée. Elle ne peut pas utiliser Acrobaties pour @UUID[Compendium.pf2e.actionspf2e.Item.SkZAQRkLLkmBQNB9]{S'échapper} hors de la cosse, mais d'autres créatures peuvent tenter de Rompre la cosse. La créature emprisonnée subit la moitié des dégâts infligés au cocon. Une fois Rompu, le cocon se dégonfle et se décompose.</p>"
                },
                "7pxsxbazh1PpK8A4": {
                    "name": "Guérison accélérée 10 (Fast Healing 10)"
                },
                "JzkjkxNi7EFlzsmZ": {
                    "skillVariants": {
                        "0": {
                            "label": "+18 dans la végétation épaisse"
                        }
                    }
                },
                "MvwGFLtsnf8ZFqhG": {
                    "name": "Racine (Root)"
                },
                "SDF2zWv6zGkmcQH9": {
                    "name": "Morsure (Bite)"
                },
                "SlJZiCxXuBW155d5": {
                    "skillVariants": {
                        "0": {
                            "label": "Ne peut sauter ou nager"
                        }
                    }
                },
                "Uoxf8sSuS6pG7QQF": {
                    "name": "Cosse rejeton (Pod Spawn)",
                    "description": "<p>Si une créature de taille Petite ou supérieure meurt dans une cosse prison, celle-ci se transforme en une fleur de lune adulte avec tous ses points de vie. après [[/br 1d4 #Transformation fleur de lune]]{1d4 heures} de croissance.</p>\n<p>La fleur de lune nouvellement formée possède sa propre conscience, mais certains aspects de son tronc ou de ses fleurs ressemblent à la créature qui est morte à l'intérieur. L'équipement de la créature morte reste à l'intérieur de la nouvelle fleur de lune et peut être récupéré si la fleur de lune est tuée.</p>"
                },
                "kjaeBRLTBCSOl9cS": {
                    "description": "<p>Grande, @Damage[(2d10+10)[bludgeoning],2d6[acid]]{2d10+10 dégâts contondants et 2d6 dégâts d'acide}, Rupture 21</p>\n<hr />\n<p>@Localize[PF2E.NPC.Abilities.Glossary.SwallowWhole]</p>"
                },
                "uOpDNZG0ysnNMkxM": {
                    "name": "Diffuser des fleurs (Spray Blossoms)",
                    "description": "<p><strong>Effet</strong> La fleur de lune expulse des pétales capables de distordre l'esprit dans un @Template[type:cone|distance:30]{cône de 9 mètres}. Les créatures dans la zone subissent @Damage[4d6[mental],4d6[poison]]{4d6 dégâts mentaux et 4d6 dégâts de poison} (@Check[type:will|dc:26|basic:true]). En cas d'échec, elles sont @UUID[Compendium.pf2e.conditionitems.Item.e1XGnhKNSQIm5IXg]{Stupéfiées 2} pendant 1 minute et en cas de coup critique, elles sont aussi @UUID[Compendium.pf2e.conditionitems.Item.yblD8fOR1J8rDwEQ]{Confuses} pendant 1 round.</p>\n<p>La fleur de lune ne peut Diffuser des fleurs pendant [[/br 1d4 #Recharge Diffuser des fleurs]]{1d4 rounds}.</p>"
                }
            }
        }
    },
    "mapping": {
        "description": "system.details.publicNotes",
        "blurb": "system.details.blurb",
        "cadetails": "system.attributes.ac.details",
        "ci": "system.traits.ci.custom",
        "damageimmunity": "system.traits.di.custom",
        "damageresistance": "system.traits.dr.custom",
        "damagevulnerability": "system.traits.dv.custom",
        "hpdetails": "system.attributes.hp.details",
        "languages": "system.traits.languages.custom",
        "saves": "system.attributes.allSaves.value",
        "senses": "system.traits.senses.value",
        "speeds": "system.attributes.speed.details",
        "traits": "system.traits.traits.custom",
        "desc (hazard)": "system.details.description",
        "disable": "system.details.disable",
        "reset": "system.details.reset",
        "routine": "system.details.routine",
        "stealth": "system.attributes.stealth.details",
        "target": "system.target.value",
        "items": {
            "path": "items",
            "converter": "translateActorItems"
        }
    }
}