{
    "label": "Ascendances",
    "entries": {
        "Human": {
            "name": "Humain (Human)",
            "description": "<p><em>Plus imprévisibles et disparates que n'importe quel autre peuple habitant sur Golarion, les humains font preuve d'une volonté exceptionnelle qui les pousse à s'étendre envers et contre tout. Si de nombreuses civilisations ont prospéré avant l'ascension de l'humanité, celle-ci est à l'origine des plus grandes et plus terribles sociétés de l'histoire et elle constitue aujourd'hui la majorité de la population du pourtour de la Mer Intérieure.</em></p>\n<p><em>@UUID[Compendium.pf2e.journals.JournalEntry.45SK8rdbbxvEHfMn.JournalEntryPage.7pU8yM7yPMw92SY3]{Humain}</em></p>"
        },
        "Skeleton": {
            "name": "Squelette (Skeleton)",
            "description": "<p><em>Les squelettes sont considérés parmi les plus faibles type de créatures mortes-vivantes. Ce sont typiquement des créatures dépourvues d'intelligence, manquant des nombreuses capacités qui font des autres morts-vivants une menace sérieuse. Quoi qu'il en soit, les os animés des dragons, des géants et d'autres grandes bêtes font de plus puissants adversaires. De puissantes créatures vivantes peuvent retenir une partie de leur puissance et de leur intellect en étant relevées comme squelettes. Certains nécromants font de leurs plus puissants ennemis des serviteurs morts-vivants squelettes en partant du principe qu'ils en auront le contrôle.</em></p>\n<p><em>@UUID[Compendium.pf2e.journals.JournalEntry.45SK8rdbbxvEHfMn.JournalEntryPage.EcNSrvwIj22Jxkjz]{Squelette}</em></p>"
        },
        "Kashrishi": {
            "name": "Kashrishi",
            "description": "<p><em>Les kashrishis élisent domicile dans les régions reculées du monde. Ces êtres tranquilles ont une constitution robuste et durable et des cornes cristallines distinctives. Leurs capacités psychiques inhérentes font d'eux des empathes naturels mais les accablent aussi parfois avec les pensées incessantes de leurs voisins.</em></p>\n<p><em>@UUID[Compendium.pf2e.journals.JournalEntry.45SK8rdbbxvEHfMn.JournalEntryPage.IJOH7nk0w1IybAhp]{Kashrishi}</em></p>"
        },
        "Catfolk": {
            "name": "Homme-félin (félide) (Catfolk)",
            "description": "<p><em>Vagabonds curieux et grégaires, les hommes-félins combinent des caractéristiques des félins et des humanoïdes à la fois en apparence et en tempérament. Ils apprécient apprendre de nouvelles choses, collectionner de nouvelles histoires et des babioles et s'assurer que les êtres qui leur sont chers soient en sécurité et heureux. Les hommes-félins se voient comme des gardiens choisis des lieux naturels du monde et sont souvent imprudemment braves, même en face d'une opposition surpuissante.</em></p>\n<p><em>@UUID[Compendium.pf2e.journals.JournalEntry.45SK8rdbbxvEHfMn.JournalEntryPage.5S1Pq3GoEzLfBbH7]{Homme-félin (félide)}</em></p>"
        },
        "Ghoran": {
            "name": "Ghoran",
            "description": "<p><em>Ce peuple végétal intelligent, créé par un druide mort depuis longtemps, possède une sorte d'immortalité grâce à ses graines, à moins que celles-ci ne soient détruites par des événements extérieurs autres que les ravages du temps.</em></p>\n<p><em>@UUID[Compendium.pf2e.journals.JournalEntry.45SK8rdbbxvEHfMn.JournalEntryPage.kRjkrWAqQNXj3LLP]{Ghoran}</em></p>"
        },
        "Halfling": {
            "name": "Halfelin (Halfling)",
            "description": "<p><em>Les halfelins ne se revendiquent d'aucune nation et leurs villes sont rarement plus que de simples villages. Ils résident en général avec les humains dans l'enceinte de grandes villes où ils vivent dans de petites communautés aux côtés des grandes gens. De nombreux halfelins mènent une vie parfaitement épanouissante dans l'ombre de leurs grands voisins. D'autres préfèrent une existence plus nomade, partent fouler les chemins et profitent de toutes les opportunités et aventures qui se présentent à eux.</em></p>\n<p><em>@UUID[Compendium.pf2e.journals.JournalEntry.45SK8rdbbxvEHfMn.JournalEntryPage.voI7uPS9vsG74JIn]{Halfelin}</em></p>"
        },
        "Shoony": {
            "name": "Shoony",
            "description": "<p><em>Minuscules humanoïdes qui ressemblent à des chiens trapus et bipèdes les shoonys sont quelque fois pris à tort pour de faibles pacifistes insulaires. Quoi qu'il en soit, leur persévérance absolue, leur éthique de travail incroyable et leur utilisation pleine de ressources de la diplomatie font que les shoonys sont loin d'être sans défense.</em></p>\n<p><em>@UUID[Compendium.pf2e.journals.JournalEntry.45SK8rdbbxvEHfMn.JournalEntryPage.j2hOTtHcdu2SA8Ha]{Shoony}</em></p>"
        },
        "Poppet": {
            "name": "Poupée (Poppet)",
            "description": "<p><em>Les poupées sont de petites créature artificielles basiques qui aident généralement leurs propriétaires à accomplir de simples tâches. Parfois, les poupées accèdent à la conscience, à l'indépendance et obtiennent une parcelle de vie. Dépassant le stade de simples assistants ou de jouets, de telles poupées sont libres de suivre leur propre destin.</em></p>\n<p><em>@UUID[Compendium.pf2e.journals.JournalEntry.45SK8rdbbxvEHfMn.JournalEntryPage.Ck8L9livQph1GFal]{Poupée}</em></p>"
        },
        "Automaton": {
            "name": "Automate (Automaton)",
            "description": "<p><em>Ces créatures artificielles intelligentes abritent de véritables âmes et représentent ce qui reste de la dernière tentative de grandeur d'un empire mourant. Les automates combinent l'ingéniosité technologique et la puissance magique, créant ainsi un être mixte totalement unique à Golarion.</em></p>\n<p><em>@UUID[Compendium.pf2e.journals.JournalEntry.45SK8rdbbxvEHfMn.JournalEntryPage.rsx8cRI20oEDgfQh]{Automate}</em></p>"
        },
        "Lizardfolk": {
            "name": "Homme-lézard (Lizardfolk)",
            "description": "<p><em>Les hommes-lézards sont des survivants accomplis, héritiers de royaumes considérés comme anciens même du point de vue des elfes.</em></p>\n<p><em>@UUID[Compendium.pf2e.journals.JournalEntry.45SK8rdbbxvEHfMn.JournalEntryPage.cbLJs37Nc8FveriK]{Homme-lézard}</em></p>"
        },
        "Tengu": {
            "name": "Tengu",
            "description": "<p><em>Les tengus sont un peuple d'experts de la survie plein de ressources qui s'est répandu loin et largement à partir de leur foyer ancestral au Tian Xia, collectionnant et combinant toutes les innovations et les traditions qu'ils ont croisées sur leur chemin avec leur propre longue histoire.</em></p>\n<p><em>@UUID[Compendium.pf2e.journals.JournalEntry.45SK8rdbbxvEHfMn.JournalEntryPage.YGIwmuVOJI7uNhGM]{Tengu}</em></p>"
        },
        "Conrasu": {
            "name": "Conrasu",
            "description": "<p><em>Les conrasus sont des fragments de force cosmique ayant une conscience dont les exosquelettes artificiels entremêlés sont les interfaces avec le monde mortel. À la fois partie intégrante des processus sous-jacents de l'univers et étrangement à part, les conrasus se tournent vers les aéons pour comprendre leur existence.</em></p>\n<p><em>@UUID[Compendium.pf2e.journals.JournalEntry.45SK8rdbbxvEHfMn.JournalEntryPage.ufWdokSN5W3Einus]{Conrasu}</em></p>"
        },
        "Fleshwarp": {
            "name": "Distordu (Fleshwarp)",
            "description": "<p><em>Les distordus sont des mutants dont les formes furent créées ou furent radicalement transformées par la magie, l'alchimie ou des énergies non naturelles. Leur apparence hétérodoxe peut leur rendre difficile de trouver un lieu qui soit à eux dans le monde.</em></p>\n<p><em>@UUID[Compendium.pf2e.journals.JournalEntry.45SK8rdbbxvEHfMn.JournalEntryPage.vTB1bTYVE4onyyy1]{Distordu}</em></p>"
        },
        "Goblin": {
            "name": "Gobelin (Goblin)",
            "description": "<p><em>Les gobelins n'ont que faire du passé alambiqué auquel s'accrochent les autres gens. Ces petits êtres vivent en effet dans le présent et préfèrent de loin les fables à l'histoire réelle. En ce qui les concerne, des guerres qui se sont déroulées il y a seulement quelques décennies se trouvent dans un lointain passé. Bien qu'ils soient incompris des autres peuples, les gobelins sont satisfaits de leur situation. Les vertus gobelines sont de vivre dans le présent, de faire preuve de créativité et d'être honnête. Ils s'efforcent de mener une vie bien remplie plutôt que de se soucier de la fin du voyage. De raconter des histoires plutôt que de chicaner sur des détails factuels. D'être petit, mais de rêver en grand.</em></p>\n<p><em>@UUID[Compendium.pf2e.journals.JournalEntry.45SK8rdbbxvEHfMn.JournalEntryPage.Gn0XGCWDb0N4zLE0]{Gobelin}</em></p>"
        },
        "Grippli": {
            "name": "Grippli",
            "description": "<p><em>Les gripplis sont un peuple timide et prudent qui cherche généralement à éviter de se laisser entraîner dans les affaires compliquées et dangereuses des autres. En dépit de leur apparence et de leur petite taille, les gripplis entreprennent souvent des actions audacieuses et nobles lorsque la situation l'exige.</em></p>\n<p><em>@UUID[Compendium.pf2e.journals.JournalEntry.45SK8rdbbxvEHfMn.JournalEntryPage.FhIJtKcINEe7fipX]{Grippli}</em></p>"
        },
        "Kobold": {
            "name": "Kobold",
            "description": "<p><em>Chaque kobold sait que leur frèle ossature dément leur véritable et puissant pouvoir draconique. Ils sont d'ingénieux concepteurs et des alliés dévoués au sein de leurs terriers, mais ceux qui s'aventurent sur leur territoire découvrent qu'il s'agit d'escarmoucheurs inspirés, surtout lorsqu'ils profitent du soutien d'ensorceleurs draconiques ou de véritable maîtres draconiques. Quoi qu'il en soit, ces reptiles opportunistes se montrent heureux de coopérer avec d'autres humanoïdes lorsque c'est à leur avantage, combinant les précautions et les ruses pour faire fortune dans le vaste monde.</em></p>\n<p><em>@UUID[Compendium.pf2e.journals.JournalEntry.45SK8rdbbxvEHfMn.JournalEntryPage.naQrTTE7CXu5lnNt]{Kobold}</em></p>"
        },
        "Dwarf": {
            "name": "Nain (Dwarf)",
            "description": "<p><em>Les nains, blottis dans leurs citadelles et cités de pierres, se sont fait une réputation de peuple sévère et stoïque qui n'est pas imméritée. Cependant, si l'on ne voit parfois en eux que d'austères façonneurs de pierres et de métaux dénués d'humour, tous ceux qui ont passé du temps en présence des nains ont compris que le zèle minutieux dont ils font preuve dans le travail leur permet de répondre à leur attachement pour la qualité plutôt que pour la quantité. Aux yeux d'un étranger, ils peuvent sembler méfiants et repliés sur leur clan. Aux yeux de leurs amis et de leurs familles, ils sont chaleureux et pleins d'attentions, et leurs halls résonnent de rires et du tapage des marteaux frappant les enclumes.</em></p>\n<p><em>@UUID[Compendium.pf2e.journals.JournalEntry.45SK8rdbbxvEHfMn.JournalEntryPage.XzRv30zY3UXRbBho]{Nain}</em></p>"
        },
        "Azarketi": {
            "name": "Azarketi",
            "description": "<p><em>Les azarketis, héritiers d'un empire éclaté, tiennent à leurs fières traditions mais font toujours surface pour interagir avec le reste du monde.</p>\n<p>@UUID[Compendium.pf2e.journals.JournalEntry.45SK8rdbbxvEHfMn.JournalEntryPage.SNhp04cirQnnBTbb]{Azarketi}</p>"
        },
        "Nagaji": {
            "name": "Nagaji",
            "description": "<p><em>Avec des visages d'humanoïdes et des têtes serpentines, les nagajis sont les hérauts, les compagnons et les serviteurs des puissants nagas. Ils éprouvent une profonde révérence pour les lieux saints et les vérités spirituelles, un aspect que bien d'autres trouvent aussi intimidant que l'apparence d'un nagaji.</em></p>\n<p><em>@UUID[Compendium.pf2e.journals.JournalEntry.45SK8rdbbxvEHfMn.JournalEntryPage.TlTIwW61zK0dk95v]{Nagaji}</em></p>"
        },
        "Leshy": {
            "name": "Léchi (Leshy)",
            "description": "<p><em>Gardiens et émissaires de l'environnement, les léchis sont des esprits immortels de la nature à qui a été accordée une forme physique temporaire.</em></p>\n<p><em>@UUID[Compendium.pf2e.journals.JournalEntry.45SK8rdbbxvEHfMn.JournalEntryPage.SWkwNivrfzWZqas9]{Léchi}</em></p>"
        },
        "Vishkanya": {
            "name": "Vishkanya",
            "description": "<p><em>Les vishkanyas sont des humanoïdes ophidiens qui portent un venin puissant dans leur sang et leur salive. Largement incompris en raison des vieilles contes sur leur toxicité et leur finesse naturelle, les vishkanyas s'efforcent de devenir plus que ce que les histoires les décrivent.</em></p>\n<p>@UUID[Compendium.pf2e.journals.JournalEntry.45SK8rdbbxvEHfMn.JournalEntryPage.1lCAkGgIYYkczZ28]{Vishkanya}</p>"
        },
        "Anadi": {
            "name": "Anadi",
            "description": "<p><em>Les anadis sont des araignées intelligentes et recluses, originaires des jungles du sud du Garund. Bien qu'elles agissent à bien des égards comme des métamorphes naturels, leurs formes jumelées sont en fait le résultat d'une magie soigneusement développée.</em></p>\n<p><em>@UUID[Compendium.pf2e.journals.JournalEntry.45SK8rdbbxvEHfMn.JournalEntryPage.9dpHTBpL3j8ZpqTS]{Anadi}</em></p>"
        },
        "Hobgoblin": {
            "name": "Hobgobelin (Hobgoblin)",
            "description": "<p><em>Plus grands et plus forts que leurs cousins gobelins, les hobgobelins égalent les humains en puissance et en stature, avec de larges épaules et de longs bras puissants.</em></p>\n<p><em>@UUID[Compendium.pf2e.journals.JournalEntry.45SK8rdbbxvEHfMn.JournalEntryPage.DuWzeY4zugKFFthl]{Hobgobelin}</em></p>"
        },
        "Orc": {
            "name": "Orc",
            "description": "<p><em>Les orcs sont forgés dans le creuset de la violence et du conflit, souvent dès le moment où ils viennent au monde. Comme ils vivent des vies qui sont fréquemment rapidement interrompues, les orcs apprécient de tester leurs forces contre des adversaires de valeur, que ce soit en défiant un membre de plus haut rang de leur communauté pour la domination ou en pillant une colonie des alentours. Beaucoup d'orcs recherchent la gloire aussitôt qu'ils savent marcher et porter une lame ou une massue, matant des bêtes sauvages ou chassant des monstres mortels.</em></p>\n<p><em>@UUID[Compendium.pf2e.journals.JournalEntry.45SK8rdbbxvEHfMn.JournalEntryPage.GCxhDyf1ZNlLiDKZ]{Orc}</em></p>"
        },
        "Gnome": {
            "name": "Gnome",
            "description": "<p><em>Les ancêtres des premiers gnomes ont quitté le Premier Monde, le royaume des fées, il y a bien longtemps, mais nul ne connaît la véritable raison de leur exil sur Golarion. Les gnomes modernes ont hérité de leurs lointains parents leurs étranges raisonnements, leur excentricité, des comportements obsessionnels et ce que certains perçoivent comme une forme de naïveté. On retrouve des traces des particularités et des origines surnaturelles des gnomes dans les caractéristiques physiques : de longs membres, des cheveux de couleur vive et des visages enfantins et très expressifs.</em></p>\n<p><em>@UUID[Compendium.pf2e.journals.JournalEntry.45SK8rdbbxvEHfMn.JournalEntryPage.qIu10HByKeRaPPvD]{Gnome}</em></p>"
        },
        "Gnoll": {
            "name": "Gnoll",
            "description": "<p><em>Humanoïdes puissamment bâtis qui ressemblent à des hyènes, les gnolls sont des guerriers et des chasseurs rusés. Leur visage effrayant et leurs tactiques efficaces leur ont valu une réputation peu enviable.</em></p>\n<p><em>@UUID[Compendium.pf2e.journals.JournalEntry.45SK8rdbbxvEHfMn.JournalEntryPage.xBV8oGvecw7abZxc]{Gnoll}</em></p>"
        },
        "Android": {
            "name": "Androïde (Android)",
            "description": "<p><em>Merveilles technologiques venues d'un autre monde, les androïdes ont des corps synthétiques et des âmes vivantes. Leur double nature les rend vifs lorsqu'il s'agit de réfléchir et calmes sous la pression, mais aussi à l'aise dans l'immobilité et la solitude.</em></p>\n<p><em>@UUID[Compendium.pf2e.journals.JournalEntry.45SK8rdbbxvEHfMn.JournalEntryPage.dyusFHHyaQOaQhZ0]{Androïde}</em></p>"
        },
        "Elf": {
            "name": "Elfe (Elf)",
            "description": "<p><em>En tant que membres d'un peuple ancien, les elfes ont été témoins de grands changements et ils possèdent une perspective sur le monde qui ne peut s'acquérir qu'en observant l'arc de l'histoire. Après avoir quitté le monde il y a bien longtemps, ils sont revenus sur une terre qui avait bien changé et ils luttent encore pour récupérer leurs terres ancestrales, notamment celles tombées aux mains de terribles démons qui les ont envahies. Certaines personnes admirent les elfes, qu'ils voient comme des êtres pleins de beauté et de grâce aux innombrables talents et connaissances. En ce qui les concerne, les elfes sont bien trop intéressés par leur liberté personnelle pour tenter d'incarner un tel idéal.</em></p>\n<p><em>@UUID[Compendium.pf2e.journals.JournalEntry.45SK8rdbbxvEHfMn.JournalEntryPage.3cfdiId1IoxLsF9V]{Elfe}</em></p>"
        },
        "Strix": {
            "name": "Strix",
            "description": "<p><em>Connus sous ne nom d'itariis dans leur propre langue, les strix sont des humanoïdes aviaires reclus dévoués à leurs foyers et à leurs tribus. Ils défendent leurs précieuses communautés avec leurs larges envergures et des ergots acérés.</em></p>\n<p><em>@UUID[Compendium.pf2e.journals.JournalEntry.45SK8rdbbxvEHfMn.JournalEntryPage.N8aShsDuf3ur0vZ2]{Strix}</em></p>"
        },
        "Kitsune": {
            "name": "Kitsune",
            "description": "<p><em>Les kitsunes sont un peuple charismatique et drôle avec un lien vers le spirituel qui leur accorde des capacités magiques avec, en premier lieu, le pouvoir d'adopter d'autres formes. Qu'il s'agisse de passer inaperçu au sein d'un autre peuple ou de garder la queue haute, les kitsunes sont de fins observateurs des sociétés qui les entourent.</em></p>\n<p><em>@UUID[Compendium.pf2e.journals.JournalEntry.45SK8rdbbxvEHfMn.JournalEntryPage.26YL1jOPQQS6k7A9]{Kitsune}</em></p>"
        },
        "Ratfolk": {
            "name": "Homme-rat (Ratfolk)",
            "description": "<p><em>Les ysokis — comme les hommes-rats se surnomment eux-mêmes — sont une ascendance intelligente, adaptable et méticuleuse qui regroupe joyeusement ses grandes familles dans de très petits espaces de vie.</em></p>\n<p><em>@UUID[Compendium.pf2e.journals.JournalEntry.45SK8rdbbxvEHfMn.JournalEntryPage.zoSkNev57C8OEDYL]{Homme-rat}</em></p>"
        },
        "Sprite": {
            "name": "Sprite",
            "description": "<p><em>Les sprites sont des créatures minuscules, fantaisistes et éxubérantes du royaume des fées connus sous le nom de Premier monde. Ils adorent jouer des tours, explorer de nouvelles choses et embrasser tout ce qui a trait à la magie.</em></p>\n<p><em>@UUID[Compendium.pf2e.journals.JournalEntry.45SK8rdbbxvEHfMn.JournalEntryPage.rvbMGyBr6y5K7HDP]{Sprite}</em></p>"
        },
        "Goloma": {
            "name": "Goloma",
            "description": "<p><em>Les golomas craignent la plupart des autres peuples et utilisent délibérément leur biologie inhabituelle pour effrayer ceux qu'ils considèrent comme de dangereux prédateurs. Rarement aperçus et souvent incompris, les golomas aux nombreux yeux et aux visages de bois inspirent la terreur à la plupart de ceux qui les croisent.</em></p>\n<p><em>@UUID[Compendium.pf2e.journals.JournalEntry.45SK8rdbbxvEHfMn.JournalEntryPage.jKglnHBFvzI80tIe]{Goloma}</em></p>"
        },
        "Fetchling": {
            "name": "Fetchelin (Fetchling)",
            "description": "<p><em>Autrefois humains et désormais autre chose, les fetchelins affichent l'influence ancienne du Nébulmonde à travers des teints monochromes, des yeux brillants et l'invocation d'ombres surnaturelles.</em></p>\n<p><em>@UUID[Compendium.pf2e.journals.JournalEntry.45SK8rdbbxvEHfMn.JournalEntryPage.RlMgeku1FNJjF7YR]{Fetchelin}</em></p>"
        },
        "Shisk": {
            "name": "Shisk",
            "description": "<p><em>Les shisks sont des habitants des montagnes secrets, des humanoïdes à plumes d'os qui se cachent sous terre dans des tunnels et des cavernes sombres. Leur fascination pour la collecte et la protection de connaissances ésotériques est l'une des rares choses qui peuvent les persuader d'explorer le monde extérieur.</em></p>\n<p><em>@UUID[Compendium.pf2e.journals.JournalEntry.45SK8rdbbxvEHfMn.JournalEntryPage.qsbc1ZLCWzfl1sfZ]{Shisk}</em></p>"
        },
        "Vanara": {
            "name": "Vanara",
            "description": "<p><em>Les vanaras sont des humanoïdes aux caractéristiques simiesques curieux et espiègles, avec une fourrure de poils courts et soyeux, des yeux expressifs et de longues queues préhensiles. Leurs pieds en forme de mains et leur carrure agile leur sont fort utiles dans les zones de jungles où la plupart des vanaras vivent.</em></p>\n<p>@UUID[Compendium.pf2e.journals.JournalEntry.45SK8rdbbxvEHfMn.JournalEntryPage.40koksC576nYV2Tf]{Vanara}</p>"
        }
    },
    "mapping": {
        "description": "system.description.value",
        "gm": "system.description.gm",
        "rules": {
            "path": "system.rules",
            "converter": "translateRules"
        }
    }
}