{
    "label": "Bénéfices (Animal Companions)",
    "entries": {
        "Wood Elemental Support Benefit": {
            "name": "Avantage de soutien d'élémentaire de bois (Wood Elemental Support Benefit)",
            "description": "<p>Votre élémentaire de bois enchevêtre vos ennemis avec des branches et des racines détachables. Jusqu'au début de votre prochain tour, si vous touchez avec une Frappe qui inflige des dégâts à une créature dans l'allonge de votre élémentaire de bois, la créature subit une pénalité de circonstances de -1,5 mètre à ses Vitesses pendant 1 minute (–10 sur un coup critique). La créature ou une créature qui lui est adjacente, peut utiliser une action Interagir pour démêler les branches et les racines et supprimer la sanction.</p>"
        },
        "Augdunar Support Benefit": {
            "name": "Avantage de soutien de l'augdunar (Augdunar Support Benefit)",
            "description": "<p>L'augdunar se déplace, vous offrant un objet. Vous Interagissez pour tirer une arme ou un objet qui est transporté par l'augdunar.</p>"
        },
        "Badger Support Benefit": {
            "name": "Avantage de soutien du blaireau (Badger Support Benefit)",
            "description": "<p>Votre blaireau creuse autour de la position de votre ennemi, gênant son pied. Jusqu'au début de votre prochain tour, si vous touchez et infligez des dégâts à une créature que votre blaireau menace, la cible ne peut pas utiliser une action de Pas (sauf si elle peut traverser un terrain difficile) jusqu'à ce qu'elle se déplace de sa position actuelle.</p>"
        },
        "Legchair Support Benefit": {
            "name": "Avantage de soutien de la chaise sur pattes (Legchair Support Benefit)",
            "description": "<p>Votre chaise sur pattes déplace ses membres dans le passage des attaques de l'ennemi. Vous obtenez un abri partiel de la part de votre chaise sur pattes contre toutes les attaques, pas juste celles pour lesquelles la chaise sur pattes serait dans le passage.</p>"
        },
        "Undead Bird of Prey Support Benefit": {
            "name": "Avantage de soutien : Oiseau de proie squelettique (Undead Bird of Prey Support Benefit)",
            "description": "<p>L'oiseau voltige en tous sens et déséquilibre votre adversaire. Jusqu'au début de votre prochain tour, lorsque vous blessez une créature à portée de l'oiseau avec une Frappe, cette créature devient @UUID[Compendium.pf2e.conditionitems.Item.i3OJZU2nk64Df3xm]{Maladroite 1} jusqu'à la fin de votre prochain tour.</p>"
        },
        "Camel Support benefit": {
            "name": "Avantage de soutien du chameau (Camel Support benefit)",
            "description": "<p>Le chameau porte une attaque à distance de crachat d'un long filet de salive sur un ennemi à 3 m. S'il touche, l'ennemi est @UUID[Compendium.pf2e.conditionitems.Item.TkIyaNPgTZFBCCuh]{Ébloui} pendant 1 round.</p>"
        },
        "Water Elemental Support Benefit": {
            "name": "Avantage de soutien de l'élémentaire d'eau (Water Elemental Support Benefit)",
            "description": "<p>Votre élémentaire d'eau détrempe un ennemi. La première fois avant le début de votre prochain tour que vous touchez avec une Frappe qui inflige des dégâts à une créature dans l'allonge de votre élémentaire d'eau, cette créature devient @UUID[Compendium.pf2e.conditionitems.Item.i3OJZU2nk64Df3xm]{Maladroite 1} jusqu'à la fin de votre prochain tour.</p>"
        },
        "Monitor Lizard Support Benefit": {
            "name": "Avantage de soutien du varan (Monitor Lizard Support Benefit)",
            "description": "<p>Le varan distrait un adversaire adjacent avec ses mâchoires claquantes et des mouvements rapides. Jusqu'au début de votre prochain tour, si votre Frappe blesse un adversaire, chaque fois que celui-ci tente une action avec le trait manipulation jusqu'à la fin de votre prochain tour, il doit tenter un @Check[type:flat|dc:5]. En cas d'échec, l'action est interrompue.</p>"
        },
        "Vampiric Animal Support Benefit": {
            "name": "Avantage de soutien de l'animal vampirique (Vampiric Animal Support Benefit)",
            "description": "<p>Lorsque votre animal vampirique sent le sang, il déchire vos ennemis. Jusqu'au début de votre prochain tour, les coups qui blessent une créature à la portée de votre animal vampirique infligent également [[/r 1d6[bleed]]]{1d6 dégâts de saignement}. Si votre animal vampirique est agile ou sauvage, les dégâts de saignement passent à [[/r 2d6[bleed]]]{2d6}.</p>"
        },
        "Capybara Support Benefit": {
            "name": "Avantage de soutien du capybara (Capybara Support Benefit)",
            "description": "<p>Votre capybara vous assiste dans la bataille. Vous obtenez un bonus de circonstances de +1 à votre prochain jet d'attaque pour Frapper un ennemi dans l'allonge de votre capybara. Le bonus dure jusqu'à la première fois que vous l'utilisez ou jusqu'au début de votre prochain tour, ce qui se produit en premier.</p>"
        },
        "Oozeform Chair Support Benefit": {
            "name": "Avantage de soutien du fauteuil de forme de vase (Oozeform Chair Support Benefit)",
            "description": "<p>Un pseudopode s'étend de votre fauteuil, en récupérant un objet laissé non tenu dans un rayon de 4,5 mètres. Si vous n'avez pas une main libre pour recevoir l'objet, le fauteuil le dépose dans votre espace.</p>"
        },
        "Triceratops Support Benefit": {
            "name": "Avantage de soutien du tricératops (Triceratops Support Benefit)",
            "description": "<p>Votre tricératops éventre les cibles @UUID[Compendium.pf2e.conditionitems.Item.j91X7x0XSomq8d60]{À terre} dans votre sillage. Jusqu'au début de votre prochain tour, vos frappes qui blessent une créature À terre dans l'allonge de votre tricératops infligent également @Damage[1d8[bleed]]{1d8 dégâts de saignement}. Si votre tricératops est agile ou sauvage, les dégâts de saignement passent à @Damage[2d8[bleed]]{2d8}.</p>"
        },
        "Bear Support Benefit": {
            "name": "Avantage de soutien de l'ours (Bear Support Benefit)",
            "description": "<p>Votre ours malmène vos ennemis lorsque vous créez une ouverture. Jusqu'au début de votre prochain tour, chaque fois que vous touchez une créature à portée de l'ours avec une Frappe, la créature subit [[/r 1d8[slashing]]]{1d8 dégâts tranchants} de la part de l'ours. Si votre ours est agile ou sauvage, les dégâts tranchants passent à [[/r 2d8]]{2d8}.</p>"
        },
        "Cat Support Benefit": {
            "name": "Avantage de soutien du félin (Cat Support Benefit)",
            "description": "<p>Votre félin déséquilibre vos ennemis lorsque vous créez une ouverture. Jusqu'au début de votre prochain tour, vos Frappes qui infligent des dégâts à une créature que votre félin menace rendent la cible @UUID[Compendium.pf2e.conditionitems.Item.AJh5ex99aV6VTggg]{Prises au dépourvu} jusqu'à la fin de votre prochain tour.</p>"
        },
        "Goat Support Benefit": {
            "name": "Avantage de soutien de la chèvre (Goat Support Benefit)",
            "description": "<p>Votre chèvre vous propulse le long d'un mur, vous permettant d'atteindre de plus grandes hauteurs. Vous grimpez le long d'une surface comme si vous aviez obtenu un succès sur une action d'@Compendium[pf2e.actionspf2e.pprgrYQ1QnIDGZiy]{Escalader}.</p>"
        },
        "Air Elemental Support Benefit": {
            "name": "Avantage de soutien de l'élémentaire d'air (Air Elemental Support Benefit)",
            "description": "<p>Votre élémentaire d'air s'enroule autour de vous avec des rafales dissimulatrices, rendant la tâche de vous toucher plus difficile pour vos adversaires et vous donnant possiblement un moment pour vous cacher. Jusqu'au début de votre prochain tour, si vous touchez avec une Frappe et infligez des dégâts à une créature dans l'allonge de votre élémentaire, vous êtes @UUID[Compendium.pf2e.conditionitems.Item.DmAIPqOBomZ7H95W]{Masqué} par rapport à cette créature jusqu'au début de votre prochain tour.</p>"
        },
        "Boar Support Benefit": {
            "name": "Avantage de soutien du sanglier (Boar Support Benefit)",
            "description": "<p>Votre sanglier éventre vos ennemis. Jusqu'au début de votre prochain tour, vos Frappes qui blessent une créature dans l'allonge de votre sanglier infligent aussi [[/r 1d6[bleed]]]{1d6 dégâts de saignement}. Si votre sanglier est agile ou sauvage, les dégâts de saignement passent à [[/r 2d6]]{2d6}.</p>"
        },
        "Vulture Support Benefit": {
            "name": "Avantage de soutien du vautour (Vulture Support Benefit)",
            "description": "<p>Le vautour vomit sur un ennemi dans un rayon de 3 mètres. Jusqu'au début de votre prochain tour, si vous touchez et infligez des dégâts à la cible, celle-ci doit réussir un jet de Vigueur ou être @UUID[Compendium.pf2e.conditionitems.Item.fesd1n5eVhpCSS18]{Malade/nauséeuse 1}. (@UUID[Compendium.pf2e.conditionitems.Item.fesd1n5eVhpCSS18]{Malade/nauséeuse 2} sur un échec critique). Le DD du jet de Vigueur est de 12 (ou 14 si le vautour est un compagnon animal spécialisé) + votre niveau + le modificateur de Constitution du vautour.</p>"
        },
        "Zombie Carrion Bird Support Benefit": {
            "name": "Avantage de soutien : Oiseau charognard zombie (Zombie Carrion Bird Support Benefit)",
            "description": "<p>Le zombie émet une aura de pourriture, faisant suppurer les blessures. Jusqu'au début de votre prochain tour, chaque fois que vous touchez et infligez des dégâts à une créature qui se trouve dans un rayon de 3 mètres de l'oiseau charognard zombie, la créature subit 1d6 dégâts supplémentaires tandis que la blessure s'infecte. Si votre charognard est agile ou sauvage, les dégâts passent à [[/r 2d6]]{2d6}. Il s'agit d'un effet de maladie et de nécromancie.</p>"
        },
        "Dromaeosaur Support Benefit": {
            "name": "Avantage de soutien du droméosaure (Dromaeosaur Support Benefit)",
            "description": "<p>Votre raptor s'élance constamment pour se mettre en position de tenaille. Jusqu'au début de votre prochain tour, il compte comme étant dans sa case ou dans une case vide de votre choix dans un rayon de 3 mètres lorsqu'il s'agit de déterminer si vous et votre compagnon prenez en tenaille ; vous pouvez choisir une case différente pour chacune de vos attaques).</p>"
        },
        "Ghost Support Benefit": {
            "name": "Avantage de soutien de fantôme (Ghost Support Benefit)",
            "description": "<p>Votre fantôme effraie vos ennemis et leur fait peur lorsque vous les attaquez. Jusqu'au début de votre prochain tour, si vous touchez et infligez des dégâts à une créature dans l'allonge de votre fantôme, cette dernière devient @UUID[Compendium.pf2e.conditionitems.Item.Frightened]{Effrayée 1}.</p>"
        },
        "Earth Elemental Support Benefit": {
            "name": "Avantage de soutien d'élémentaire de terre (Earth Elemental Support Benefit)",
            "description": "<p>Votre élémentaire de terre fissure la terre sous les pieds de votre ennemi, rendant son déplacement difficile. Jusqu'au début de votre prochain tour, si vous touchez avec une Frappe et infligez des dégâts à une créature dans l'allonge de votre élémentaire de terre, la première case dans laquelle la créature se déplace après avoir subi ces dégâts est un terrain difficile.</p>"
        },
        "Elephant Support Benefit": {
            "name": "Avantage de soutien de l'éléphant (Elephant Support Benefit)",
            "description": "<p>Votre éléphant barit bruyamment et menace votre ennemi. La première créature dans l'allonge de votre éléphant que vous touchez et à qui vous infligez des dégâts avant le début de votre prochain tour a du mal à entendre car ses oreilles bourdonnent à cause du bruit. Elle subit une pénalité de statut de -4 aux tests de Perception purement auditive jusqu'à la fin de votre prochain tour.</p>"
        },
        "Cave Pterosaur Support Benefit": {
            "name": "Avantage de soutien du ptérosaure des grottes (Cave Pterosaur Support Benefit)",
            "description": "<p>Votre ptérosaure étend ses ailes et crée de la distraction avec ses battements d'aile. Toute créature qui pourrait bénéficier d'un abri partiel de la part du ptérosaure obtient un abri standard à la place.</p>"
        },
        "Rootball Chair Support Benefit": {
            "name": "Avantage de soutien du Fauteuil motte de racines (Rootball Chair Support Benefit)",
            "description": "<p>Votre Fauteuil motte de racines se déplace lentement sur la plupart des terrains, grâce à ses nombreuses lianes. Votre Fauteuil motte de racines ignore le terrain difficile.</p>"
        },
        "Shark Support Benefit": {
            "name": "Avantage de soutien du squale (Shark Support Benefit)",
            "description": "<p>Lorsque votre squale perçoit le sang, il déchire vos ennemis. Jusqu'au début de votre prochain tour, chaque fois que vous touchez une créature à la portée du requin avec une Frappe et que vous lui infligez des dégâts tranchants ou perforants, la créature subit [[/r 1d8[slashing]]]{1d8 dégâts tranchants} de la part du requin. Si votre requin est agile ou sauvage, les dégâts tranchants passent à [[/r 2d8]]{2d8}.</p>"
        },
        "Metal Elemental Support Benefit": {
            "name": "Avantage de soutien d'élémentaire de métal (Metal Elemental Support Benefit)",
            "description": "<p>Votre élémentaire de métal perfore un ennemi avec des piques de métal qui provoquent un saignement. Jusqu'au début de votre prochain tour, vos Frappes qui blessent une créature dans l'allonge de votre élémentaire de métal infligent aussi @Damage[1d6[bleed]]{1d6 dégâts de saignement}. Si votre élémentaire de métal est agile ou sauvage, les dégâts de saignement passent à @Damage[2d6[bleed]]{2d6 dégâts de saignement}.</p>"
        },
        "Terror Bird Support Benefit": {
            "name": "Avantage de soutien de l'oiseau de terreur (Terror Bird Support Benefit)",
            "description": "<p>Votre oiseau de terreur hurle sur vos ennemis lorsque vous créez une ouverture. Jusqu'au début de votre prochain tour, vos Frappes qui infligent des dégâts à une créature dans l'allonge de votre oiseau de terreur rendent la cible @UUID[Compendium.pf2e.conditionitems.Item.AJh5ex99aV6VTggg]{Prise au dépourvu} jusqu'au début de votre prochain tour.</p>"
        },
        "Cave Gecko Support Benefit": {
            "name": "Avantage de soutien du gecko des cavernes (Cave Gecko Support Benefit)",
            "description": "<p>Votre gecko des cavernes vous aide à rester sur pied, s'appuyant sur vous et vous soutenant lorsque vous manœuvrez votre adversaire. Jusqu'à la fin de votre prochain tour, tant que vous êtes adjacent à votre gecko des cavernes, si vous tentez de désarmer, poussez ou faites un Croc-en-jambe à un adversaire et que vous obtenez un échec critique, vous obtenez un échec à la place.</p>"
        },
        "Scorpion Support Benefit": {
            "name": "Avantage de soutien du scorpion (Scorpion Support Benefit)",
            "description": "<p>Votre scorpion fait couler du poison de son dard lorsque vous créez une ouverture. Jusqu'au début de votre prochain tour, vos Frappes qui blessent une créature dans l'allonge de votre scorpion infligent également @Damage[1d6[persistent,poison]]{1d6}{1d6 dégâts persistants de poison}. Si votre scorpion est agile ou sauvage, les dégâts de poison persistants passent à @Damage[2d6[persistent,poison]]{2d6}.</p>"
        },
        "Water Wraith Support Benefit": {
            "name": "Avantage de soutien de l'âme-en-peine aquatique (Water Wraith Support Benefit)",
            "description": "<p>Votre âme-en-peine aquatique siffle et change rapidement de couleur dans un fracas irisé, submergeant vos ennemis dans une avalanche de nuances et de teintes. Jusqu'au début de votre prochain tour, chaque fois que vous touchez une créature dans l'allonge de votre âme-en-peine aquatique, celle-ci est @UUID[Compendium.pf2e.conditionitems.Item.TkIyaNPgTZFBCCuh]{Éblouie} pendant 1 round.</p>"
        },
        "Pangolin Support Benefit": {
            "name": "Avantage de soutien du pangolin (Pangolin Support Benefit)",
            "description": "<p>Votre pangolin déchire vos ennemis avec ses plaques dentelées. Jusqu'au début de votre prochain tour, les Frappes qui blessent une créature dans l'allonge de votre pangolin infligent ausi @Damage[1d6[bleed]]{1d6 dégâts de saignement}. Si votre pangolin est agile ou sauvage, les dégâts de saignement passent à @Damage[2d6[bleed]]{2d6}.</p>"
        },
        "Tyrannosaurus Support Benefit": {
            "name": "Avantage de soutien du tyrannosaure (Tyrannosaurus Support Benefit)",
            "description": "<p>Votre tyrannosaure rugit et fait une démonstration effrayante lorsque vous attaquez, faisant sursauter vos ennemis. Jusqu'au début de votre prochain tour, si vous touchez et infligez des dégâts à une créature qui se trouve à dans l'allonge de votre tyrannosaure, cette dernière est @UUID[Compendium.pf2e.conditionitems.Item.TBSHQspnbcqxsmjL]{Effrayée 1}.</p>"
        },
        "Skeletal Servant Support Benefit": {
            "name": "Avantage de soutien de serviteur squelettique (Skeletal Servant Support Benefit)",
            "description": "<p>Votre serviteur squelettique plante des os dans vos ennemis pour les distraire pendant que vous attaquez. Jusqu'au début de votre prochain tour, lorsqu'un coup que vous portez touche et inflige des dégâts à une créature qui se trouve dans l'allonge de votre serviteur squelettique, cette cible devient @UUID[Compendium.pf2e.conditionitems.Item.AJh5ex99aV6VTggg]{Prise au dépourvu} jusqu'à la fin de votre prochain tour.</p>"
        },
        "Wolf Support Benefit": {
            "name": "Avantage de soutien du loup (Wolf Support Benefit)",
            "description": "<p>Votre loup déchire les tendons à chaque ouverture. Jusqu'au début de votre prochain tour, vos frappes qui blessent les créatures dans l'allonge de votre loup infligent à la cible une pénalité de statut de -1,5 m à ses Vitesses pendant 1 minute (-3 m en cas de coup critique).</p>"
        },
        "Zombie Support Benefit": {
            "name": "Avantage de soutien du zombie (Zombie Support Benefit)",
            "description": "<p>Le zombie émet une aura de pourriture, faisant suppurer les blessures. Jusqu'au début de votre prochain tour, chaque fois que vous touchez une créature qui se trouve dans un rayon de 3 mètres du zombie et que vous lui infligez des dégâts, la créature subit 1d6 points de dégâts supplémentaires car la blessure s'envenime. Si votre zombie est agile ou sauvage, les dégâts passent à 2d6. Il s'agit d'un effet de maladie et de nécromancie.</p>"
        },
        "Snake Support Benefit": {
            "name": "Avantage de soutien du serpent (Snake Support Benefit)",
            "description": "<p>Votre serpent retient vos ennemis avec ses anneaux, interférant avec les réactions. Jusqu'au début de votre prochain tour, toute créature que votre serpent menace ne peut utiliser les réactions déclenchées par vos actions, sauf si son niveau est supérieur au vôtre.</p>"
        },
        "Fire Elemental Support Benefit": {
            "name": "Avantage de soutien de l'élémentaire de feu (Fire Elemental Support Benefit)",
            "description": "<p>Votre élémentaire de feu brûle vos ennemis et les met en feu. Jusqu'au début de votre prochain tour, vos Frappes qui blessent une créature dans l'allonge de votre élémentaire inflige aussi @Damage[1d6[persistent,fire]]{1d6 dégâts de feu persistants}. Si votre élémentaire de feu est agile ou sauvage, les dégâts de feu persistants passent à @Damage[2d6[persistent,fire]]{2d6 dégâts de feu persistants}.</p>"
        },
        "Ulgrem-Lurann Support Benefit": {
            "name": "Avantage de soutien de l'ulgrem-Lurann (Ulgrem-Lurann Support Benefit)",
            "description": "<p>L'Ulgrem-Lurann saisit votre ennemi et l'électrocute. Jusqu'au début de votre prochain tour, chaque fois que vous touchez une créature dans l'allonge de l'Ulgrem-Lurann avec une Frappe, celle-ci subit @Damage[1d4[piercing]]]{1d4 dégâts perforants} et @Damage[1d4[electricity]]{1d4 dégâts d'électricité} supplémentaires de la part de l'Ulgrem-Lurann. Si l'Ulgrem-Lurann est agile ou sauvage, les dégâts perforants et d'électricité passent chacun à 2d4.</p>"
        },
        "Riding Drake Support Benefit": {
            "name": "Avantage de soutien du drake de monte (Riding Drake Support Benefit)",
            "description": "<p><strong>Avantage de soutien</strong> Votre drake crache du feu au visage de vos adversaires. Jusqu'au début de votre prochain tour, chaque fois que vous faites une Frappe pendant que vous Montez le drake et que vous touchez une créature dans l'allonge du drake, celle-ci subit [[/r 1d4[fire]]]{1d4 dégâts de feu} de la part du drake. Si votre drake est agile ou sauvage, les dégâts de feu augmentent à [[/r 2d4]]{2d4}.</p>"
        },
        "Undead Hand Support Benefit": {
            "name": "Avantage de soutien de la main morte-vivante (Undead Hand Support Benefit)",
            "description": "<p>La main frappe vicieusement les ennemis que vous attaquez. Jusqu'au début de votre prochain tour, chaque fois que vous touchez une créature à portée de la main avec une Frappe, la créature subit @Damage[1d6[bludgeoning]]{1d6 dégâts contondants} de la main. Si votre main est agile ou sauvage, les dégâts contondants passent à @Damage[2d6[bludgeoning]]{2d6}.</p>"
        },
        "Skeletal Constrictor Support Benefit": {
            "name": "Avantage de soutien : Serpent constricteur squelettique (Skeletal Constrictor Support Benefit)",
            "description": "<p>Votre serpent se balance, envoûtant un ennemi. Choisissez une créature dans un rayon de 6 mètres du serpent constricteur qui peut le voir. Jusqu'au début de votre prochain tour, vos Frappes qui infligent des dégâts à la créature choisie rendent la cible @UUID[Compendium.pf2e.conditionitems.Item.AJh5ex99aV6VTggg]{Prise au dépourvu} jusqu'à la fin de votre prochain tour.</p>"
        },
        "Bird Support Benefit": {
            "name": "Avantage de soutien de l'oiseau de proie (Bird Support Benefit)",
            "description": "<p>L'oiseau de proie picore les yeux de vos ennemis lorsque vous créez une ouverture. Jusqu'au début de votre prochain tour, vos Frappes qui blessent une créature que votre oiseau de proie menace inflige aussi [[/r 1d4[bleed]]]{1d4 dégâts de saignement} et la cible est @UUID[Compendium.pf2e.conditionitems.Item.TkIyaNPgTZFBCCuh]{Éblouie} jusqu'à ce qu'elle mette un terme aux dégâts de saignement. Si votre oiseau est agile ou sauvage, les dégâts de saignement passent à 2d4.</p>"
        },
        "Ape Support Benefit": {
            "name": "Avantage de soutien du singe (Ape Support Benefit)",
            "description": "<p>Votre singe menace vos ennemis avec des grognements menaçants. Jusqu'au début de votre prochain tour, si vous touchez et infligez des dégâts à une créature dans l'allonge de votre singe, celle-ci devient @UUID[Compendium.pf2e.conditionitems.Item.TBSHQspnbcqxsmjL]{Effrayée 1}.</p>"
        },
        "Horse Support Benefit": {
            "name": "Avantage de soutien du cheval (Horse Support Benefit)",
            "description": "<p>Votre cheval ajoute de l'élan à votre charge. Jusqu'au début de votre prochain tour, si vous vous déplacez d'au moins 3 m lors de l'action avant que vous ne portiez une Frappe, ajoutez un bonus de circonstances aux dégâts à cette Frappe égal à deux fois le nombre de dés de dégâts. Si votre arme a déjà le trait d'arme joute, augmentez le bonus aux dégâts de 2 par dé à la place.</p>"
        },
        "Beetle Support Benefit": {
            "name": "Avantage de soutien du scarabée (Beetle Support Benefit)",
            "description": "<p>Votre scarabée se déplace en trépignant et percute les ennemis, les déséquilibrant ou les repoussant sur le côté lorsque vous créez une ouverture. Jusqu'au début de votre prochain tour, lorsque vous Montez sur votre scarabée, vos Frappes qui infligent des dégâts rendent la cible @UUID[Compendium.pf2e.conditionitems.Item.AJh5ex99aV6VTggg]{Prise au dépourvu} jusqu'à la fin de votre prochain tour ou éloignent la cible à 1,5 m du scarabée (c'est un déplacement forcé). La cible choisit l'effet qui se produit.</p>"
        },
        "Crocodile Support Benefit": {
            "name": "Avantage de soutien du crocodile (Crocodile Support Benefit)",
            "description": "<p>Votre crocodile serre ses mâchoires sur votre ennemi, refusant de le lâcher. Jusqu'au début de votre prochain tour, si votre Frappe blesse une créature dans l'allonge de votre crocodile, ce dernier peut s'accrocher à cette créature. Pendant qu'il est ainsi attaché, le crocodile peut se déplacer avec la cible à chaque fois que celle-ci se déplace jusqu'à la fin de votre prochain tour. Votre crocodile ne peut s'accrocher qu'à une seule créature de cette façon et il doit relâcher la créature pour faire une Frappe de mâchoire. Si la cible est plus petite que le crocodile, elle subit une pénalité de circonstances de -3 m à ses Vitesses et ne peuvent Voler tant que le crocodile est attaché.</p>"
        },
        "Hyena Support Benefit": {
            "name": "Avantage de soutien de la hyène (Hyena Support Benefit)",
            "description": "<p>La hyène se moque de vos ennemis en glapissant et les mord lorsque vous créez une ouverture. Jusqu'au début de votre prochain tour, chaque fois que vous touchez une créature à portée de la hyène avec une Frappe, la créature devient @UUID[Compendium.pf2e.conditionitems.Item.TBSHQspnbcqxsmjL]{Effrayée 1}.</p>"
        },
        "Bat Support Benefit": {
            "name": "Avantage de soutien de la chauve-souris (Bat Support Benefit)",
            "description": "<p>Votre chauve-souris vole autour des bras et des visages de vos ennemis, gênant leurs attaques. Jusqu'au début de votre prochain tour, les créatures dans l'allonge de votre chauve-souris que vous blessez avec des frappes subissent une pénalité de circonstances de -1 à leurs jets d'attaque.</p>"
        },
        "Rhinoceros Support Benefit": {
            "name": "Avantage de soutien du rhinocéros (Rhinoceros Support Benefit)",
            "description": "<p> Votre rhinocéros balance sa lourde tête pour déséquilibrer votre ennemi. La première créature dans l'allonge de votre rhinocéros que vous touchez et à laquelle vous infligez des dégâts avant le début de votre prochain tour devient @UUID[Compendium.pf2e.conditionitems.Item.i3OJZU2nk64Df3xm]{Maladroite 1} jusqu'à la fin de votre prochain tour.</p>"
        },
        "Draft Lizard Support Benefit": {
            "name": "Avantage de soutien du lézard de trait (Draft Lizard Support Benefit)",
            "description": "<p>Votre lézard de trait vous assiste dans la bataille. Vous obtenez un bonus de circonstances de +1 à votre prochain jet d'attaque pour Frapper un ennemi dans l'allonge de votre lézard de trait. Le bonus persiste jusqu'à la première fois que vous l'utilisez ou jusqu'au début de votre prochain tour, selon ce qui advient en premier.</p>"
        },
        "Zombie Mount Support Benefit": {
            "name": "Avantage de soutien : Monture zombie (Zombie Mount Support Benefit)",
            "description": "<p>Votre monture zombie ronge vos ennemis. Jusqu'au début de votre prochain tour, chaque fois que vous portez un coup en chevauchant la monture zombie et que vous touchez une créature à portée de la monture zombie, celle-ci subit @Damage[1d4[bludgeoning]]{1d4 dégâts contondants} de la part de la monture zombie. Si votre monture zombie est agile ou sauvage, les dégâts contondants passent à 2d4. Cet avantage est basé sur un cheval ou un chameau zombie, mais pourrait infliger des dégâts perforants si votre monture avait des dents pointues.</p>"
        },
        "Skeletal Mount Support Benefit": {
            "name": "Avantage de soutien de monture squelettique (Skeletal Mount Support Benefit)",
            "description": "<p>Votre monture squelettique fait peur lorsqu'elle charge. Jusqu'au début de votre prochain tour, si vous chevauchez votre monture squelettique et que vous vous déplacez d'au moins 10 pieds sur l'action précédant votre attaque, toute créature blessée par l'attaque devient @UUID[Compendium.pf2e.conditionitems.Item.TBSHQspnbcqxsmjL]{Effrayée 1} ou @UUID[Compendium.pf2e.conditionitems.Item.TBSHQspnbcqxsmjL]{Effrayée 2} si l'attaque est un coup critique. C'est un effet d'émotion, de terreur et mental."
        },
        "Shadow Hound Support Benefit": {
            "name": "Avantage de soutien du molosse d'ombre (Shadow Hound Support Benefit)",
            "description": "<p>Votre molosse d'ombre enveloppe vos ennemis dans l'ombre lorsque vous laissez une ouverture. Jusqu'au début de votre prochain tour, lorsque vous infligez des dégâts à une créature avec une Frappe et que cette créature se trouve dans l'allonge de votre molosse d'ombre, vous et votre molosse d'ombre devenez tous les deux @UUID[Compendium.pf2e.conditionitems.Item.DmAIPqOBomZ7H95W]{Masqué} pour la créature jusqu'à la fin de votre prochain tour.</p>"
        },
        "Moth Support Benefit": {
            "name": "Avantage de soutien du papillon de nuit (Moth Support Benefit)",
            "description": "<p>Votre papillon de nuit libère une pluie de poussière pour révéler la présence de vos ennemis. Jusqu'au début de votre prochain tour, si vous blessez une créature @UUID[Compendium.pf2e.conditionitems.Item.DmAIPqOBomZ7H95W]{Masquée} ou @UUID[Compendium.pf2e.conditionitems.Item.iU0fEDdBp3rXpTMC]{Cachée} dans l'allonge de votre papillon de nuit avec une Frappe, cette créature ne nécessite qu'un @Check[type:flat|dc:3|name:Test créature masquée|showDC:all] pour être ciblée si elle est masquée ou un @Check[type:flat|dc:3|name:Test créature cachée|showDC:all] si elle est cachée. Le DD ainsi réduit perdure jusqu'au début de votre prochain tour.</p>"
        },
        "Arboreal Sapling Support Benefit": {
            "name": "Avantage de soutien du jeune arboréen (Arboreal Sapling Support Benefit)",
            "description": "<p>Votre jeune arboréen plante des racines autour de votre ennemi, entravant son mouvement. Jusqu'au début de votre prochain tour, si vous touchez et infligez des dégâts à une créature dans l'allonge du jeune arboréen, la première case dans laquelle la créature se déplace après avoir subi ces dégâts est un terrain difficile.</p>"
        }
    },
    "mapping": {
        "description": "system.description.value",
        "gm": "system.description.gm",
        "rules": {
            "path": "system.rules",
            "converter": "translateRules"
        }
    }
}