{
    "label": "Macros PF2e",
    "entries": {
        "Take a Breather": {
            "name": "Reprendre son souffle (Take a Breather)"
        },
        "Rest for the Night": {
            "name": "Se reposer pour la nuit (Rest for the Night)"
        },
        "Perception for Selected Tokens": {
            "name": "Perception pour les jetons sélectionnés (Perception for Selected Tokens)"
        },
        "Travel Duration": {
            "name": "Durée du voyage (Travel Duration)"
        },
        "Stealth for Selected Tokens": {
            "name": "Discrétion pour les jetons choisis (Stealth for Selected Tokens)"
        },
        "XP": {
            "name": "PX (XP)"
        },
        "Treat Wounds": {
            "name": "Soigner les blessures (Treat Wounds)"
        },
        "Earn Income": {
            "name": "Gagner de l'argent (Earn Income)"
        },
        "Generate Check Prompt": {
            "name": "Générer une invite de test (Generate Check Prompt)"
        },
        "Toggle Compendium Browser": {
            "name": "Activer le navigateur de compendium (Toggle Compendium Browser)"
        }
    },
    "mapping": {
        "description": "system.description.value"
    }
}