{
    "label": "Classes",
    "entries": {
        "Investigator": {
            "name": "Enquêteur",
            "description": "<p><em>Vous cherchez à découvrir la vérité et vous remontez des pistes sans lâcher prise pour dévoiler des complots de méchants sournois, découvrir d'anciens secrets ou percer des mystères. Votre esprit analytique formule rapidement des solutions aux problèmes les plus complexes et vos sens affutés donnent même un sens aux indices les plus obscurs. Armé de vos connaissances, vous étudiez les créatures et les dangers que vous rencontrez afin d'exploiter leurs points faibles.</em></p>\n<p><em>@UUID[Compendium.pf2e.journals.JournalEntry.kzxu2dI7tFxv6Ix6.JournalEntryPage.omDi7otL3UWLVgct]{Enquêteur}</em></p>"
        },
        "Wizard": {
            "name": "Magicien",
            "description": "<p><em>Vous êtes un éternel étudiant des secrets de l'univers, utilisant votre maîtrise de la magie pour lancer de puissants sorts. Vous traitez la magie comme une science, recoupant les derniers textes sur la pratique de la pratique de l'incantation des sorts avec des tomes anciens pour découvrir et comprendre les arcanes de la magie. Cependant, la théorie magique est vaste et il est impossible de tout étudier. La plupart des magiciens apprennent dans le cadre d'une scolarité formelle, leur programme d'études s'inscrivant dans une catégorie spécifique, même si certains chercheurs particulièrement motivés élaborent parfois leurs propres théories.</em></p>\n<p><em>@UUID[Compendium.pf2e.journals.JournalEntry.kzxu2dI7tFxv6Ix6.JournalEntryPage.wDukeO3euLEGn6FA]{Magicien}</em></p>"
        },
        "Psychic": {
            "name": "Psychiste",
            "description": "<p><em>L'esprit peut percevoir des vérités cachées aux instruments les plus fins, abriter plus de secrets que n'importe quel livre et déplacer des objets et des cœurs plus habilement qu'un levier. En vous plongeant dans les aspects conscients et subconscients de votre être intérieur, vous vous êtes éveillé à la puissance de la magie psychique qui vous permet de lancer des sorts non pas par des incantations ou des gestes, mais par la seule force de votre volonté. Bien que la frontière entre votre esprit et la réalité soit mince et qu'une seule pensée errante puisse avoir des conséquences inattendues pour vous et vos compagnons, vous savez que tout est possible, si vous pouvez l'imaginer.</em></p>\n<p><em>@UUID[Compendium.pf2e.journals.JournalEntry.kzxu2dI7tFxv6Ix6.JournalEntryPage.KVoEUJBAbAFUJTqw]{Psychiste}</em></p>"
        },
        "Monk": {
            "name": "Moine",
            "description": "<p><em>La force dans vos poings provient de votre âme et de votre esprit. Vous recherchez la perfection en sculptant votre corps pour en faire un instrument sans faille et votre esprit pour en faire un bastion de discipline et de sagesse. Vous êtes un farouche combattant réputé pour sa maîtrise des arts martiaux et ses postures martiales qui lui permettent de réaliser des manœuvres de combat uniques en leur genre. Vos exercices physiques vous permettent de maîtriser de nombreux styles de combat, mais vous aimez également méditer sur des questions philosophiques et sur la recherche de nouvelles méthodes pour être en paix et atteindre l'illumination.</em></p>\n<p><em>@UUID[Compendium.pf2e.journals.JournalEntry.kzxu2dI7tFxv6Ix6.JournalEntryPage.hGKd722Kn4ZxIOJs]{Moine}</em></p>"
        },
        "Ranger": {
            "name": "Rôdeur",
            "description": "<p><em>Certains rôdeurs pensent que la civilisation abîme l'âme mais qu'il est quand même nécessaire de la protéger des créatures sauvages. D'autres prétendent qu'il faut protéger la nature de l'avidité des individus qui souhaitent s'accaparer ses beautés et piller ses trésors. Vous pouvez soutenir l'une ou l'autre de ces causes, voire les deux. Peut-être êtes-vous un éclaireur, un pisteur ou un chasseur de fugitifs ou de bêtes qui rôde à la périphérie de la civilisation ou explore les contrées sauvages. Vous savez comment vivre de la terre et vous êtes particulièrement talentueux pour repérer et abattre des proies opportunes et des ennemis jurés.</em></p>\n<p><em>@UUID[Compendium.pf2e.journals.JournalEntry.kzxu2dI7tFxv6Ix6.JournalEntryPage.gdEmPPRYhRai7I1N]{Rôdeur}</em></p>"
        },
        "Rogue": {
            "name": "Roublard",
            "description": "<p><em>Vous êtes talentueux et opportuniste. Grâce à la vivacité de votre esprit et de vos réactions, vous profitez des faux pas de vos adversaires pour frapper leurs points faibles. Vous jouez à un jeu dangereux et cherchez constamment à mettre vos compétences à l'épreuve et à ressentir le frisson de l'adrénaline. Vous vous souciez probablement comme d'une guigne des lois qui se mettent en travers de votre chemin. Si chaque roublard suit une voie aussi unique que dangereuse, ils ont tous en commun un grand éventail de compétences approfondies.</em></p>\n<p><em>@UUID[Compendium.pf2e.journals.JournalEntry.kzxu2dI7tFxv6Ix6.JournalEntryPage.u4qPrDRBagxG9wj8]{Roublard}</em></p>"
        },
        "Druid": {
            "name": "Druide",
            "description": "<p><em>Il est impossible de résister au pouvoir de la nature. Elle peut détruire la plus solide des forteresses en quelques minutes, en réduisant à l'état de gravats ou en cendres les édifices les plus robustes, en les ensevelissant sous une avalanche de neige ou en les noyant sous les vagues. Elle peut se montrer infiniment généreuse et incroyablement faste avec ceux qui la respectent - et définitivement mortelle envers ceux qui la négligent. Vous êtes l'un de ces individus qui perçoivent l'appel de la nature. Vous êtes en admiration devant la majesté de sa puissance et consacrez votre vie à son service.</em></p>\n<p><em>@UUID[Compendium.pf2e.journals.JournalEntry.kzxu2dI7tFxv6Ix6.JournalEntryPage.8ElntNAGahQka70r]{Druide}</em></p>"
        },
        "Barbarian": {
            "name": "Barbare",
            "description": "<p><em>Au combat, vous êtes submergé par la rage. Vous adorez semer le chaos et utiliser des armes puissantes pour vous tailler un chemin au travers de vos ennemis, en vous reposant sur votre endurance extraordinaire plutôt que sur des techniques compliquées ou un entraînement rigoureux. Votre rage est alimentée par un instinct sauvage, que vous pouvez associer à un animal, à un esprit ou à une part de vous-même. Pour de nombreux barbares, la force brute est un marteau et tous les problèmes auxquels ils font face ressemblent à des clous. D'autres tentent de contenir la tempête d'émotions qui les habite et de ne laisser libre cours à leur rage qu'au seul moment où cela compte.</em></p>\n<p>@UUID[Compendium.pf2e.journals.JournalEntry.kzxu2dI7tFxv6Ix6.JournalEntryPage.lvuutBI9BSCU6cWe]{Barbare}</p>"
        },
        "Fighter": {
            "name": "Guerrier",
            "description": "<p><em>Vous êtes un maître incontesté des armes et des techniques martiales qui se bat pour l'honneur, l'argent, la loyauté ou simplement pour le frisson du combat. Vous combinez judicieusement mouvements d'ouverture, frappes de finition et contre-attaques dès que vos adversaires ont la mauvaise idée de baisser leur garde. Que vous soyez chevalier, mercenaire, tireur d'élite ou épéiste, vous avez parfait vos compétences martiales en élevant le combat au rang d'art et portez des attaques critiques dévastatrices sur vos ennemis.</em></p>\n<p><em>@UUID[Compendium.pf2e.journals.JournalEntry.kzxu2dI7tFxv6Ix6.JournalEntryPage.HZbrRRVzW7w17L2W]{Guerrier}</em></p>"
        },
        "Summoner": {
            "name": "Conjurateur",
            "description": "<p><em>Vous pouvez appeler magiquement un être puissant appelé eidolon à vos côtés, en servant de conduit mortel qui l'ancre dans le monde. Que votre eidolon soit un ami, un serviteur ou même un dieu personnel, le lien que vous entretenez avec lui fait de vous un être extraordinaire, qui façonne le cours de votre vie de manière spectaculaire.</em></p>\n<p><em>@UUID[Compendium.pf2e.journals.JournalEntry.kzxu2dI7tFxv6Ix6.JournalEntryPage.gA4Ud8oSUGkkLwAi]{Conjurateur}</em></p>"
        },
        "Gunslinger": {
            "name": "Franc-tireur",
            "description": "<p><em>Alors que certains craignent les armes à projectiles, vous savourez l'éclair brûlant, le recul soudain et la fumée étouffante qui accompagnent un coup de feu ou le claquement du câble et le bruit sourd de votre arbalète juste avant que votre carreau ne trouve sa place. Prêt à mettre en joue un ennemi à tout moment, vous vous fiez à vos réflexes, à votre main sûre et à votre connaissance des armes pour cribler vos ennemis de trous.</em></p>\n<p><em>@UUID[Compendium.pf2e.journals.JournalEntry.kzxu2dI7tFxv6Ix6.JournalEntryPage.88K0xjShkhkckbhv]{Franc-tireur}</em></p>"
        },
        "Thaumaturge": {
            "name": "Thaumaturge",
            "description": "<p><em>Le monde est rempli de choses inexplicables : magie ancienne, dieux morts et d'autres plus étranges encore. En réponse, vous avez réuni les meilleurs éléments de chaque tradition magique et vous avez constitué une collection d'objets ésotériques - une relique sacrée brisée par-ci, une branche de gui par-là - que vous pouvez utiliser pour vaincre n'importe quelle créature en exploitant ses faiblesses et ses vulnérabilités. L'outil mystique que vous portez est à la fois un insigne et une arme, son poids symbolique vous aidant à négocier et à vaincre le surnaturel. Chaque chemin vers le pouvoir possède ses restrictions et ses coûts mais vous les utilisez tous à votre avantage. Vous êtes un thaumaturge et vous accomplissez des merveilles.</em></p>\n<p><em>@UUID[Compendium.pf2e.journals.JournalEntry.kzxu2dI7tFxv6Ix6.JournalEntryPage.qigU4oNH2KDVvhjX]{Thaumaturge}</em></p>"
        },
        "Cleric": {
            "name": "Prêtre",
            "description": "<p><em>Les divinités ont de nombreux moyens d'appliquer leur volonté sur le monde et vous êtes l'un de leurs plus fidèles serviteurs mortels. Béni par la magie divine que vous pratiquez, vous vivez en respectant les idéaux de votre foi, en vous ornant des symboles de votre église et en vous entraînant assidûment à manier l'arme de prédilection de votre divinité. Vos sorts peuvent protéger et soigner vos alliés mais ils peuvent aussi châtier vos ennemis et ceux de votre religion, selon la volonté de votre divinité. Votre vie est celle d'un individu engagé qui transmet par oral les enseignements de sa foi mais aussi en montrant l'exemple par ses actes.</em></p>\n<p><em>@UUID[Compendium.pf2e.journals.JournalEntry.kzxu2dI7tFxv6Ix6.JournalEntryPage.N4ABcd6CcCbqmw3x]{Prêtre}</em></p>"
        },
        "Swashbuckler": {
            "name": "Bretteur",
            "description": "<p><em>De nombreux combattants utilisent principalement la force brute, les armures lourdes et les armes encombrantes. Pour vous, le combat est une danse au cours de laquelle vous vous déplacez parmi vos adversaires avec style et grâce. Vous glissez entre les combattants avec élégance et portez de puissantes bottes définitives d'un geste du poignet et d'un mouvement de lame, tout en parant les attaques avec des ripostes gracieuses qui déséquilibrent vos ennemis. En harassant et en contrant vos adversaires, vous modelez votre destin et trompez la mort constamment avec aplomb et élégance.</em></p>\n<p><em>@UUID[Compendium.pf2e.journals.JournalEntry.kzxu2dI7tFxv6Ix6.JournalEntryPage.rsDTKu4HUuKft7fk]{Bretteur}</em></p>"
        },
        "Oracle": {
            "name": "Oracle",
            "description": "<p><em>Votre lien avec les puissances divines ne se conforme pas aux voies traditionnelles telles que les prières et la servitude ; au lieu de cela, vous entrevoyez des vérités divines plus vastes que celles de chaque divinité individuelle. Vous comprenez les grands mystères de l'univers incarnés sous la forme de concepts généraux qui transcendent le Bien et le Mal, le Chaos et la Loi, peut-être parce que vous savez percevoir les aspects communs à plusieurs divinités ou parce que vous contournez leur pouvoir complètement.</em></p>\n<p><em>Vous explorez l'un de ces mystères et en tirez le pouvoir de lancer des sorts miraculeux, mais ce pouvoir a un prix : une terrible malédiction, qui devient de plus en plus intense au fur et à mesure que vous faîtes appel à ces pouvoirs. Vos capacités sont une épée à double tranchant, que vous pouvez brandir comme un instrument provenant des dieux ou considérer comme une malédiction divine.</em></p>\n<p><em>@UUID[Compendium.pf2e.journals.JournalEntry.kzxu2dI7tFxv6Ix6.JournalEntryPage.bqaqOx3naiwTozBX]{Oracle}</em></p>"
        },
        "Bard": {
            "name": "Barde",
            "description": "<p><em>Vous êtes un individu qui maîtrise son art, qui étudie les secrets bien gardés et qui sait comment captiver et convaincre. Grâce à vos représentations percutantes, vous influencez les esprits et incitez les âmes à se montrer toujours plus héroïques. Peut-être utiliserez-vous vos pouvoirs pour devenir un chef charismatique ? Mais vous pourriez aussi décider de devenir un conseiller, un manipulateur, un érudit, un scélérat ou un virtuose. Votre faculté d'adaptation en pousse certains à vous considérer comme un simple touche-à-tout irresponsable et charmant, mais vous prendre pour un bon à rien peut s'avérer dangereux.</em></p>\n<p><em>@UUID[Compendium.pf2e.journals.JournalEntry.kzxu2dI7tFxv6Ix6.JournalEntryPage.Tz0NWVqhZyt8EyUV]{Barde}</em></p>"
        },
        "Inventor": {
            "name": "Inventeur",
            "description": "<p><em>N'importe quel bricoleur peut suivre un diagramme pour fabriquer une machine mais vous, vous inventez l'impossible ! Chaque engin étrange dont vous rêvez est une expérience unique qui repousse les limites du possible, une machine mystérieuse qui semble ne fonctionner que pour vous. Vous êtes toujours sur le point de réaliser la prochaine grande percée et chaque épreuve et tribulation est une nouvelle occasion de la tester et de l'ajuster. Si vous pouvez le rêver, vous pouvez le construire.</em></p>\n<p><em>@UUID[Compendium.pf2e.journals.JournalEntry.kzxu2dI7tFxv6Ix6.JournalEntryPage.gcRmL4Id1ggKDhvg]{Inventeur}</em></p>"
        },
        "Sorcerer": {
            "name": "Ensorceleur",
            "description": "<p><em>Vous n'avez pas choisi de devenir un lanceur de sorts — vous êtes né ainsi. La magie coule dans vos veines, peut-être parce qu'une divinité a béni l'un de vos ancêtres, parce qu'un ancien membre de votre famille a communié avec une créature primordiale ou parce qu'un puissant rituel occulte a influencé votre lignée. L'introspection et l'étude vous permettent d'affiner vos compétences magiques inhérentes et de développer de nouveaux pouvoirs plus puissants. Le pouvoir qui imprègne votre sang comporte pourtant un risque et vous devez constamment faire des choix dont les conséquences vous élèveront au rang de lanceur de sorts émérite ou causeront votre destruction.</em></p>\n<p><em>@UUID[Compendium.pf2e.journals.JournalEntry.kzxu2dI7tFxv6Ix6.JournalEntryPage.ixBx2wZpnf4qUoEv]{Ensorceleur}</em></p>"
        },
        "Magus": {
            "name": "Magus",
            "description": "<p><em>En combinant le physique et la technique d'un combattant avec la capacité de lancer de la magie arcanique, vous cherchez à perfectionner l'art de fusionner sort et frappe. Bien que le lourd tome que vous transportez reflète les heures passées à mener des recherches arcaniques, vos ennemis n'ont aucun mal à se souvenir de votre entraînement. Ils le reconnaissent lorsque vous les abattez.</em></p>\n<p><em>@UUID[Compendium.pf2e.journals.JournalEntry.kzxu2dI7tFxv6Ix6.JournalEntryPage.YVoyzV9v4QyP2UIC]{Magus}</em></p>"
        },
        "Witch": {
            "name": "Sorcier",
            "description": "<p><em>Vous possédez de puissants pouvoirs magiques. Ce n'est ni grâce à vos études ni à votre dévotion à un idéal, mais parce que vous êtes un agent ou un vecteur au service d'un patron mystérieux venant d'ailleurs que même vous ne comprenez pas entièrement. Il pourrait s'agir d'une divinité dissimulée, d'une fée puissante, d'une manifestation d'énergie naturelle, d'un esprit ancien ou de n'importe quelle autre entité surnaturelle puissante… mais sa nature est sans doute autant un mystère pour vous que pour tous les autres. Grâce à un familier très particulier, votre patron vous octroie des sorts diversifiés et des maléfices puissants que vous pouvez utiliser à votre guise, sans jamais vraiment être certain que cela contribuera ou non aux objectifs plus vastes de votre patron.</em></p>\n<p><em>@UUID[Compendium.pf2e.journals.JournalEntry.kzxu2dI7tFxv6Ix6.JournalEntryPage.fYJruhQfzs4dj0mp]{Sorcier}</em></p>"
        },
        "Kineticist": {
            "name": "Kinétiste ou Cinétiste",
            "description": "<p><em>La puissance des éléments coule en vous : Le feu rugissant, l'eau pure, l'air fugace, la terre résolue, le bois souple, le métal tranchant. Un portail kinétique inextricablement lié à votre corps canalise cette puissance provenant directement des plans élémentaire, en provoquant l'apparition des éléments entre vos mains, tourbillonnant autour de votre corps et pulvérisant vos ennemis à votre guise. Au fur et à mesure que votre lien avec les plans se renforce, vous atteignez une véritable maîtrise des éléments que vous avez choisis.</em></p>\n<p><em>@UUID[Compendium.pf2e.journals.JournalEntry.kzxu2dI7tFxv6Ix6.JournalEntryPage.lNWQPwgT4vhYCOT7]{Kinétiste}</em></p>"
        },
        "Alchemist": {
            "name": "Alchimiste",
            "description": "<p><em>À vos yeux, rien n'est plus beau qu'un étrange breuvage en train de bouillonner dans un bécher, et vous consommez vos ingénieux élixirs sans modération. Vous êtes fasciné par les secrets de la science et du monde naturel que vous cherchez à percer, et vous passez votre temps à faire de nouvelles expériences, dans votre laboratoire ou à l'improviste, à la recherche de décoctions originales pour parer à toute éventualité. Vous ne craignez pas de prendre des risques et lancez vos créations explosives ou toxiques au visage de vos ennemis. Le chemin qui vous mènera à la gloire est jalonné de décoctions alchimiques qui vous permettent de repousser les limites de votre corps et de votre esprit.</em></p>\n<p>@UUID[Compendium.pf2e.journals.JournalEntry.kzxu2dI7tFxv6Ix6.JournalEntryPage.Om4e4tsgNWrComie]{Alchimiste}</p>"
        },
        "Champion": {
            "name": "Champion",
            "description": "<p><em>Vous êtes l'émissaire d'une divinité, un serviteur dévoué qui a pris de lourdes responsabilités et vous adhérez à un code qui vous distingue de votre entourage. Il existe des champions de tous les alignements, mais vous êtes un champion du bien qui inspire infaillibilité et espoir aux innocents. Vous disposez de puissants moyens de défense que vous partagez volontiers avec vos alliés et les badauds innocents, ainsi que des pouvoirs divins que vous utilisez pour éliminer la menace du mal. Votre dévotion attire même l'attention d'esprits divins qui vous soutiennent lors de vos périples.</em></p>\n<p><em>@UUID[Compendium.pf2e.journals.JournalEntry.kzxu2dI7tFxv6Ix6.JournalEntryPage.rebppVgBVi8J6TT2]{Champion}</em></p>"
        }
    },
    "mapping": {
        "description": "system.description.value",
        "gm": "system.description.gm",
        "rules": {
            "path": "system.rules",
            "converter": "translateRules"
        }
    }
}