{
    "label": "Macros des actions",
    "entries": {
        "Lie: Deception": {
            "name": "Mentir : Duperie"
        },
        "Administer First Aid - Stabilize: Medicine": {
            "name": "Prodiguer les premiers soins - Stabiliser : Médecine"
        },
        "Perform - Play percussion instrument: Performance": {
            "name": "Se produire - jouer d'un instrument à percussions : Représentation"
        },
        "Escape: Unarmed Attack": {
            "name": "S'échapper : Attaque à mains nues"
        },
        "Escape: Athletics": {
            "name": "S'échapper : Athlétisme"
        },
        "Steal: Thievery": {
            "name": "Voler : Vol"
        },
        "Pick a Lock: Thievery": {
            "name": "Crocheter une serrure : Vol"
        },
        "Decipher Writing: Religion": {
            "name": "Déchiffre un texte : Religion"
        },
        "Subsist: Survival": {
            "name": "Subsister : Survie"
        },
        "Coerce: Intimidation": {
            "name": "Contraindre : Intimidation"
        },
        "Bon Mot: Diplomacy": {
            "name": "Bon mot : Diplomatie"
        },
        "Craft: Crafting": {
            "name": "Fabriquer : Artisanat"
        },
        "Balance: Acrobatics": {
            "name": "Garder l'équilibre : Acrobaties"
        },
        "Sense Direction: Survival": {
            "name": "S'orienter : Survie"
        },
        "Gather Information: Diplomacy": {
            "name": "Recueillir des informations : Diplomatie"
        },
        "Long Jump: Athletics": {
            "name": "Saut en longueur : Athlétisme"
        },
        "Make an Impression: Diplomacy": {
            "name": "Faire bonne impression : Diplomatie"
        },
        "Command an Animal: Nature": {
            "name": "Diriger un animal : Nature"
        },
        "Administer First Aid - Stop Bleeding: Medicine": {
            "name": "Prodiguer les premiers soins - Arrêter le saignement : Médecine"
        },
        "Perform - Play string instrument: Performance": {
            "name": "Se produire - jouer d'un instrument à cordes : Représentation"
        },
        "Impersonate: Deception": {
            "name": "Se déguiser : Duperie"
        },
        "Perform - Play keyboard instrument: Performance": {
            "name": "Se produire - jouer d'un instrument à clavier : Représentation"
        },
        "Encouraging Words": {
            "name": "Paroles encourageantes"
        },
        "Shove: Athletics": {
            "name": "Pousser : Athlétisme"
        },
        "Perform - Dance: Performance": {
            "name": "Se produire - danser : Représentation"
        },
        "Perform - Comedy: Performance": {
            "name": "Se produire - jouer la comédie : Représentation"
        },
        "Palm an Object: Thievery": {
            "name": "Escamoter un objet : Vol"
        },
        "Decipher Writing: Society": {
            "name": "Déchiffrer un texte : Société"
        },
        "Treat Poison: Medicine": {
            "name": "Soigner un empoisonnement : Médecine"
        },
        "Tamper: Crafting": {
            "name": "Trafiquer : Artisanat"
        },
        "Perform - Play wind instrument: Performance": {
            "name": "Se produire - jouer d'un instrument à vent : Représentation"
        },
        "Perform - Acting: Performance": {
            "name": "Se produire - Art dramatique : Représentation"
        },
        "Request: Diplomacy": {
            "name": "Solliciter : Diplomatie"
        },
        "Create a Diversion - Trick: Deception": {
            "name": "Faire diversion - Astuce: Duperie"
        },
        "Create a Diversion - Distracting Words: Deception": {
            "name": "Faire diversion - Paroles de diversion : Duperie"
        },
        "Create Forgery: Society": {
            "name": "Contrefaire : Société"
        },
        "Maneuver in Flight: Acrobatics": {
            "name": "Manoeuvre en vol : Acrobaties"
        },
        "High Jump: Athletics": {
            "name": "Saut en hauteur : Athlétisme"
        },
        "Sense Motive: Perception": {
            "name": "Deviner les intentions : Perception"
        },
        "Steel Your Resolve": {
            "name": "Puiser dans votre résolution"
        },
        "Climb: Athletics": {
            "name": "Escalader : Athlétisme"
        },
        "Track: Survival": {
            "name": "Pister : Survie"
        },
        "Trip: Athletics": {
            "name": "Croc-en-jambe : Athlétisme"
        },
        "Repair: Crafting": {
            "name": "Réparer : Artisanat"
        },
        "Escape": {
            "name": "S'échapper"
        },
        "Conceal an Object: Stealth": {
            "name": "Dissimuler un objet : Vol"
        },
        "Perform - Oratory: Performance": {
            "name": "Se produire - Art oratoire : Représentation"
        },
        "Athletics: Arcane Slam": {
            "name": "Athlétisme : Plaquage arcanique"
        },
        "Swim: Athletics": {
            "name": "Nager : Athlétisme"
        },
        "Sneak: Stealth": {
            "name": "Être furtif : Discrétion"
        },
        "Reposition: Athletics": {
            "name": "Repositionner : Athlétisme"
        },
        "Seek: Perception": {
            "name": "Chercher : Perception"
        },
        "Treat Disease: Medicine": {
            "name": "Soigner la maladie : Médecine"
        },
        "Exploration: Avoid Notice": {
            "name": "Exploration : Échapper aux regards"
        },
        "Subsist: Society": {
            "name": "Subsister : Société"
        },
        "Whirling Throw: Athletics": {
            "name": "Projection en rotation : Athlétisme"
        },
        "Decipher Writing: Arcana": {
            "name": "Déchiffre un texte : Arcanes"
        },
        "Disable Device: Thievery": {
            "name": "Désamorcer un dispositif : Vol"
        },
        "Squeeze: Acrobatics": {
            "name": "Se serrer : Acrobaties"
        },
        "Disarm: Athletics": {
            "name": "Désarmer : Athlétisme"
        },
        "Raise a Shield": {
            "name": "Lever un bouclier"
        },
        "Feint: Deception": {
            "name": "Feinter : Duperie"
        },
        "Force Open: Athletics": {
            "name": "Ouvrir de force : Athlétisme"
        },
        "Demoralize: Intimidation": {
            "name": "Démoraliser : Intimidation"
        },
        "Decipher Writing: Occultism": {
            "name": "Déchiffre un texte : Occultisme"
        },
        "Hide: Stealth": {
            "name": "Se cacher : Discrétion"
        },
        "Tumble Through: Acrobatics": {
            "name": "Déplacement acrobatique : Acrobaties"
        },
        "Create a Diversion - Gesture: Deception": {
            "name": "Faire diversion - Geste : Duperie"
        },
        "Perform - Singing: Performance": {
            "name": "Se produire - chanter : Représentation"
        },
        "Escape: Acrobatics": {
            "name": "S'échapper : Acrobaties"
        },
        "Grapple: Athletics": {
            "name": "Saisir : Athlétisme"
        }
    },
    "mapping": {
        "description": "system.description.value"
    }
}