{
    "label": "Constructs (Animal Companions)",
    "entries": {
        "Unarmed Strike 1": {
            "name": "Unarmed Strike 1 (Frappe à mains nues 1)"
        },
        "Unarmed Strike 2": {
            "name": "Unarmed Strike 2 (Frappe à mains nues 2)"
        },
        "Advanced Construct": {
            "name": "Advanced Construct (Créature artificielle avancée)"
        },
        "Incredible Construct": {
            "name": "Incredible Construct (Créature artificielle incroyable)"
        },
        "Prototype Construct": {
            "name": "Prototype Construct (Prototype créature artificielle)"
        },
        "Paragon Construct": {
            "name": "Paragon Construct (Parangon créature artificielle)"
        }
    },
    "mapping": {
        "description": "system.details.publicNotes",
        "blurb": "system.details.blurb",
        "cadetails": "system.attributes.ac.details",
        "ci": "system.traits.ci.custom",
        "damageimmunity": "system.traits.di.custom",
        "damageresistance": "system.traits.dr.custom",
        "damagevulnerability": "system.traits.dv.custom",
        "hpdetails": "system.attributes.hp.details",
        "languages": "system.traits.languages.custom",
        "saves": "system.attributes.allSaves.value",
        "senses": "system.traits.senses.value",
        "speeds": "system.attributes.speed.details",
        "traits": "system.traits.traits.custom",
        "desc (hazard)": "system.details.description",
        "disable": "system.details.disable",
        "reset": "system.details.reset",
        "routine": "system.details.routine",
        "stealth": "system.attributes.stealth.details",
        "target": "system.target.value",
        "items": {
            "path": "items",
            "converter": "translateActorItems"
        }
    }
}