{
    "label": "Manœuvres avancées (Animal Companions)",
    "entries": {
        "Grab and Sting": {
            "name": "Grab and Sting (Saisir et piquer)",
            "description": "<p>Le scorpion maintient son ennemi en place avec ses pinces afin de le piquer. Il effectue une Frappe de pince. Si le coup touche, la créature ciblée devient automatiquement @UUID[Compendium.pf2e.conditionitems.Item.kWc1fhmv9LBiTuei]{Empoignée/agrippée} par le scorpion qui lui porte alors une Frappe de dard. L'état Agrippé dure jusqu'à la fin de votre prochain tour.</p>"
        },
        "Tearing Clutch": {
            "name": "Tearing Clutch (Serrage déchirant)",
            "description": "<p>L'oiseau de terreur fait une Frappe de bec. En cas de coup réussi, la cible subit [[/r 2d6[bleed]]]{2d6 dégâts de saignement}.</p>"
        },
        "Frightening Display": {
            "name": "Frightening Display (Posture effrayante)",
            "description": "<p>Votre singe fait une démonstration effrayante et bruyante, en surprenant un ennemi. Le pirmate essaie de @UUID[Compendium.pf2e.action-macros.Macro.nEwqNNWX6scLt4sc]{Démoraliser} la créature ciblée. Cette démonstration obtient le trait visuel et ne requiert aucune langue. Tant qu'elle est Effrayée par cette capacité, la cible est @UUID[Compendium.pf2e.conditionitems.Item.AJh5ex99aV6VTggg]{Prise au dépourvu} par votre primate.</p>"
        },
        "Throw Rock": {
            "name": "Throw Rock (Lancé de rocher)",
            "description": "<p>Le jeune arboréen interagit pour ramasser un rocher à portée ou récupérer une pierre stockée puis la lance avec une Frappe à distance de rocher qui inflige @Damage[1d6[bludgeoning]]{1d6 points dégâts contondants} avec un facteur de portée de 9 m.</p>",
            "rules": {
                "0": {
                    "label": "Lancé de rocher"
                }
            }
        },
        "Pterosaur Swoop": {
            "name": "Pterosaur Swoop (Piqué du ptérosaure)",
            "description": "<p>Le ptérosaure Vole à sa Vitesse et porte une Frappe de bec à n'importe quel point durant ce mouvement.</p>"
        },
        "Bear Hug": {
            "name": "Bear Hug (Étreinte de l'ours)",
            "description": "<p><strong>Conditions</strong> La dernière action de l'ours était une Frappe de griffe réussie.</p>\n<hr />\n<p>L'ours porte une autre Frappe de griffe sur la même cible. Si cette Frappe touche, la cible est aussi @UUID[Compendium.pf2e.conditionitems.Item.kWc1fhmv9LBiTuei]{Agrippée}, comme si l'ours avait réussi à Saisir la cible.</p>"
        },
        "Bouncing Slam": {
            "name": "Bouncing Slam (Coup rebondissant)",
            "description": "<p>Le gibtas Bondit sur une créature de taille Moyenne ou plus petite, atterrissant dans l'espace de la créature et @UUID[Compendium.pf2e.actionspf2e.Item.7blmbDrQFNfdT731]{Pousse} la créature. Si la Poussée échoue, le gibtas rebondit de la case de la cible vers une case adjacente au choix de la cible.</p>"
        },
        "Unnerving Screech": {
            "name": "Unnerving Screech (Cri strident)",
            "description": "<p>Votre oiseau de proie squelettique émet un cri strident, contre nature, qui rend sourd et fait sursauter un ennemi dans un rayon de 9 mètres. La cible doit tenter un jet de Vigueur. La cible est alors temporairement immunisée pendant 1 heure. L'état Effrayé est un effet mental, d'émotion et de peur, mais la créature peut toujours être @UUID[Compendium.pf2e.conditionitems.Item.9PR9y0bi4JPKnHPR]{Assourdie} si elle est immunisée contre de tels effets.</p>\n<hr />\n<p><strong>Succès critique</strong> La cible n'est pas affectée.</p>\n<p><strong>Succès</strong> La cible est Sourde pendant 1 round et @UUID[Compendium.pf2e.conditionitems.Item.TBSHQspnbcqxsmjL]{Effrayée 1}.</p>\n<p><strong>Échec</strong> La cible est Sourde pendant 1 minute et Effrayée 1.</p>\n<p><strong>Échec critique</strong> La cible est Sourde pendant 10 minutes et @UUID[Compendium.pf2e.conditionitems.Item.TBSHQspnbcqxsmjL]{Effrayée 2}.</p>"
        },
        "Distracting Spray": {
            "name": "Distracting Spray (Aspersion distrayante)",
            "description": "<p>Le capybara asperge une cible adjacente avec ses glandes odorantes. La cible doit tenter un jet de Vigueur. Essuyer le musc prend une action Interagir et met fin à l'effet. Ceci utilise un DD qualifié en utilisant le modificateur de Constitution du capybara ou un DD expert si le capybara est spécialisé.</p>\n<hr />\n<p><strong>Succès critique</strong> La créature n'est pas affectée.</p>\n<p><strong>Succès</strong> La créature est @UUID[Compendium.pf2e.conditionitems.Item.i3OJZU2nk64Df3xm]{Maladroite 1} pendant 1 round.</p>\n<p><strong>Échec</strong> La créature est @UUID[Compendium.pf2e.conditionitems.Item.i3OJZU2nk64Df3xm]{Maladroite 1} pendant 1 minute.</p>\n<p><strong>Échec critique</strong> La créature est @UUID[Compendium.pf2e.conditionitems.Item.i3OJZU2nk64Df3xm]{Maladroite 2} pendant 1 minute.</p>"
        },
        "Grabbing Branches": {
            "name": "Grabbing Branches (Branches accrocheuses)",
            "description": "<p>Votre élémentaire de bois entoure un ennemi de ses branches, le maintenant en place. Votre élémentaire de bois porte une Frappe de branche. En cas de succès, la cible est aussi @UUID[Compendium.pf2e.conditionitems.Item.kWc1fhmv9LBiTuei]{Agrippée} par l'élémentaire de bois jusqu'à la fin de votre prochain tour, à moins que votre élémentaire de bois ne se déplace ou que la cible ou que la cible s'échappe.</p>"
        },
        "Lumbering Knockdown": {
            "name": "Lumbering Knockdown (Renversement boutoir)",
            "description": "<p>Votre Tricératops Marche rapidement jusqu'à 3 m puis porte une Frappe de corne. En cas de succès, la cible se retrouve @UUID[Compendium.pf2e.conditionitems.Item.j91X7x0XSomq8d60]{À terre}</p>"
        },
        "Take a Taste": {
            "name": "Take a Taste (Goûte un morceau)",
            "description": "<p><strong>Conditions</strong> Le zombie a @UUID[Compendium.pf2e.conditionitems.Item.kWc1fhmv9LBiTuei]{Empoigné} ou @UUID[Compendium.pf2e.conditionitems.Item.VcDeM8A5oI6VqhbM]{Entravé} une créature.</p>\n<hr />\n<p>Le zombie essaie d'approcher et de mordre une créature. Le zombie fait une Frappe de mâchoires contre la créature. Cette Frappe utilise les mêmes caractéristiques que sa Frappe normale au corps-à-corps, sauf que ses dégâts sont de 1d10 et qu'elle inflige des dégâts perforants.</p>"
        },
        "Cat Pounce": {
            "name": "Cat Pounce (Bond du félin)",
            "description": "<p>Le félin Marche rapidement puis Frappe. S'il était non détecté au début de son bond du félin, il reste non détecté jusqu'à ce qu'il ait porté l'attaque.</p>"
        },
        "Lurching Rush": {
            "name": "Lurching Rush (Embardée ruante)",
            "description": "<p>Le varan Marche rapidement puis fait une Frappe de mâchoires. S'il a bougé d'au moins 6 m de sa position de départ, il obtient un bonus de circonstances de +2 au jet d'attaque.</p>"
        },
        "Grip Throat": {
            "name": "Grip Throat (Gorge serrée)",
            "description": "<p>La main tente de @UUID[Compendium.pf2e.actionspf2e.Item.PMbdMWc2QroouFGD]{Saisir} une créature Moyenne ou de taille inférieure par la gorge. Si la saisie est un succès, en plus des effets ordinaires, la créature éprouve des difficultés à parler. Tant qu'elle est @UUID[Compendium.pf2e.conditionitems.Item.kWc1fhmv9LBiTuei]{Empoignée} ou @UUID[Compendium.pf2e.conditionitems.Item.VcDeM8A5oI6VqhbM]{Entravée} par la main, elle doit dépenser une action supplémentaire pour accomplir n'importe quelle action qui possède le trait verbal.</p>"
        },
        "Flamethrower": {
            "name": "Flamethrower (Lance-flammes)",
            "description": "<p><strong>Fréquence</strong> une fois toutes les 10 minutes</p>\n<hr />\n<p>L'élémentaire de feu porte une Frappe de flamèche à toutes les créatures sur une @Template[type:line|distance:60]{ligne de 18 mètres}, même à celles qui ne sont pas dans l'allonge de la Frappe de flamèche. Toutes ses Frappes sont prises en compte pour déterminer la pénalité d'attaques multiples de l'élémentaire de feu, mais elle n'augmente pas avant d'avoir porté toutes les Frappes.</p>"
        },
        "Boar Charge": {
            "name": "Boar Charge (Charge du sanglier)",
            "description": "<p>Le sanglier Marche rapidement deux fois en ligne droite puis porte une Frappe de défense. Tant qu'il s'est déplacé d'au moins 6 m, il obtient un bonus de circonstances de +2 à son jet d'attaque.</p>"
        },
        "Defensive Curl": {
            "name": "Defensive Curl (Posture défensive)",
            "description": "<p>Le pangolin se roule en boule pour se défendre. Il bénéficie d'un bonus de circonstances de +2 à la CA. Toute créature qui touche le pangolin avec une attaque au corps-à-corps à mains nues alors qu'il est dans sa Posture défensive subit @Damage[2d6[bleed]]{2d6 dégâts de saignement}. Le pangolin ne peut se déplacer, utiliser cette attaque à mains nues ou effectuer d'autres actions qui nécessitent d'utiliser ses membres lorsqu'il est en Posture défensive, mais il peut se déployer en une seule action, mettant fin aux effets de la Posture défensive.</p>"
        },
        "Rolling Knockdown": {
            "name": "Rolling Knockdown (Roulade renversante)",
            "description": "<p>Votre élémentaire de terre roule sur le sol comme une boule de bowling et renverse un ennemi. Il Marche rapidement sur une distance de 3 mètres puis porte une Frappe de poing. S'il touche, la cible est également @UUID[Compendium.pf2e.conditionitems.Item.j91X7x0XSomq8d60]{À terre}.</p>"
        },
        "Pick at the Meat": {
            "name": "Pick at the Meat (Piquer la viande)",
            "description": "<p><strong>Conditions</strong> La dernière action du compagnon animal était une Frappe de mâchoires réussie.</p>\n<hr />\n<p>Votre oiseau pique dans la plaie qu'il a juste créée. La cible de sa Frappe de mâchoires subit [[/r 1d8[bleed]]]{1d8 dégâts de saignement} ou [[/r 2d8[bleed]]]{2d8 dégâts de saignement} si l'oiseau est spécialisé.</p>"
        },
        "Ultrasonic Scream": {
            "name": "Ultrasonic Scream (Cri ultrasonique)",
            "description": "<p>Le papillon de nuit bat des ailes et émet des couinements ultrasoniques qui brouillent les sens des créatures proches. Choisissez une créature dans un rayon de 9 m autour du papillon de nuit. Cette créature doit tenter un jet de Vigueur. Elle doit utiliser le DD qualifié en utilisant le modificateur de Constitution du papillon ou un DD expert si le papillon est spécialisé.</p>\n<hr />\n<p><strong>Succès</strong> La cible traite toutes les créatures comme si elles étaient @UUID[Compendium.pf2e.conditionitems.Item.DmAIPqOBomZ7H95W]{Masquées} lors de sa prochaine attaque avant le début de votre prochain tour.</p>\n<p><strong>Échec</strong> La cible traite toutes les créatures comme si elles étaient @UUID[Compendium.pf2e.conditionitems.Item.DmAIPqOBomZ7H95W]{Masquées} jusqu'au début de votre prochain tour.</p>\n<p><strong>Échec critique</strong> Comme en cas d'échec et la cible est aussi @UUID[Compendium.pf2e.conditionitems.Item.dfCMdR4wnpbYNTix]{Étourdie 1}.</p>"
        },
        "Shred": {
            "name": "Shred (Déchiqueter)",
            "description": "<p>Le squale déchiquette vicieusement la blessure, infligeant des dégâts supplémentaires. La cible de la Frappe du requin subit [[/r 1d8[slashing]]]{1d8 dégâts tranchants} ([[/r 2d8]]{2d8} pour un requin adulte ou [[/r 3d8]]{3d8} pour un compagnon spécialisé).</p>"
        },
        "Circling Flyby": {
            "name": "Circling Flyby (Vol circulaire)",
            "description": "<p>Votre élémentaire d'air vole en cercle, soufflant des rafales sur vos ennemis avant de revenir à sa position de départ. L'élémentaire d'air Vole sur la moitié de sa vitesse, effectue deux Frappes de rafale, puis Vole à nouveau sur la moitié de sa vitesse pour revenir à sa position initiale. Les deux attaques sont prises en compte compte pour le calcul de la pénalité d'attaques multiples de l'élémentaire d'air, mais la pénalité n'augmente qu'après avoir effectué les deux attaques.</p>"
        },
        "Knock Aside": {
            "name": "Knock Aside (Pousser de côté)",
            "description": "<p><strong>Conditions</strong> La dernière action du compagnon animal était une Frappe de coup de tête réussie</p>\n<hr />\n<p>La chèvre repousse automatiquement la cible en arrière de 1,5 m ou de 3 mètres si la Frappe critique était un coup critique.</p>"
        },
        "Hustle": {
            "name": "Hustle (S'empresser)",
            "description": "<p>Le scarabée se déplace à une vitesse incroyable. Il Marche rapidement trois fois.</p>"
        },
        "Constrict": {
            "name": "Constrict (Constriction)",
            "description": "<p><strong>Conditions</strong> Le serpent a une créature saisie.</p>\n<hr />\n<p>Le serpent inflige [[/r {12}[blugeoning]]]{12 dégâts contondants} à la créature saisie ; la créature doit tenter un jet de Vigueur basique. Si le serpent est un compagnon spécialisé, augmentez ces dégâts à [[/r 20]]{20}.</p>"
        },
        "Gulp Blood": {
            "name": "Gulp Blood (Gorgée de sang)",
            "description": "<p><strong>Conditions</strong> La dernière action de l'âme-en-peine aquatique était une attaque de mâchoires réussie contre un ennemi</p>\n<hr>\n<p>L'âme-en-peine aquatique obtient [[/r 2d8 #Points de vie temporaires]]{2d8 Points de vie temporaires} qui durent pendant 1 round et l'adversaire subit [[/r 2d6[bleed]]]{2d6 dégâts de saignement}. Si l'âme-en-peine aquatique est spécialisée, l'âme-en-peine aquatique obtient à la place [[/r 3d8 #Points de vie temporaires]]{3d8 Points de vie persistants} et la cible subit [[/r 3d6[bleed]]]{3d6 dégâts de saignement}. Si la créature ciblée n'a aucun fluide vital, cette capacité pourrait ne pas fonctionner, à la discrétion du MJ.</p>"
        },
        "Careful Withdraw": {
            "name": "Careful Withdraw (Retrait précautionneux)",
            "description": "<p>La chaise sur pattes vous extirpe précautionneusement d'une situation dangereuse. Elle Fait un pas deux fois puis Marche rapidement.</p>"
        },
        "Breath Weapon": {
            "name": "Breath Weapon (Arme de souffle)",
            "description": "<p><strong>Fréquence</strong> Une fois par heure</p>\n<hr />\n<p>Le drake de monte souffle un @Template[type:cone|distance:30]{cône de 9 m} de feu, infligeant 1d6 dégâts de feu par tranche de 2 niveaux du drake à toutes les créatures dans la zone (Réflexes basique). Il utilise le DD qualifié avec le modificateur de Constitution du drake ou à partir un DD expert si le drake est spécialisé.</p>\n<p>[[/r {(floor(@actor.level/2))d6}[fire]]]{Dégâts selon le niveau}</p>"
        },
        "Extend Pseudopod": {
            "name": "Extend Pseudopod (Étendre un pseudopode)",
            "description": "<p>Votre fauteuil s'allonge lui-même, faisant bénéficier à sa Frappe de pseudopode du trait allonge 3 mètres jusqu'au début de votre prochain tour.</p>"
        },
        "Sand Stride": {
            "name": "Sand Stride (Marche sur le sable)",
            "description": "<p>Le chameau Marche rapidement deux fois avec un bonus de circonstances de +1,5 m à sa Vitesse, ignorant le terrain difficile provoqué par les débris, le sable et un sol inégal fait de pierre ou de terre.</p>"
        },
        "Seedpod Spring": {
            "name": "Seedpod Spring (Éclosion printanière)",
            "description": "<p>Une gousse dans le fauteuil éclot et se déploie, en libérant une touffe légère de matière cotonneuse. Votre Fauteuil motte de racines Bondit de 9 mètres verticalement ou horizontalement et dérive vers le bas, descendant de 1,5 m pour chaque 1,5 mètres parcourus horizontalement et vous ne subissez aucun dégât de chute. La matière cotonneuse se disperse au moment de l'atterrissage.</p>"
        },
        "Bony Constriction": {
            "name": "Bony Constriction (Constriction osseuse)",
            "description": "<p><strong>Conditions</strong> Le serpent constricteur a @UUID[Compendium.pf2e.conditionitems.Item.kWc1fhmv9LBiTuei]{Agrippé} une créature.</p>\n<hr />\n<p>Le serpent squelette constricteur inflige @Damage[12[piercing]]]{12 dégâts perforants} à la créature agrippée avec ses côtes aiguisées. La créature doit tenter un jet de Vigueur basique. Si le serpent constricteur est un compagnon spécialisé passez ces dégâts à @Damage[20[piercing]]]{20}. Il faut utiliser le DD qualifié en utilisant le modificateur de Constitution du serpent constricteur ou un DD expert (@Check[type:fortitude|dc:resolve(14+@actor.level+@actor.abilities.con.mod)|basic:true]) si le serpent constricteur est spécialisé.</p>"
        },
        "Knockdown": {
            "name": "Knockdown (Renversement)",
            "description": "<p><strong>Conditions</strong> La dernière action du compagnon animal était une attaque réussie de mâchoires.</p>\n<hr />\n<p>Le loup renverse automatiquement la cible de sa Frappe de mâchoire @UUID[Compendium.pf2e.conditionitems.Item.j91X7x0XSomq8d60]{À terre}.</p>"
        },
        "Bay": {
            "name": "Bay (Plainte)",
            "description": "<p>Le molosse d'ombre lâche une étrange plainte, en tentant de Démoraliser chaque ennemi dans une @Template[type:emanation|distance:5]{émanation de 6 m}. Ces tentatives de démoralisation ne nécessitent pas de parler la langue et elles ne subissent pas de la pénalité liée au fait de ne pas partager une langue.</p>"
        },
        "Disgusting Gallop": {
            "name": "Disgusting Gallop (Galop immonde)",
            "description": "<p>La monture zombie Marche rapidement deux fois, projetant une salive putride le long de son parcours. Une fois pendant ce mouvement, choisissez une créature adjacente à la monture zombie. La salive l'éclabousse et la créature doit réussir un jet de Vigueur ou être @UUID[Compendium.pf2e.conditionitems.Item.fesd1n5eVhpCSS18]{Sickened 1}. La créature est alors temporairement immunisée contre la salive pendant 24 heures. Le DD utilisé est le @Check[type:fortitude|dc:resolve(12+@actor.level+@actor.abilities.con.mod)]{DD qualifié} auquel s'ajoute le modificateur de Constitution de la monture zombie ou le @Check[type:fortitude|dc:résolve(14+@actor.level+@actor.abilities.con.mod)]{DD expert} si la monture est spécialisée.</p>"
        },
        "Rhinoceros Charge": {
            "name": "Rhinoceros Charge (Charge du rhinocéros)",
            "description": "<p>Le rhinocéros Marche rapidement deux fois puis effectue une Frappe de corne. Tant que le rhinocéros s'est déplacé d'au moins 6 mètres, la corne inflige 1d8 dégâts perforants supplémentaires ou 2d8 dégâts supplémentaires si votre rhinocéros est agile ou sauvage.</p>"
        },
        "Spiked Bunker": {
            "name": "Spiked Bunker (Bunker pointu)",
            "description": "<p>Votre élémentaire de métal s'entoure de piques de métal protectrices et se met sur la défensive. Il bénéficie d'un bonus de circonstances de +2 à la CA. Toute créature qui touche l'élémentaire de métal avec une attaque au corps-à-corps à mains nues alors qu'il est dans son bunker pointu subit @Damage[2d6[piercing]]{2 dégâts perforants} (ou @Damage[3d6[piercing]]{3d6 dégâts perforants} si votre élémentaire de métal est spécialisé). L'élémentaire de métal ne peut pas se déplacer, Frapper ou entreprendre d'autres actions nécessitant l'utilisation de son corps tant qu'il est dans son Bunker pointu mais il peut rétracter le bunker par une action unique, ce qui met un terme à ses effets.</p>"
        },
        "Grabbing Trunk": {
            "name": "Grabbing Trunk (Trompe préhensile)",
            "description": "<p>L'éléphant agrippe son ennemi avec sa trompe et le transporte. L'éléphant utilise Athlétisme pour @UUID[Compendium.pf2e.actionspf2e.Item.Grapple]{Saisir} une créature de deux tailles plus petites que celle de l'éléphant dans sa trompe. Si sa cible est @UUID[Compendium.pf2e.conditionitems.Item.kWc1fhmv9LBiTuei]{Empoignée/agrippée} ou @UUID[Compendium.pf2e.conditionitems.Item.Restrained]{Entravée}, l'éléphant la repositionne dans un autre espace à sa portée.</p>"
        },
        "Drench": {
            "name": "Drench (Tremper)",
            "description": "<p>Votre élémentaire d'eau trempe les feux à proximité pour les éteindre. Votre élémentaire éteint tous les feux dans une @Template[type:emanation|distance:5]{émanation de 1,5 mètre}. Il éteint automatiquement tous les feux non magiques et tente de contrer tous les feux magiques (son modificateur de contre est égal à son modificateur d'attaque avec sa Frappe de vague, non modifié par les bonus ou les effets qui s'appliquent aux jets d'attaques).</p>"
        },
        "Flyby Attack": {
            "name": "Flyby Attack (Attaque en vol)",
            "description": "<p>L'oiseau de proie Vole et porte une Frappe de serre à n'importe quel moment.</p>"
        },
        "Gallop": {
            "name": "Gallop (Galop)",
            "description": "<p>Le cheval Marche rapidement deux fois avec un bonus de circonstances de +3 m à sa Vitesse.</p>"
        },
        "Wing Thrash": {
            "name": "Wing Thrash (Balayage d'aile)",
            "description": "<p>La chauve-souris frappe violemment et sauvagement avec ses ailes, effectuant des Frappes d'ailes contre un maximum de trois ennemis adjacents. Chaque attaque compte dans la pénalité d'attaques multiples de la chauve-souris mais la pénalité n'augmente qu'après avoir effectué toutes les attaques.</p>"
        },
        "Death Roll": {
            "name": "Death Roll (Roulade mortelle)",
            "description": "<p><strong>Conditions</strong> Le crocodile a @UUID[Compendium.pf2e.conditionitems.Item.kWc1fhmv9LBiTuei]{Empoigné/agrippé} une créature.</p>\n<hr />\n<p>Le crocodile rentre ses pattes et roule rapidement, en tordant sa victime. Il effectue une Frappe de mâchoire avec un bonus de circonstances de +2 au jet d'attaque contre la créature agrippée. S'il touche, il met également la créature @UUID[Compendium.pf2e.conditionitems.Item.j91X7x0XSomq8d60]{À terre}. S'il rate, il libère la créature.</p>"
        },
        "Overwhelm": {
            "name": "Overwhelm (Prise de mâchoire)",
            "description": "<p>Le tyrannosaure s'abat sur un ennemi et l'immobilise dans ses mâchoires. Le tyrannosaure tente une Frappe de mâchoires. Si elle touche, la cible est @UUID[Compendium.pf2e.conditionitems.Item.kWc1fhmv9LBiTuei]{Saisie}.</p>"
        },
        "Feast on the Fallen": {
            "name": "Feast on the Fallen (Festin sur le déchu)",
            "description": "<p><strong>Fréquence</strong> Une fois par heure</p>\n<p><strong>Déclencheur</strong> Une créature adjacente au vautour est réduite à 0 PV</p>\n<hr />\n<p>Le vauture avale un morceau de l'ennemi défait, regagnant [[/r 18]] Points de Vie. Si le vautour est un compagnon animal spécialisé, agumentez les Points de Vie regagnés à [[/r 30]].</p>"
        },
        "Gnaw": {
            "name": "Gnaw (Ronger)",
            "description": "<p><strong>Conditions</strong> La dernière action du compagnon animal était une Frappe de mâchoires réussie.</p>\n<hr />\n<p>La cible de la Frappe subit [[/r 1d6[bleed]]]{1d6 dégâts de saignement} et subit une pénalité de -3 m à ses Vitesses jusqu'à ce qu'elle mette fin aux dégâts de saignement. Si la hyène est un compagnon animal spécialisé, les dégâts de saignement passent à 2d6.</p>"
        },
        "Darting Attack": {
            "name": "Darting Attack (Attaque foudroyante)",
            "description": "<p>Le raptor Fait un pas jusqu'à 3 m et puis Frappe ou Frappe puis Fait un pas jusqu'à 3 m.</p>"
        },
        "Screaming Skull": {
            "name": "Screaming Skull (Crâne hurlant)",
            "description": "<p>Le squelette ôte son propre crâne et le lance, faisant une Frappe de mâchoires avec une portée de 6 mètres. Qu'il touche ou non, la cible et tous les ennemis dans les 3 m doivent tenter un jet de Volonté ou être @UUID[Compendium.pf2e.conditionitems.Item.TBSHQspnbcqxsmjL]{Effrayées 1} ou @UUID[Compendium.pf2e.conditionitems.Item.TBSHQspnbcqxsmjL]{Effrayées 2} en cas de coup critique. cela utilise un DD qualifié en utilisant le modificateur de Charisme du squelette ou un DD expert si le squelette est spécialisé. Au début du prochain tour du squalette, la tête rebondit roule ou revient en volant pour se refixer. Le squelette est aveugle tant que sa tête est à distance.</p>"
        },
        "Snatch and Zap": {
            "name": "Snatch and Zap (Saisir et électrocuter)",
            "description": "<p>L'Ulgrem-Lurann mord fort et libère une décharge électrique. Il porte une Frappe de mâchoires. Si la Frappe touche, la créature cible devient automatiquement @UUID[Compendium.pf2e.conditionitems.Item.kWc1fhmv9LBiTuei]{Agrippée/Empoignée} par l'Ulgrem-Lurann et subit [[/r 1d4[electricity]]]{1d4 dégâts d'électricité} ([[/r 2d4[electricity]]]{dégâts d'électricité} pour un Ulgrem-Lurann adulte ou [[/r 3d4[electricity]]]{3d4 dégâts d'électricité} pour un compagnon spécialisé). L'état Agrippé/Empoigné persiste jusqu'à la fin de votre prochain tour, bien que l'Ulgrem-Lurann puisse utiliser @UUID[Compendium.pf2e.actionspf2e.Item.PMbdMWc2QroouFGD]{Saisir} pour tenter d'étendre sa durée comme à l'ordinaire.</p>"
        },
        "Telekinetic Assault": {
            "name": "Telekinetic Assault (Assaut télékinésique)",
            "description": "<p><strong>Fréquence</strong> Une fois par heure</p>\n<hr />\n<p>Votre fantôme relâche un déluge d'émotions, faisant voler de petits objets et des débris dans une @Template[type:emanation|distance:20]{émanation de 6 mètres}, en infligeant @Damage[1d6[bludgeoning]]{1d6 dégâts contondants} par tranche de 2 niveau que le fantôme possède (Réflexes basique). Cela utilise un DD qualifié en utilisant le modificateur de Charisme du fantôme ou un DD expert si le fantôme est spécialisé.</p>"
        },
        "Tail Swipe": {
            "name": "Tail Swipe (Coup de queue)",
            "description": "<p>Votre lézard de trait donne un coup avec sa queue, faisant des Frappes de queue contre deux ennemis adjacents aximum. Chaque attaque est décomptée de la pénalité d'attaques multiples du lézard de trait, mais la pénalité n'augmente pas avant d'avoir porté toutes les attaques.</p>"
        },
        "Badger Rage": {
            "name": "Badger Rage (Rage du blaireau)",
            "description": "<p><strong>Conditions</strong> Le blaireau n'est pas fatigué ou en rage.</p>\n<hr />\n<p>@Compendium[pf2e-animal-companions.AC-Features.Kgt1NyBesS3rohzb]{Rage du blaireau}</p>\n<p>Le blaireau rentre dans un état de rage pure qui dure pendant 1 minute, jusqu'à ce qu'il n'y ait plus d'ennemis aux alentours qu'il puisse percevoir ou qu'il sombre dans l'inconscience selon de qui se produit en premier. Il ne peut cesser volontairement ssa rage. Lorsqu'il est enragé, le blaireau est affecté de la manière suivante.</p>\n<p>Il inflige 4 dégâts supplémentaires avec ses attaques de morsure et 2 dégâts supplémentaires avec ses attaques de griffe.</p>\n<p>Il subit une pénalité de -1 à la CA.</p>\n<p>Il ne peut utiliser d'action avec le trait concentration à moins qu'elle n'ait aussi le trait rage. Le compagnon animal peut Chercher même lorsqu'il est en rage.</p>\n<p>Lorsqu'il a mis un terme à sa rage, il ne peut utiliser Rage du blaireau de nouveau pendant 1 minute.</p>"
        },
        "Weighted Kick": {
            "name": "Weighted Kick (Ruade lestée)",
            "description": "<p>Votre augdunar donne une lourde ruade avec ses pattes arrière, transmettant le poids de son fardeau sur la cible. Il effectue un coup de sabot. Sur un coup réussi, l'augdunar repousse automatiquement la cible de 1,5 mètre (3 mètres sur un coup critique).</p>"
        },
        "Tongue Pull": {
            "name": "Tongue Pull (Traction de la langue)",
            "description": "<p>Le gecko des cavernes fait claquer sa langue et tente d'attirer vers lui un ennemi se trouvant dans un rayon de 3 mètres. Le gecko fait un test d'Athlétisme contre le DD de Vigueur de l'adversaire. S'il réussit, le gecko des cavernes tire l'ennemi à côté de lui. Ce mouvement est un déplacement forcé. En cas de succès critique, l'ennemi est également @UUID[Compendium.pf2e.conditionitems.Item.kWc1fhmv9LBiTuei]{Saisi} jusqu'au début de votre prochain tour.</p>"
        },
        "Blood Feast": {
            "name": "Blood Feast (Festin sanglant)",
            "description": "<p>Votre compagnon animal vampirique attaque un ennemi qui saigne et boit son sang. Votre compagnon tente une Frappe contre une créature qui est en train de subir des dégâts de saignement. La Frappe inflige 2d8 dégâts supplémentaires. Si la Frappe touche et inflige des dégâts, votre compagnon animal vampirique obtient des points de vie temporaires égaux à la moitié de votre niveau qui persistent jusqu'à 1 minute.</p>"
        }
    },
    "mapping": {
        "description": "system.description.value",
        "gm": "system.description.gm",
        "rules": {
            "path": "system.rules",
            "converter": "translateRules"
        }
    }
}