{
  "ancestryfeatures": {
    "type": "Item",
    "pack": "../packs",
    "transl": "Capacités des ascendances",
    "type1": "type",
    "type2": "system.level.value"
  },
  "ancestries": {
    "type": "Item",
    "pack": "../packs",
    "transl": "Ascendances"
  },
  "heritages": {
    "type": "Item",
    "pack": "../packs",
    "transl": "Héritages des ascendances"
  },
  "backgrounds": {
    "type": "Item",
    "pack": "../packs",
    "transl": "Historiques"
  },
  "classes": {
    "type": "Item",
    "pack": "../packs",
    "transl": "Classes"
  },
  "classfeatures": {
    "type": "Item",
    "pack": "../packs",
    "transl": "Capacités de classe",
    "type1": "system.traits.value",
    "type2": "system.level.value"
  },
  "feats": {
    "type": "Item",
    "pack": "../packs",
    "transl": "Dons",
    "type1": "system.category",
    "type2": "system.level.value",
    "lists": {
      "Prereq": "system.prerequisites.value"
    }
  },
  "familiar-abilities": {
    "type": "Item",
    "pack": "../packs",
    "transl": "Pouvoirs des familiers"
  },
  "spells": {
    "type": "Item",
    "pack": "../packs",
    "transl": "Sorts",
    "type1": "system.traits.rarity",
    "type2": "system.level.value",
    "fields": {
      "AreaDetails": "system.area.details",
      "Cost": "system.cost.value",
      "Duration": "system.duration.value",
      "PrimaryCheck": "system.ritual.primary.check",
      "Range": "system.range.value",
      "Requirements": "system.requirements",
      "SecondaryCaster": "system.ritual.secondary.casters",
      "SecondaryCheck": "system.ritual.secondary.checks",
      "Target": "system.target.value",
      "Time": "system.time.value"
    },
    "subMappings": {
      "heightening": {
        "base": "system.heightening.levels",
        "converter": "translateHeightening",
        "fields": {
          "duration": "duration.value",
          "range": "range.value",
          "target": "target.value",
          "time": "time.value"
        }
      },
      "spellVariants": {
        "base": "system.overlays",
        "converter": "translateSpellVariants",
        "fields": {
          "name": "name"
        }
      }
    }
  },
  "equipment": {
    "type": "Item",
    "pack": "../packs",
    "transl": "Équipement",
    "type1": "type",
    "type2": "system.level.value"
  },
  "deities": {
    "type": "Item",
    "pack": "../packs",
    "transl": "Divinités"
  },
  "actions": {
    "type": "Item",
    "pack": "../packs",
    "transl": "Actions"
  },
  "adventure-specific-actions": {
    "type": "Item",
    "pack": "../packs",
    "transl": "Actions propres aux aventures"
  },
  "conditions": {
    "type": "Item",
    "pack": "../packs",
    "transl": "États"
  },
  "pathfinder-society-boons": {
    "type": "Item",
    "pack": "../packs",
    "transl": "Récompenses PFS"
  },
  "boons-and-curses": {
    "type": "Item",
    "pack": "../packs",
    "transl": "Bénédictions et malédictions"
  },
  "bestiary-effects": {
    "type": "Item",
    "pack": "../packs",
    "transl": "Effets des monstres"
  },
  "campaign-effects": {
    "type": "Item",
    "pack": "../packs",
    "transl": "Effets des aventures"
  },
  "equipment-effects": {
    "type": "Item",
    "pack": "../packs",
    "transl": "Effets de l'équipement"
  },
  "feat-effects": {
    "type": "Item",
    "pack": "../packs",
    "transl": "Effets des dons et des capacités"
  },
  "other-effects": {
    "type": "Item",
    "pack": "../packs",
    "transl": "Autres effets"
  },
  "spell-effects": {
    "type": "Item",
    "pack": "../packs",
    "transl": "Effets des sorts"
  },
  "bestiary-ability-glossary-srd": {
    "type": "Item",
    "pack": "../packs",
    "transl": "Capacités des monstres"
  },
  "bestiary-family-ability-glossary": {
    "type": "Item",
    "pack": "../packs",
    "transl": "Capacités des familles de monstre"
  },
  "kingmaker-features": {
    "type": "Item",
    "pack": "../packs",
    "folders": true,
    "transl": "Fonctionnalités Kingmaker",
    "lists": {
      "Prereq": "system.prerequisites.value"
    }
  },
  "pathfinder-bestiary": {
    "type": "Actor",
    "pack": "../packs",
    "transl": "Bestiaire"
  },
  "pathfinder-bestiary-2": {
    "type": "Actor",
    "pack": "../packs",
    "transl": "Bestiaire 2"
  },
  "pathfinder-bestiary-3": {
    "type": "Actor",
    "pack": "../packs",
    "transl": "Bestiaire 3"
  },
  "npc-gallery": {
    "type": "Actor",
    "pack": "../packs",
    "transl": "Galerie de PNJ"
  },
  "book-of-the-dead-bestiary": {
    "type": "Actor",
    "pack": "../packs",
    "transl": "Bestiaire du Livre des morts"
  },
  "mwangi-expanse-bestiary": {
    "type": "Actor",
    "pack": "../packs",
    "transl": "Bestiaire du Mwangi"
  },
  "impossible-lands-bestiary": {
    "type": "Actor",
    "pack": "../packs",
    "transl": "Bestiaire des Royaumes impossibles"
  },
  "travel-guide-bestiary": {
    "type": "Actor",
    "pack": "../packs",
    "transl": "Bestiaire du Carnet de voyage"
  },
  "pathfinder-dark-archive": {
    "type": "Actor",
    "pack": "../packs",
    "transl": "Archives sombres"
  },
  "highhelm-bestiary": {
    "type": "Actor",
    "pack": "../packs",
    "transl": "Heaume"
  },
  "rage-of-elements-bestiary": {
    "type": "Actor",
    "pack": "../packs",
    "transl": "Fureur des éléments"
  },
  "hazards": {
    "type": "Actor",
    "pack": "../packs",
    "transl": "Dangers",
    "desc": "system.details.description"
  },
  "vehicles": {
    "type": "Actor",
    "pack": "../packs",
    "transl": "Véhicules",
    "name": "name",
    "desc": "system.details.description",
    "fields": {
      "Crew": "system.details.crew",
      "PilotingCheck": "system.details.pilotingCheck",
      "Speed": "system.details.speed"
    }
  },
  "age-of-ashes-bestiary": {
    "type": "Actor",
    "pack": "../packs",
    "transl": "Age des Cendres"
  },
  "blood-lords-bestiary": {
    "type": "Actor",
    "pack": "../packs",
    "transl": "Bestiaire des Seigneurs du sang"
  },
  "extinction-curse-bestiary": {
    "type": "Actor",
    "pack": "../packs",
    "transl": "Sentence d'Extinction"
  },
  "fists-of-the-ruby-phoenix-bestiary": {
    "type": "Actor",
    "pack": "../packs",
    "transl": "poings du phénix de rubis"  
  },
  "gatewalkers-bestiary": {
    "type": "Actor",
    "pack": "../packs",
    "transl": "Franchisseur de portail"
  },
  "malevolence-bestiary": {
    "type": "Actor",
    "pack": "../packs",
    "transl": "Malveillance"
  },
  "menace-under-otari-bestiary": {
    "type": "Actor",
    "pack": "../packs",
    "transl": "Boîte d'initiation"
  },
  "monsters-of-myth-bestiary": {
    "type": "Actor",
    "pack": "../packs",
    "transl": "Monstres du mythe"
  },
  "outlaws-of-alkenstar-bestiary": {
    "type": "Actor",
    "pack": "../packs",
    "transl": "Hors-la-loi d'Alkenastre"
  },
  "troubles-in-otari-bestiary": {
    "type": "Actor",
    "pack": "../packs",
    "transl": "Otira en difficulté"
  },
  "agents-of-edgewatch-bestiary": {
    "type": "Actor",
    "pack": "../packs",
    "transl": "Agents d'Absalom"
  },
  "abomination-vaults-bestiary": {
    "type": "Actor",
    "pack": "../packs",
    "transl": "Caveau des abominations"
  },
  "kingmaker-bestiary": {
    "type": "Actor",
    "pack": "../packs",
    "transl": "Kingmaker"
  },
  "criticaldeck": {
    "type": "JournalEntry",
    "pack": "../packs",
    "transl": "Cartes critiques",
    "pages": {
      "name": "name",
      "desc": "text.content"
    }
  },
  "gmg-srd": {
    "type": "JournalEntry",
    "pack": "../packs",
    "transl": "Guide du Maître",
    "desc": "content"
  },
  "journals": {
    "type": "JournalEntry",
    "pack": "../packs",
    "transl": "Journaux",
    "pages": {
      "name": "name",
      "desc": "text.content"
    }
  },
  "action-macros": {
    "type": "Macro",
    "pack": "../packs",
    "transl": "Macros des actions"
  },
  "macros": {
    "type": "Macro",
    "pack": "../packs",
    "transl": "Macros PF2e"
  },
  "ac-advanced-maneuvers": {
    "type": "Item",
    "pack": "../packs-animal",
    "module": "pf2e-animal-companions",
    "transl": "Manœuvres avancées (Animal Companions)"
  },
  "ac-ancestries-and-class": {
    "type": "Item",
    "pack": "../packs-animal",
    "module": "pf2e-animal-companions",
    "transl": "Ascendances et classes (Animal Companions)"
  },
  "ac-construct-breakthroughs": {
    "type": "Item",
    "pack": "../packs-animal",
    "module": "pf2e-animal-companions",
    "transl": "Constructs Breakthroughs (Animal Companions)"
  },
  "ac-construct-companions": {
    "type": "Actor",
    "pack": "../packs-animal",
    "module": "pf2e-animal-companions",
    "transl": "Constructs (Animal Companions)"
  },
  "ac-eidolons": {
    "type": "Actor",
    "pack": "../packs-animal",
    "module": "pf2e-animal-companions",
    "transl": "Eidolons (Animal Companions)"
  },
  "ac-evolution-feats": {
    "type": "Item",
    "pack": "../packs-animal",
    "module": "pf2e-animal-companions",
    "transl": "Évolutions (Animal Companions)"
  },
  "ac-feats": {
    "type": "Item",
    "pack": "../packs-animal",
    "module": "pf2e-animal-companions",
    "transl": "Dons (Animal Companions)"
  },
  "ac-features": {
    "type": "Item",
    "pack": "../packs-animal",
    "module": "pf2e-animal-companions",
    "transl": "Aptitudes (Animal Companions)"
  },
  "ac-support-benefits": {
    "type": "Item",
    "pack": "../packs-animal",
    "module": "pf2e-animal-companions",
    "transl": "Bénéfices (Animal Companions)"
  }
}