{
    "label": "Eidolons (Animal Companions)",
    "entries": {
        "Anger Phantom Eidolon": {
            "name": "Anger Phantom Eidolon"
        },
        "Angel Eidolon": {
            "name": "Angel Eidolon"
        },
        "Plant Eidolon": {
            "name": "Plant Eidolon"
        },
        "Psychopomp Eidolon": {
            "name": "Psychopomp Eidolon"
        },
        "Construct Eidolon": {
            "name": "Construct Eidolon"
        },
        "Undead Eidolon": {
            "name": "Undead Eidolon"
        },
        "Elemental Eidolon": {
            "name": "Elemental Eidolon"
        },
        "Dragon Eidolon": {
            "name": "Dragon Eidolon"
        },
        "Devotion Phantom Eidolon": {
            "name": "Devotion Phantom Eidolon"
        },
        "Fey Eidolon": {
            "name": "Fey Eidolon"
        },
        "Demon Eidolon": {
            "name": "Demon Eidolon"
        },
        "Beast Eidolon": {
            "name": "Beast Eidolon"
        }
    },
    "mapping": {
        "description": "system.details.publicNotes",
        "blurb": "system.details.blurb",
        "cadetails": "system.attributes.ac.details",
        "ci": "system.traits.ci.custom",
        "damageimmunity": "system.traits.di.custom",
        "damageresistance": "system.traits.dr.custom",
        "damagevulnerability": "system.traits.dv.custom",
        "hpdetails": "system.attributes.hp.details",
        "languages": "system.traits.languages.custom",
        "saves": "system.attributes.allSaves.value",
        "senses": "system.traits.senses.value",
        "speeds": "system.attributes.speed.details",
        "traits": "system.traits.traits.custom",
        "desc (hazard)": "system.details.description",
        "disable": "system.details.disable",
        "reset": "system.details.reset",
        "routine": "system.details.routine",
        "stealth": "system.attributes.stealth.details",
        "target": "system.target.value",
        "items": {
            "path": "items",
            "converter": "translateActorItems"
        }
    }
}