{
    "label": "Guide du Maître",
    "entries": {
        "Trade Town": {
            "name": "Trade Town",
            "description": "<p>De nombreuses personnes traversaient votre patrie. Vous avez peut-être grandi près d'un grand axe commercial ou d'un carrefour, ou dans une petite ville marchande.</p>\n<p>Ajoutez Connaissance comptable, Connaissance des guildes, Connaissance commerciale, Connaissance du métier de palefrenier, et une Connaissance associée à une ascendance courante (comme Connaissance des nains) à vos options d'historique.</p>"
        },
        "The Liege Lord": {
            "name": "The Liege Lord",
            "description": "<p>Vous êtes devenu proche de quelqu'un au service duquel vous avez été. Il peut s'agir d'un employeur, d'un seigneur ou d'une dame d'importance mineure, peut-être même d'un roi ou d'une reine. Si cette personne avait de l'ascendant sur vous, elle vous considérait comme plus qu'un simple sujet ou serviteur. En conséquence, vous vous êtes habitué à fréquenter des gens puissants et à traiter avec eux.</p>\n<p>Ajoutez une prime d'attribut au Charisme à vos options d'historique.</p>"
        },
        "Wasteland Survivors": {
            "name": "Wasteland Survivors",
            "description": "<p>Ce personnage et vous vous êtes perdu dans une région désolée dangereuse et avez dû compter l'un sur l'autre pour votre survie. Vous n'êtes toujours pas certain de savoir si l'un ou l'autre auriez pu réussir cette épreuve sans l'aide de l'autre.</p>\n<p>Ajoutez le don de compétence @UUID[Compendium.pf2e.feats-srd.Item.8qebBeOJsyRIchcu]{Glaneur} à vos options d'historique.</p>"
        },
        "Religious Students": {
            "name": "Religious Students",
            "description": "<p>Ce personnage et vous avez tous les deux suivi une formation religieuse dans le passé, même si vous ne l'avez pas poursuivi, et vous admirez sa piété.</p>\n<p>Ajoutez le don de compétence @UUID[Compendium.pf2e.feats-srd.Item.x7EMZNMavris2aHY]{Étudiant du droit canon} à vos options d'historique.</p>"
        },
        "Fool": {
            "name": "Fool",
            "description": "<p>Vous perdez [[/r 1d10*100 #XP]]{1d10×100 PX} à moins de piocher deux autres cartes.</p>"
        },
        "Dullard": {
            "name": "Dullard",
            "description": "<p>Perdez immédiatement [[/r {1d4+1} #Dullard Intelligence Decrease]]{1d4+1 d'Intelligence}. Vous pouvez alors piocher une carte supplémentaire et la carte de l'idiot disparaît à jamais.</p>"
        },
        "Magician": {
            "name": "Magician",
            "description": "<p>Ce personnage vous a soutenu lors de votre brève incursion dans le monde de la prestidigitation, qui était pour vous une première étape avant d'apprendre la magie véritable ou un simple moyen de conserver l'agilité de vos doigts.</p>\n<p>Ajoutez le don de compétence @UUID[Compendium.pf2e.feats-srd.Item.hVZbnsDuXihggylt]{Vol subtil} à vos options d'historique.</a>"
        },
        "Mercantile Expertise": {
            "name": "Mercantile Expertise",
            "description": "<p>Pour pousser un employeur à vous embaucher à la place de ce personnage, vous avez travaillé dur afin de démontrer votre sens aigu du commerce. Cela n'a pas\nfonctionné. L'employeur a finalement embauché ce personnage.</p>\n<p>Ajoutez le don de compétence @UUID[Compendium.pf2e.feats-srd.Item.5nc5ridFBfYpn2Om]{Chasseur de bonnes affaires} à vos options d'historique.</p>"
        },
        "Raided": {
            "name": "Raided",
            "description": "<p>Une horde de pillards a attaqué votre communauté, tuant et blessant plusieurs de vos proches. Il peut s'agir d'une bande de voleurs de grand chemin ou d'une armée d'envahisseurs. Vous avez conservé une relique de cette époque : ajoutez une armure ou un bouclier valant 15 po ou moins à vos options d'historique.</p>\n<p>Si vous choisissez cette option à la place d'un don de compétence, vous devenez qualifié en Médecine.</p>"
        },
        "The Fiend": {
            "name": "The Fiend",
            "description": "<p>Vous avez eu affaire à un fiélon ou avez été possédé par un fiélon, qui vous a accordé du pouvoir quand vous en aviez besoin. Une part de lui se trouve encore en vous et stimule vos pulsions destructrices.</p>\n<p>Ajoutez une prime d'attribut à la Force à vos options d'historique.</p>"
        },
        "The Mentor": {
            "name": "The Mentor",
            "description": "<p>Un mentor vous a appris tout ce qu'il faut savoir sur la vie. Il s'agit peut-être de la personne qui a contribué à faire de vous un héros, ou simplement d'un proche qui vous a aidé à façonner votre vision du monde.</p>\n<p>Ajoutez une prime d'attribut à la Constitution à vos options d'historique.<p>"
        },
        "Social Maneuvering": {
            "name": "Social Maneuvering",
            "description": "<p>Vous avez toujours voulu prouver que vous étiez meilleur que ce personnage bénéficiant d'une bonne situation sociale. Jusqu'ici, vous n'avez pas obtenu de résultat décisif.</p>\n<p>Ajoutez le don de compétence @UUID[Compendium.pf2e.feats-srd.Item.JtjnFsOToBLnSRO9]{Manières courtoises} à vos options d'historique.</p>"
        },
        "The Wanderer": {
            "name": "The Wanderer",
            "description": "<p>Vous avez connu quelqu'un qui voyageait d'un lieu à l'autre au gré de ses envies, comme un ménestrel, un marchand, un paria, un mercenaire ou un marin.Cette personne vous ramenait de merveilleux souvenirs de ses pérégrinations et a fait naître en vous l'envie de voir le monde.</p>\n<p>Ajoutez une prime d'attribut à la Dextérité à vos options d'historique.</p>"
        },
        "The Dead One": {
            "name": "The Dead One",
            "description": "<p>Une des personnes vous ayant le plus influencé était une créature morte-vivante intelligente, comme un fantôme, une liche, un chevalier sépulcre ou un vampire. Au cours de cette étrange relation, il vous a raconté sa vie de mortel et vous a ainsi permis de mettre en perspective votre propre vie.</p>\n<p>Ajoutez une prime d'attribut à la Constitution à vos options d'historique.</p>"
        },
        "Knight": {
            "name": "Knight",
            "description": "<p>Un @UUID[Compendium.pf2e.npc-gallery.Actor.B13dyXTo1xWVyj2R]{Garde du palais} arrive et vous jure une loyauté sans faille.</p>"
        },
        "Timely Cure": {
            "name": "Timely Cure",
            "description": "<p>Lorsqu'un membre de votre famille était mourant et qu'il ne restait plus beaucoup d'espoir, ce personnage vous a donné un remède alchimique simple et efficace. Vous êtes déterminé à lui rendre cette faveur.</p>\n<p>Ajoutez le don de compétence @UUID[Compendium.pf2e.feats-srd.Item.is3Oz9wt11lNq62K]{Artisanat alchimique} à vos options d'historique.</p>"
        },
        "Coastal Community": {
            "name": "Coastal Community",
            "description": "<p>Vous avez grandi sur la rive d'un grand fleuve, dans une région très humide, au bord d'un océan ou sur une île.</p>\n<p>Ajoutez Connaissance de la pêche, Connaissance de la navigation maritime, et une Connaissance d'un type de créature marine particulière (comme Connaissance des requins) à vos options d'historique.</p>"
        },
        "Spy": {
            "name": "Spy",
            "description": "<p>Par le passé, vous avez espionné ce personnage, soit pour le compte de quelqu'un d'autre soit parce que vous aviez des soupçons à son sujet.</p>\n<p>Ajoutez le don de compétence @UUID[Compendium.pf2e.feats-srd.Item.yUuU9xyotrpwpTyC]{Lire sur les lèvres} à vos options d'historique.</p>"
        },
        "Seeking Accolades": {
            "name": "Seeking Accolades",
            "description": "<p>Vous n'avez jamais semblé autant attirer l'attention des foules aussi facilement que ce personnage, de sorte que vous avez dû travailler dur pour développer votre sens du spectacle.</p>\n<p>Ajoutez le don de compétence @UUID[Compendium.pf2e.feats-srd.Item.xqAdXRd2gSQcqp5E]{Représentation impressionnante} à vos options d'historique.</p>"
        },
        "Kindly Witch": {
            "name": "Kindly Witch",
            "description": "<p>Ce personnage vous a présenté à une personne bienveillante mais recluse vivant à la marge de la civilisation mais qui a une connaissance étendue à partager. </p>\n<p>Ajoutez le don de compétence @UUID[Compendium.pf2e.feats-srd.Item.WC4xLBGmBsdOdHWu]{Médecine naturelle} à vos options d'historique.</p>"
        },
        "Comrade-in-Arms": {
            "name": "Comrade-in-Arms",
            "description": "<p>Ce personnage et vous avez autrefois fait votre service militaire ensemble et vous vous étes entraînés ensemble pour améliorer votre forme physique.</p>\n<p>Ajoutez le don de compétence @UUID[Compendium.pf2e.feats-srd.Item.W6Gl9ePmItfDHji0]{Assurance} en Athlétisme à vos options d'historique.</p>"
        },
        "Fell In with a Bad Crowd": {
            "name": "Fell In with a Bad Crowd",
            "description": "<p>Dans votre jeunesse, vous avez côtoyé des criminels : un gang, une guilde de voleurs ou une organisation comparable.</p>\n<p>Ajoutez le don de compétence @UUID[Compendium.pf2e.feats-srd.Item.t3btih0O5RUwWynt]{Contrebandier expérimenté} à vos options d'historique.</p>"
        },
        "Rogue": {
            "name": "Rogue",
            "description": "<p>Un allié PNJ ressent soudain une profonde haine contre vous et devient à jamais votre ennemi. Le PNJ peut garder cette haine secrète jusqu'au moment opportun.</p>"
        },
        "Itinerant": {
            "name": "Itinerant",
            "description": "<p>Vous n'avez jamais eu de foyer à proprement parler. Vous avez peut-être grandi dans une caravane nomade, avec un groupe de bateleurs itinérants ou un cercle de contrebandiers</p>\n<p>Ajoutez Connaissance du cirque, Connaissance de la voyance, Connaissance ludique, Connaissance du travail et Connaissance de la Pègre à vos options d'historique.</p>"
        },
        "Captured by Giants": {
            "name": "Captured by Giants",
            "description": "<p>Vous avez été capturé par des géants en maraude et avez été forcé de vous battre battre pour vous évader.</p>\n<p>Ajoutez le don de compétence @UUID[Compendium.pf2e.feats-srd.Item.KxaYlC50zzHysJj8]{Lutteur contre les titans} a vos options d'historique.</p>"
        },
        "Attained a Magical Gift": {
            "name": "Attained a Magical Gift",
            "description": "<p>Quand vous étiez enfant, vous avez trouvé, volé ou reçu un objet magique qui vous a donné un pouvoir extraordinaire.</p>\n<p>Ajoutez le don de compétence @UUID[Compendium.pf2e.feats-srd.Item.blMeVamjGz4ODWxq]{Sens arcanique} à vos options d'historique.</p>"
        },
        "Had Your First Kill": {
            "name": "Had Your First Kill",
            "description": "<p>Vos mains ont été tachées de sang dans votre jeunesse, quand vous avez dû prendre une vie pour la première fois. Vous possédez encore l'arme que vous avez utilisée à l'époque : ajoutez une arme courante d'une valeur de 15 po ou moins à vos options d'historique.</p>\n<p>Si vous choisissez cette option à la place d'un don de compétence, vous devenez qualifié en Athlétisme.</p>"
        },
        "Liberators": {
            "name": "Liberators",
            "description": "<p>Ce personnage et vous avez travaillé ensemble pour libérer des captifs (dont un de vos amis ou parent) aux mains d'une bande d'esclavagistes.</p>\n<p>Ajoutez le don de compétence @UUID[Compendium.pf2e.feats-srd.Item.HEBXaS656MZTiWFu]{Diversion interminable} à vos options d'historique.</p>"
        },
        "The Void": {
            "name": "The Void",
            "description": "<p>Votre esprit est emprisonné pour toujours. La carte est capricieuse mais elle emprisonne souvent la psyché dans un objet situé sur une planète ou un plan lointain. Un <em>@UUID[Compendium.pf2e.spells-srd.Item.6dDtGIUerazSHIOu]{Souhait}</em> ou une magie de puissance similaire peut révéler l'endroit où est emprisonné votre psyché mais cela ne permet pas de la libérer. Votre corps comateux continue à vivre. Vous ne piochez plus de carte.</p>"
        },
        "Gem": {
            "name": "Gem",
            "description": "<p>Gagnez 25 joyaux de votre choix d'une valeur de 200 po chacun ou 50 gemmes valant chacune 100 po.</p>"
        },
        "Throne": {
            "name": "Throne",
            "description": "<p>Vous obtenez un bonus de statut de +4 permanent à vos tests de Diplomatie et vous possédez désormais un petit château dans une région dégagée de votre choix. Vous devez choisir son emplacement dans un délai d'une heure.</p>\n<p>@UUID[Compendium.pf2e.equipment-effects.Item.Zb8RYgmzCI6fQE0o]{Effet : Carte Trône}</p>"
        },
        "Matter of Might": {
            "name": "Matter of Might",
            "description": "<p>Vous avez longtemps considéré ce personnage comme votre rival en termes de force. Vous êtes déterminé à prouver que vous êtes plus puissant que lui y compris par une utilisation judicieuse de la force si vous ne lui en imposez pas physiquement.</p>\n<p>Ajoutez le don de compétence @UUID[Compendium.pf2e.feats-srd.Item.C0Tcelg3BAPhML6J]{Portefaix} à vos options d'historique.</p>"
        },
        "The Lover": {
            "name": "The Lover",
            "description": "<p>Votre passé est marqué par une liaison romantique avec quelqu'un qui vous a énormément influencé. Il s'agissait peut-être d'un premier amour, d'une relation légère qui s'est développée ou d'une grande déception amoureuse. Cette expérience vous a permis de développer votre confiance dans le cadre des interactions amoureuses, mais vos pensées s'égarent encore parfois vers cette personne marquante de votre passé.</p>\n<p>Ajoutez une prime d'attribut au Charisme à vos options d'historique.</p>"
        },
        "The Pariah": {
            "name": "The Pariah",
            "description": "<p>Vous avez rencontré un exilé en disgrâce et ses mots vous ont touché. Ce qui vous semblait un temps juste, dans votre religion, société ou famille, s'est soudain mis à sonner faux et vous avez rapidement appris que vous ne deviez pas accorder votre confiance à n'importe qui.</p>\n<p>Ajoutez une prime d'attribut à la Sagesse à vos options d'historique.</p>"
        },
        "Comet": {
            "name": "Comet",
            "description": "<p>Si vous vainquez seul la prochaine menace faible ou le ou les ennemis hostiles plus coriaces que vous rencontrez , vous gagnez assez de PX pour atteindre le niveau suivant. Sinon, cette carte ne vous apporte rien.</p>"
        },
        "Euryale (curse)": {
            "name": "Euryale (curse)",
            "description": "<p>L'image d'une méduse vous maudit avec une pénalité de statut permanente de -1 à tous vos jets de sauvegarde. Cette malédiction ne peut être levée que par une divinité ou la carte Les Parques.</p>\n<p>@UUID[Compendium.pf2e.equipment-effects.Item.8ersuvNJXX00XaIQ]{Effet : carte Euryale (malédiction)}</p>"
        },
        "Academy Trained": {
            "name": "Academy Trained",
            "description": "<p>Vous avez été admis dans une université où vous avez étudié de nombreux sujets et compétences. Vous étiez peut-étre un élève sérieux ou un tire-au-flanc. Dans tous les cas, cette université a été votre foyer pendant une bonne partie de votre jeunesse.</p>\n<p>Ajoutez le don de compétence @UUID[Compendium.pf2e.feats-srd.Item.BocFD2KV0qgUC76x]{Connaissance supplémentaire} à vos options d'historique. Si vous avez déja sélectionné Connaissances supplémentaires comme don de compétence, au lieu d'être qualifié en Connaissance, vous devenez qualifié, au choix, en Arcanes, Occultisme ou Société.</p>"
        },
        "The Hunter": {
            "name": "The Hunter",
            "description": "<p>Cette personne était un animal sauvage, qui vous a prudemment permis de vous joindre à sa meute solitaire. Elle vous a appris à cultiver votre vitesse et à vous épanouir malgré les dangers naturels environnants.</p>\n<p>Ajoutez une prime d'attribut à la Dextérité à vos options d'historique.</p>"
        },
        "Religious Community": {
            "name": "Religious Community",
            "description": "<p>Vous avez grandi dans une communauté d'érudits religieux, comme un village entourant une abbaye, un sanctuaire elfe isolé ou une ville-temple naine.</p>\n<p>Ajoutez Connaissance artistique, Connaissance du métier de scribe, une Connaissance associée à la divinité qui est adorée ou abhorrée par votre communauté (comme Connaissance de Pharasma) et une Connaissance associée à un plan (autre que l'Univers) dans lequel cette divinité réside à vos options d'historique.</p>"
        },
        "Privileged Position": {
            "name": "Privileged Position",
            "description": "<p>Vous avez un temps cherché à obtenir la faveur d'un puissant incantateur pour qu'il soit votre mentor, mais ce personnage était clairement le préféré de ce mentor, quoi que vous fassiez.</p>\n<p>Ajoutez le don de compétence @UUID[Compendium.pf2e.feats-srd.Item.IlOQuCQIhjJpig3S]{Identification rapide} à vos options d'historique.</p>"
        },
        "Died": {
            "name": "Died",
            "description": "<p>Vous êtes mort ou avez été si proche de mourir que vous vous êtes retrouvé à la frontière entre la vie et la mort.</p>\n<p>Ajoutez le don @UUID[Compendium.pf2e.feats-srd.Item.I0BhPWqYf1bbzEYg]{Dur à cuire} à vos options d'historique. Si vous sélectionnez ce don au lieu d'un don de compétence, vous n'êtes pas qualifié dans une compétence d'historique.</p>"
        },
        "Rival Trackers": {
            "name": "Rival Trackers",
            "description": "<p>Ce personnage et vous avez un temps été rivaux dans la traque d'animaux ou de criminels en fuite.</p>\n<p>Ajoutez le don de compétence @UUID[Compendium.pf2e.feats-srd.Item.urQZwmzg2kS53vd5]{Pisteur expérimenté} à vos options d'historique.</p>"
        },
        "Cosmopolitan City": {
            "name": "Cosmopolitan City",
            "description": "<p>Vous avez grandi dans une communauté sans ascendance prédominante. Cela peut avoir été a l'origine de tensions, mais cette diversité peut aussi avoir contribué à resserrer les liens existant entres les membres de cette communauté.</p>\n<p>Ajoutez Connaissance artistique, Connaissance des guildes, Connaissance juridiques et Connaissance de la pègre à vos options d'historique.</p>"
        },
        "Accidental Fall": {
            "name": "Accidental Fall",
            "description": "<p>Ce personnage vous a poussé par inadvertance d'une corniche ou d'un balcon. Vous êtes presque certain que c'était involontaire, mais la chute vous a terrifié et vous vous êtes juré de ne jamais plus vous faire surprendre de la sorte.</p>\n<p>Ajoutez le don de compétence @UUID[Compendium.pf2e.feats-srd.Item.LQw0yIMDUJJkq1nD]{Chute féline} à vos options d'historique.</p>"
        },
        "Robbed": {
            "name": "Robbed",
            "description": "<p>Les possessions de votre famille ont été volées et vous vous êtes juré de prendre le prochain cambrioleur sur le fait.</p>\n<p>Ajoutez le don de compétence @UUID[Compendium.pf2e.feats-srd.Item.DMetdzt1VJL2Y62i]{Fabrication de pièges artisanaux} à vos options d'historique.</p>"
        },
        "Vizier": {
            "name": "Vizier",
            "description": "<p>À votre demande, vous pouvez obtenir la solution à n'importe quel problème ou la bonne réponse à n'importe quelle question sauf si cette information est dissimulée par une divinité. Cette solution ne vous donne pas nécessairement le moyen d'agir. Vous avez un an pour solliciter le conseil du vizir après quoi vous perdez cet avantage.</p>"
        },
        "Claimed an Inheritance": {
            "name": "Claimed an Inheritance",
            "description": "<p>Vous avez reçu une grande richesse ou propriété à un jeune âge. Vous avez réussi à en conserver une partie. Ajoutez un article de matériel d'aventurier courant d'une valeur de 15 po ou moins à vos options d'historique.</p>\n<p>Si vous choisissez cet article à la place d'un don de compétence, vous devenez qualifié en Societé.</p>"
        },
        "Metropolis": {
            "name": "Metropolis",
            "description": "<p>Vous avez grandi dans l'une des plus grandes villes du monde, comme Absalom ou Couronne d'Ouest.</p>\n<p>Ajoutez Connaissance architecturale, Connaissance des gladiateurs, Connaissance des guildes, Connaissance juridique et Connaissance théâtrale à vos options d'historique.</p>"
        },
        "Star": {
            "name": "Star",
            "description": "<p>Obtenez une prime d'attribut que vous devez utiliser immédiatement sur un score d'attribut de votre choix.</p>"
        },
        "Slander": {
            "name": "Slander",
            "description": "<p>Ce personnage et vous étiez des rivaux pour obtenir l'affection de la même personne et vous vous êtes abaissé à répandre des mensonges vicieux avant que la situation ne dégénère.</p>\n<p>Ajoutez le don de compétence @UUID[Compendium.pf2e.feats-srd.Item.B6HbYsLBWb1RR6Fx]{Menteur charismatique} à vos options d'historique.</p>"
        },
        "Trained by a Mentor": {
            "name": "Trained by a Mentor",
            "description": "<p>Vous avez été remarqué par un mentor ou un mécène qui a proposé de prendre votre éducation en main ou de vous parrainer.</p>\n<p>Ajoutez le don de compétence @UUID[Compendium.pf2e.feats-srd.Item.sMm0UfYxEPpq2Yzd]{Professionnel expérimenté} à vos options d'historique.</p>"
        },
        "The Academic": {
            "name": "The Academic",
            "description": "<p>L'un de vos associés avait une telle soif de savoir qu'il ne pouvait jamais se satisfaire de réponses simples. À son contact, vous avez appris à apprécier les nombres, la géométrie, la logique, le travail assidu et la résolution de problèmes.</p>\n<p>Ajoutez une prime d'attribut à l'Intelligence à vos options d'historique.</p>"
        },
        "Ruin": {
            "name": "Ruin",
            "description": "<p>Vous perdez toutes vos possessions non magiques y compris vos objets de valeur et vos propriétés.</p>"
        },
        "Betrayed": {
            "name": "Betrayed",
            "description": "<p>Un ami ou un membre de votre famille en qui vous aviez une confiance plus qu'en tout autre vous a trahi.</p>\n<p>Ajoutez le don de compétence @UUID[Compendium.pf2e.feats-srd.Item.Dvz54d6aPhjsmUux]{Ose me mentir} à vos options d'historique.</p>"
        },
        "Called Before Judges": {
            "name": "Called Before Judges",
            "description": "<p>Des informations fournies par ce personnage (intentionnellement ou par inadvertance) vous ont mené à devoir vous défendre devant un groupe de bureaucrates ou de magistrats.</p>\n<p>Ajoutez le don de compétence @UUID[Compendium.pf2e.feats-srd.Item.KpFetnUqTiweypZk]{Bonne impression de groupe} à vos options d'historique.</p>"
        },
        "Homelessness": {
            "name": "Homelessness",
            "description": "<p>Au moment où vous avez tous les deux vécu dans les rues, vous avez appris à ce personnage de précieuses astuces pour survivre.</p>\n<p>Ajoutez le don de compétence @UUID[Compendium.pf2e.feats-srd.Item.X2jGFfLU5qI5XVot]{Savoir urbain} à vos options d'historique.</p>"
        },
        "The Boss": {
            "name": "The Boss",
            "description": "<p>Vous avez été un temps au service d'un individu puissant et très influent. Quand le patron parlait, tout le monde l'écoutait. Il peut s'agir d'un commandant militaire, d'un chef de village, du responsable d'une guilde ou d'un chef de gang. Au contact de ce patron, vous avez appris à faire en sorte que les gens vous écoutent et restent dans le rang.</p>\n<p>Ajoutez une prime d'attribut au Charisme à vos options d'historique.</p>"
        },
        "Underground": {
            "name": "Underground",
            "description": "<p>Vous avez grandi dans une région partiellement ou entièrement souterraine, comme une ville minière humaine, un terrier de gobelins ou une caverne naine.</p>\n<p>Ajoutez Connaissance de l'ingénierie, Connaissance du travail et Connaissance minière à vos options d'historique</p>"
        },
        "The Confidante": {
            "name": "The Confidante",
            "description": "<p>Vous pouviez tout raconter à cette personne. Elle connaît vos secrets les mieux gardés comme vos points faibles, et vous connaissez les siens. À son contact, vous avez développé votre capacité à regarder le monde sous une autre perspective que la vôtre.</p>\n<p>Ajoutez une prime d'attribut à l'Intelligence à vos options d'historique.</p>"
        },
        "Desperate Intimidation": {
            "name": "Desperate Intimidation",
            "description": "<p>Vous avez dû effrayer des pirates ou des esclavagistes qui cherchaient à vous capturer avec ce personnage.</p>\n<p>Ajoutez le don de compétence @UUID[Compendium.pf2e.feats-srd.Item.gUqvezs2zzoTXFAI]{Contraindre un groupe} à vos options d'historique.</p>"
        },
        "The Champion": {
            "name": "The Champion",
            "description": "<p>Vous étiez proche de quelqu'un qui excellait aux disciplines athlétiques et aux épreuves de force ou dans d'autres compétences. Votre amitié ou votre rivalité avec cette personne vous a permis de développer un esprit de compétition qui continue de vous guider dans tout ce que vous entreprenez.</p>\n<p>Ajoutez une prime d'attribut à la Force à vos options d'historique.</p>"
        },
        "Relationship Ender": {
            "name": "Relationship Ender",
            "description": "<p>Vous avez un jour découragé quelqu'un qui cherchait l'affection de ce personnage. Vous restez convaincu que vous lui avez rendu service car ils n'étaient pas du tout assortis.</p>\n<p>Ajoutez le don de compétence @UUID[Compendium.pf2e.feats-srd.Item.ar2DUlvDK4LDcH9J]{Contrainte rapide} à vos options d'historique.</p>"
        },
        "Accusation of Theft": {
            "name": "Accusation of Theft",
            "description": "<p>Vous avez été un jour secrètement convaincu que ce personnage vous avait volé un objet que vous chérissiez. Vous étiez déterminé à le lui voler à votre tour, puis vous vous êtes rendu compte qu'il n'était pas responsable et que vous aviez seulement égaré l'objet.</p>\n<p>Ajoutez le don de compétence @UUID[Compendium.pf2e.feats-srd.Item.jDdOqFmZLwE4dblQ]{Vol à la tire} à vos options d'historique.</p>"
        },
        "Key": {
            "name": "Key",
            "description": "<p>Gagnez une arme magique de niveau 12 ou supérieur. Le MJ détermine l'objet et les runes qu'il possède si nécessaire.</p>"
        },
        "Bullied": {
            "name": "Bullied",
            "description": "<p>Vous avez souvent été maltraité au cours de votre jeunesse. Les mauvais traitements que vous ont fait subir ces brutes n'ont fait qu'affermir votre volonté de vous défendre et de voler au secours des autres.</p>\n<p>Ajoutez le don de compétence @UUID[Compendium.pf2e.feats-srd.Item.xQMz6eDgX75WX2ce]{Regard intimidant} à vos options d'historique.</p>"
        },
        "Jester": {
            "name": "Jester",
            "description": "<p>Soit vous piochez deux autres cartes, soit vous gagnez [[/r 1d10*100 #XP]]{1d10*100 XP}{1d10×100 PX}. Puis cette carte disparaît à jamais.</p>"
        },
        "Talons": {
            "name": "Talons",
            "description": "<p>Tous vos objets magiques disparaissent de manière permanente à l'exception des cartes merveilleuses et tout artefact d'un niveau supérieur aux cartes.</p>"
        },
        "Skull": {
            "name": "Skull",
            "description": "<p>Vous devez immédiatement combattre une @UUID[Compendium.pf2e.pathfinder-bestiary.Actor.pkNWilK2pHZ5TDsd]{Mort inférieure}. Si vous êtes tué au cours du combat, vous ne pourrez jamais être ramené à la vie sauf par une divinité.</p>"
        },
        "The Crafter": {
            "name": "The Crafter",
            "description": "<p>L'une des personnes qui vous a marqué cherchait la perfection par l'art. Grâce à cette personne, vous avez développé une discipline mentale, une grande concentration, et la capacité de créer des choses à la fois utiles et belles.</p>\n<p>Ajoutez une prime d'attribut à l'Intelligence à vos options d'historique.</p>"
        },
        "Lost in the Wilderness": {
            "name": "Lost in the Wilderness",
            "description": "<p>Que vous ayiez été attiré dans la nature par une force malveillante ou que vous vous soyez simplement perdu, vous avez été forcé de survivre en ne comptant que sur vous pendant un moment.</p>\n<p>Ajoutez le don de compétence @UUID[Compendium.pf2e.feats-srd.Item.tGIXuk0XeWmG04CX]{Observation de la nature} à vos options d'historique.</p>"
        },
        "Animal Helpers": {
            "name": "Animal Helpers",
            "description": "<p>Quand ce personnage et vous étiez plus jeunes, vous avez travaillé ensemble pour soigner des animaux malades.</p>\n<p>Ajoutez le don de compétence @UUID[Compendium.pf2e.feats-srd.Item.nowEaHgIyij7im8F]{Dressage animalier} à vos options d'historique.</p>"
        },
        "Met a Fantastic Creature": {
            "name": "Met a Fantastic Creature",
            "description": "<p>Votre enfance a été marquée par une rencontre avec une créature magique, comme un dragon, une licorne, un génie, une pixie ou une autre créature similaire.</p>\n<p>Ajoutez le don de compétence @UUID[Compendium.pf2e.feats-srd.Item.MjQyTcV8Jiv1Jtln]{Reconnaître des sorts} à vos options d'historique.</p>"
        },
        "Sun": {
            "name": "Sun",
            "description": "<p>Gagnez 1 000 PX et un objet magique permanent bénéfique de niveau 6 à 11 déterminé par le MJ.</p>"
        },
        "Balance": {
            "name": "Balance",
            "description": "<p>Votre alignement est changé en un alignement radicalement différent. Si vous ne respectez pas cet alignement, vous perdez un niveau et tous les avantages octroyés par ce niveau. Votre total de PX ne change pas quand vous perdez un niveau de cette manière.</p>"
        },
        "The Mercenary": {
            "name": "The Mercenary",
            "description": "<p>Avec cette personne, tout avait toujours un prix. Rien ne s'obtenait sans devoir négocier quelque chose de valeur équivalente ou supérieure en échange. Vous respectiez cette manière de faire, cynique mais juste, et cette personne a eu une influence importante sur votre manière de voir le monde.</p>\n<p>Ajoutez une prime d'attribut à la Force à vos options d'historique.</p>"
        },
        "Donjon": {
            "name": "Donjon",
            "description": "<p>Vous êtes emprisonné par un rituel d'<em>@UUID[Compendium.pf2e.spells-srd.Item.2CNqkt2s2IYkVnv6]{Emprisonnement}</em> au rang 10. Cela utilise l'option prison et généralement vous vous retrouvez séquestré dans une région lointaine du monde. Vous perdez également tous vos objets. Vous ne piochez plus de carte.</p>"
        },
        "Won a Competition": {
            "name": "Won a Competition",
            "description": "<p>Vous vous êtes fait remarquer en gagnant une compétition au cours de votre jeunesse. Il peut s'agir d'une compétition martiale, d'une démonstration d'apprentis magiciens, d'un tournoi de jeu de hasard ou de quelque chose de plus ordinaire, comme un concours du plus gros mangeur.</p>\n<p>Ajoutez le don de compétence @UUID[Compendium.pf2e.feats-srd.Item.7LB00jkh6JaJr3vS]{Représentation fascinante} à vos options d'historique.</p>"
        },
        "Missing Child": {
            "name": "Missing Child",
            "description": "<p>Quand un enfant de votre famille a disparu dans un marché bondé, ce personnage vous a aidé à interroger les marchands et les clients et à retrouver l'enfant avant qu'il ne lui arrive malheur.</p>\n<p>Ajoutez le don de compétence @UUID[Compendium.pf2e.feats-srd.Item.4RjDxgvNXNl5GG9d]{Animal social} à vos options d'historique.</p>"
        },
        "Moon": {
            "name": "Moon",
            "description": "<p>Lancez [[/r {1d4} #Souhaits]]{1d4} pour déterminer le nombre de souhaits accordés par cette carte, ce qui affecte aussi la phase de la lune représentée sur la carte (1 : croissant de lune ; 2 : demi-lune ; 3 : lune gibbeuse ; 4 : pleine lune). Il faut une action pour formuler chacun de ces vœux et ils ont le même effet qu'un sort <em>@UUID[Compendium.pf2e.spells-srd.Item.6dDtGIUerazSHIOu]{Souhait}</em>.</p>"
        },
        "The Relative": {
            "name": "The Relative",
            "description": "<p>Vous étiez particulièrement proche d'un membre de votre famille dans votre enfance. À vos yeux, cette personne incarnait votre famille. Elle vous a aidé à passer à l'âge adulte et vous a appris tout ce qu'elle savait sur le monde. Vous vous efforcez de tenir une promesse ou d'être fidèle à un vœu ou à un serment que vous lui avez fait.</p>\n<p>Ajoutez une prime d'attribut à la Constitution à vos options d'historique.</p>"
        },
        "Frontier": {
            "name": "Frontier",
            "description": "<p>Vous avez grandi aux confins d'une région habitée. il peut s'agir de collines isolées si vous êtes un nain, d'un ranch ou d'une ferme si vous êtes un humain, ou d'un autre type de régions isolées.</p>\n<p>Ajoutez Connaissance de l'agriculture, Connaissance de la pêche, Connaissance de la chasse, Connaissance du métier d'éclaireur et une Connaissance associée à un type de créatures qui menace régulièrement votre patrie (comme Connaissance des géants) à vos options d'historique.</p>"
        },
        "The Mystic": {
            "name": "The Mystic",
            "description": "<p>Vous étiez particulièrement proche d'un personnage sacré vivant dans votre communauté, qui a profondément changé votre vie en vous ouvrant les yeux sur les pouvoirs incroyables qui existent au-delà des limites du monde naturel. Que vous soyez croyant ou non, certains artefacts, rituels et textes religieux ont contribué à façonner votre individualité.</p>\n<p>Ajoutez une prime d'attribut à la Sagesse à vos options d'historique.</p>"
        },
        "Witnessed War": {
            "name": "Witnessed War",
            "description": "<p>Vous avez grandi dans un contexte de conflit militaire majeur qui a affecté considérablement le monde de votre enfance.</p>\n<p>Ajoutez le don de compétence @UUID[Compendium.pf2e.feats-srd.Item.wYerMk6F1RZb0Fwt]{Médecine militaire} à vos options d'historique.</p>"
        },
        "The Well-Connected": {
            "name": "The Well-Connected",
            "description": "<p>Dans votre cercle de proches se trouvait quelqu'un que tout le monde connaissait. Cette personne avait des contacts dans toutes les strates sociales. Grâce à elle, vous continuez de rencontrer de nombreuses personnes de toutes origines.</p>\n<p>Ajoutez une prime d'attribut au Charisme à vos options d'historique.</p>"
        },
        "Flames": {
            "name": "Flames",
            "description": "<p>Par colère, envie, jalousie ou pour une autre raison, vous suscitez l'hostilité d'un fiélon. Seule sa mort ou la vôtre peuvent mettre un terme à cette haine. Il vous attaque ou tente de vous contrer dans un délai de [[/r 1d20 #days]]{1d20 jours}.</p>\n<p>Le MJ détermine les détails concernant ce fiélon.</p>"
        },
        "The Criminal": {
            "name": "The Criminal",
            "description": "<p>L'un de vos associés commettait régulièrement des crimes. Il vous régalait ensuite de nombreuses anecdotes sur des vols et des cambriolages risqués, et peut-être même des assassinats. C'est à lui que vous devez votre connaissance du crime.<p>\n</p>Ajoutez une prime d'attribut à la Dextérité à vos options d'historique.</p>"
        },
        "The Fates": {
            "name": "The Fates",
            "description": "<p>Les Parques altèrent la fabrique de la réalité pour vous sauver de n'importe quelle situation de votre choix. Cela peut modifier un événement passé et vous pouvez prendre cette décision immédiatement même si cet événement vous tuerait. Vous êtes le seul à pouvoir être sauvé par cette intervention, personne d'autre n'est affecté par cet événement. Cet effet peut être utilisé quand vous le souhaitez sans aucune limite de temps</p>"
        },
        "Survived a Disaster": {
            "name": "Survived a Disaster",
            "description": "<p>Vous avez survécu à un désastre majeur au cours de votre enfance (comme un grand incendie, une inondation, un tremblement de terre, une éruption volcanique ou un ouragan) en improvisant avec les moyens du bord.</p>\n<p>Ajoutez le don de compétence @UUID[Compendium.pf2e.feats-srd.Item.ASy9AKEIRxPYUi5o]{Réparation rapide} à vos options d'historique.</p>"
        },
        "Had an Ordinary Childhood": {
            "name": "Had an Ordinary Childhood",
            "description": "<p>Votre enfance a été très ordinaire et vous n'avez été marqué par aucune catastrophe particulière, une situation qui contraste avec celle de la plupart des aventuriers.</p>\n<p>Ajoutez le don de compétence @UUID[Compendium.pf2e.feats-srd.Item.W6Gl9ePmItfDHji0]{Assurance} dans une compétence de votre choix à vos options d'historique.</p>"
        },
        "The Fool": {
            "name": "The Fool",
            "description": "<p>L'un de vos proches associés tournait en ridicule les convenances et les traditions et accomplissait parfois des actions aussi imprévisibles qu'improbables. Au bout d'un temps, vous avez compris que derrière ce comportement fantasque se cachaient des perles de sagesse, une vision du monde insouciante qui vous ont appris à vous départir de vos préoccupations.</p>\n<p>Ajoutez une prime d'attribut à la Sagesse à vos options d'historique.</p>"
        },
        "Kidnapped": {
            "name": "Kidnapped",
            "description": "<p>Au cours de votre enfance, vous avez été enlevé et avez dû vous échapper, peut-être par des pirates, des esclavagistes, un culte ou par quelqu'un d'autre.</p>\n<p>Ajoutez le don de compétence @UUID[Compendium.pf2e.feats-srd.Item.3G8xUlgCjRmRJNfP]{Se faufiler rapidement} à vos options d'historique.</p>"
        },
        "Front Lines": {
            "name": "Front Lines",
            "description": "<p>Vous avez grandi dans une région déchirée par la guerre. Même si vous n'avez pas pris part aux combats personnellement, ceux-ci n'étaient jamais loin.</p>\n<p>Ajoutez Connaissance de l'héraldique, Connaissance du métier d'éclaireur et Connaissance de la guerre à vos options d'historique.</p>"
        },
        "Abandoned in a Distant Land": {
            "name": "Abandoned in a Distant Land",
            "description": "<p>À cause de la malchance (vous êtes parti vagabonder lors d'un voyage ou avez été recruté de force sur un navire en partance), vous avez dû survivre pendant un moment dans un pays lointain.</p>\n<p>Ajoutez le don de compétence @UUID[Compendium.pf2e.feats-srd.Item.P9HCz0uR6xPHuw72]{Polyglotte} à vos options d'historique.</p>"
        },
        "The Seer": {
            "name": "The Seer",
            "description": "<p>Vous étiez proche d'une personne qui prétendait voir le futur : un oracle, un devin, un prophète, ou peut-être simplement un charlatan de foire. Son influence a fait de vous soit un optimiste animé par la volonté d'accomplir son futur, soit un fataliste résigné à l'accepter.</p>\n<p>Ajoutez une prime d'attribut à la Sagesse à vos options d'historique.</p>"
        },
        "Another Ancestry's Settlement": {
            "name": "Another Ancestry's Settlement",
            "description": "<p>Déterminez aléatoirement une autre ascendance courante. Vous avez grandi au milieu de membres de celle-ci. Relancez un dé dans ce tableau (avec un modificateur adapté à cette nouvelle ascendance le cas échéant) afin de déterminer le type de communauté dans laquelle vous avez grandi (par exemple si votre gnome a grandi avec des nains et obtient 3 à son jet de dé, il a alors grandi sous terre).</p>\n<p>Ajoutez le don @UUID[Compendium.pf2e.feats-srd.Item.ihN8gkHSdPG9Trte]{Ascendance adoptive} et la compétence de Connaissance associée à votre ascendance d'adoption (comme Connaissance des nains) à vos options d'historique. Si vous sélectionnez ce don au lieu d'un don de compétence, vous n'êtes pas qualifié dans une compétence d'historique.</p>"
        },
        "Academic Community": {
            "name": "Academic Community",
            "description": "<p>Vous avez grandi dans ou à proximité d'une université, une academie ou un autre centre d'apprentissage.</p>\n<p>Ajoutez Connaissance universitaire, Connaissance généalogique, Connaissance des bibliothèques et Connaissance du métier de scribe à vos options d'historique.</p>"
        },
        "Simple Village": {
            "name": "Simple Village",
            "description": "<p>Vous avez été élevé dans une calme petite bourgade, comme un bucolique hameau gnome , une ville humaine soudée ou un fort gobelin bien établi.</p>\n<p>Ajoutez Connaissance en herboristerie, Connaissance du métier de sage-femme, Connaissance de la meunerie, Connaissance de la tannerie et une Connaissance d'un type de nourriture, de boisson ou d'un autre produit pour lequel votre village est réputé (comme Connaissance des alcools ou Connaissance de la charronnerie) à vos options d'historique.</p>"
        },
        "Patron of the Arts": {
            "name": "Patron of the Arts",
            "description": "<p>Ce personnage vous a encouragé à exceller dans un type de représentation artistique que vous aimiez, en allant même jusqu'à vous encourager durant les périodes difficiles.</p>\n<p>Ajoutez le don de compétence @UUID[Compendium.pf2e.feats-srd.Item.lFwfUvH2708rl6i3]{Artiste virtuose} à vos options d'historique.</p>"
        }
    },
    "mapping": {
        "description": "content"
    }
}