{
    "label": "Macros PF2e",
    "entries": {
        "Take a Breather": {
            "name": "Take a Breather"
        },
        "Rest for the Night": {
            "name": "Rest for the Night"
        },
        "Perception for Selected Tokens": {
            "name": "Perception for Selected Tokens"
        },
        "Travel Duration": {
            "name": "Travel Duration"
        },
        "Stealth for Selected Tokens": {
            "name": "Stealth for Selected Tokens"
        },
        "XP": {
            "name": "XP"
        },
        "Treat Wounds": {
            "name": "Treat Wounds"
        },
        "Earn Income": {
            "name": "Earn Income"
        },
        "Generate Check Prompt": {
            "name": "Generate Check Prompt"
        },
        "Toggle Compendium Browser": {
            "name": "Toggle Compendium Browser"
        }
    },
    "mapping": {
        "description": "system.description.value"
    }
}