{
    "label": "Capacités des ascendances",
    "entries": {
        "Wings": {
            "name": "Wings",
            "description": "<p>Tous les strix possèdent de puissantes ailes. Alors que tous les strix ne se concentrent pas pour exercer leurs capacités de vol, un puissant claquement d'ailes permet aux strix de parcourir de plus longues distances lorsqu'ils sautent.</p>\n<p>Lorsque vous Bondissez horizontalement, vous vous déplacez de 1,5 m supplémentaires. Vous n'obtenez pas automatiquement un échec aux Sauts en hauteur ou aux Sauts en longueur si vous ne Marchez pas rapidement d'au moins 3 m d'abord. de plus, lorsque vous faites un Saut en longueur, vous pouvez parcourir une distance de 3 m de plus que votre résultat au test d'Athlétisme, bien que vous ne puissiez toujours pas dépasser la distance maximale égale à votre Vitesse.</p>"
        },
        "Darkvision": {
            "name": "Darkvision",
            "description": "<p>Vous voyez dans les ténèbres et dans la lumière faible aussi bien que dans la lumière vive. Par contre, quand vous êtes dans les ténèbres, vous voyez en noir et blanc.</p>"
        },
        "Empathic Sense": {
            "name": "Empathic Sense",
            "description": "<p>Les kashrishis sont capables d'avoir une vague idée de l'état émotionnel actuel des autres dans un rayon de 4,5 m autour d'eux. Cela se manifeste par un sentiment général de bonheur, de colère ou de peur, sans aucun détail précis. Pour ceux avec qui les kashrishis éprouvent un lien émotionnel, le contact physique peut améliorer ce sens à des degrés plus élevés de détail et de compréhension, augmentant avec la force de leur lien. Ce sens fonctionne également comme un sens imprécis qui vous avertit de la présence, mais pas de l'emplacement précis, des créatures qui ne sont pas dénuées d'intelligence dans la zone. Vous bénéficiez d'un bonus de circonstances de +2 aux tests de Perception pour @UUID[Compendium.pf2e.actionspf2e.Item.1xRFPTFtWtGJ9ELw]{Deviner les intentions} des créatures qui ne sont pas dénuées d'intelligence dans la zone de votre sens empathique.</p>"
        },
        "Clan Dagger": {
            "name": "Clan Dagger",
            "description": "<p>Vous obtenez gratuitement une @UUID[Compendium.pf2e.equipment-srd.Item.kJJvKm80KwWXPukV]{Dague de clan} car elle vous a été donnée à votre naissance par votre clan. La vente de cet objet est un tabou terrible et vous vaudrait le dédain des autres nains.</p>"
        },
        "Advanced Undead Benefits": {
            "name": "Advanced Undead Benefits",
            "description": "<p><strong>Vision dans le noir</strong> Vous obtenez vision dans le noir si vous ne l'aviez pas déjà.</p>\n<p><strong>Protection supérieure contre la maladie et le poison</strong> Votre bonus contre la maladie et le poison passe à +2. Vous obtenez une résistance au poison égale à la moitié de votre niveau.</p>\n<p><strong>Protection contre la paralysie et le sommeil</strong> Vous obtenez un bonus de circonstances de +1 aux jets de sauvegarde (ou à toute autre défense) contre les effets qui vous donneraient l'état @UUID[Compendium.pf2e.conditionitems.Item.6uEgoh53GbXuHpTF]{Paralysé} ou qui possède le trait sommeil.</p>"
        },
        "Photosynthesis": {
            "name": "Photosynthesis",
            "description": "<p>Vous vous nourrissez grâce à la photosynthèse. En général, vous n'avez pas besoin de payer pour vous nourrir. Si vous restez sans soleil pendant une semaine, vous commencez à mourir de faim. Vous pouvez vous nourrir à partir de bouteilles de lumière solaire alchimique spécialement conçues à la place de la lumière solaire naturelle, mais ces bouteilles coûtent 10 fois plus cher que les rations habituelles (40 pa).</p>"
        },
        "Revulsion": {
            "name": "Revulsion",
            "description": "<p>Vous ne pouvez pas vous approcher volontairement à moins de 3 mètres de l'ail brandi ou d'un symbole religieux d'une divinité non maléfique. Une créature doit Interagir pour brandir de l'ail ou un symbole religieux pendant 1 round (comme pour Lever un bouclier). Si vous vous trouvez involontairement à moins de 3 mètres d'un des objets de votre répulsion, vous êtes @UUID[Compendium.pf2e.conditionitems.Item.sDPxOjQ9kx2RZE8D]{En fuite} et vous vous éloignez de l'objet de votre répulsion jusqu'à ce que vous terminiez une action à plus de 3 mètres de ce dernier. Après 1 round d'exposition au sujet de votre répulsion, vous pouvez tenter un jet de @Check[type:will|dc:25] par une action simple, qui possède le trait concentration. En cas de succès, vous surmontez votre répulsion pendant [[/r 1d6 #Surmonter la répulsion]]{1d6 rounds} ou pendant 1 heure en cas de succès critique.</p>"
        },
        "Sunlight Healing": {
            "name": "Sunlight Healing",
            "description": "<p>Un conrasu peut entrer dans un état méditatif et de guérison en y consacrant une activité de 10 minutes lorsqu'il est exposé à la lumière directe du soleil, auquel cas il récupère 1d8 points de vie.</p>\n<p>Au niveau 3, et tous les 2 niveaux par la suite, cette guérison augmente de 1d8. [[/r (ceil(@actor.level/2))d8[healing]]]{guérison par niveau}</p>\n<p>Une fois qu'un conrasu a récupéré des points de vie de cette façon, il est temporairement immunisé contre d'autres utilisations de Guérison par le soleil pendant 1 jour.</p>"
        },
        "Automaton Core": {
            "name": "Automaton Core",
            "description": "<p>Votre corps contient un noyau d'automate imprégné de quintessence planaire qui vous donne le pouvoir d'effectuer diverses tâches et abrite votre âme et votre énergie vitale. Cette énergie vitale circule en vous comme le sang des humanoïdes. Par conséquent, vous êtes une créature vivante. Vous n'avez pas les immunités typiques des créatures artificielles. Vous pouvez être affecté par des effets qui ciblent une créature vivante et vous pouvez récupérer des points de vie normalement grâce à l'énergie de vitalité.</p>\n<p>De plus, vous n'êtes pas détruit lorsque vous êtes réduit à 0 point de vie. Au lieu de cela, votre énergie vitale tente de vous maintenir actif, même dans des conditions difficiles ; vous êtes mis hors d'usage et commencez à mourir lorsque vous êtes réduit à 0 point de vie.</p>"
        },
        "Greater Darkvision": {
            "name": "Greater Darkvision",
            "description": "<p>Vous pouvez voir dans l'obscurité et dans la lumière faible juste aussi bien que dans la lumière vive, bien que votre vision dans l'obscurité soit en noir et blanc. Certaines formes d'obscurité magique tel que le sort <em>@UUID[Compendium.pf2e.spells-srd.Item.4GE2ZdODgIQtg51c]{Ténèbres}</em> au rang 4 bloque la @UUID[Compendium.pf2e.ancestryfeatures.Item.HHVQDp61ehcpdiU8]{Vision dans le noir}. Vous, quoi qu'il en soit, pouvez voir même au travers de ces formes de ténèbres magiques.</p>"
        },
        "Magical Strikes": {
            "name": "Magical Strikes",
            "description": "<p>Votre magie intrinsèque se répand dans votre être tout entier. Toutes vos Frappes sont magiques, qu'il s'agisse des Frappes à mains nues ou avec armes.</p>"
        },
        "Constructed Body": {
            "name": "Constructed Body",
            "description": "<p>Vos besoins physiologiques sont différents de ceux des créatures vivantes. Vous n'avez pas besoin de manger ou de boire. Vous n'avez pas besoin de dormir mais vous avez quand même besoin d'une période de repos quotidienne. Durant cette période de repos, vous devez entrer dans un état de veille pour récupérer pendant 2 heures, ce qui est similaire au sommeil sauf que vous restez conscient de votre environnement et que vous ne subissez aucune pénalité du fait d'être @UUID[Compendium.pf2e.conditionitems.Item.fBnFDH2MTzgFijKf]{Inconscient}. Un peu comme avec le sommeil, si vous restez trop longtemps sans entrer dans votre état de veille, vous devenez @UUID[Compendium.pf2e.conditionitems.Item.HL2l2VRSaQHu9lUw]{Fatigué} et ne pouvez récupérer jusqu'à ce que vous entriez en veille pendant 2 heures.</p>"
        },
        "Innate Venom": {
            "name": "Innate Venom",
            "description": "<p>Votre sang charrie des toxines mortelles pour tous les autres sauf vous-même. Vous obtenez l'action @UUID[Compendium.pf2e.actionspf2e.Item.s4V7JWSMF9JPJAeX]{Envenimer} qui peut délivrer le venin vishkanyen mineur. Le DD du jet de sauvegarde de votre venin est égal au plus élevé entre votre DD de classe ou votre DD de sort.</p>"
        },
        "Fangs (Nagaji)": {
            "name": "Fangs (Nagaji)",
            "description": "<p>Votre bouche contient soit des rangées de dents crochues et aiguisées, soit une paire de crocs de serpent vicieux. Vous gagnez une attaque à mains nues de crocs qui inflige 1d6 points de dégâts perforants. Vos crocs font partie du groupe pugilat et possèdent les traits finesse et à mains nues.</p>"
        },
        "Draconic Exemplar": {
            "name": "Draconic Exemplar",
            "description": "<p>Vous tirez de votre modèle draconique des pouvoirs mineurs. Choisissez un type de dragon chromatique ou métallique comme étant votre modèle. Cela détermine la couleur de vos écailles et votre apparence. Les dragons voient parfois plus favorablement ceux des kobolds qui leur ressemblent à la discrétion du MJ. Votre modèle peut aussi déterminer les détails d'autres capacités que vous possédez, en utilisant la table des modèles draconiques ci-après.</p>\n<h3><strong>Table des Modèles draconiques</strong></h3>\n<table class=\"pf2e\">\n<thead>\n<tr>\n<th>Dragon</th>\n<th>Forme du Souffle</th>\n<th>Type de Dégâts</th>\n<th>Jet de sauvegarde</th>\n</tr>\n</thead>\n<tbody>\n<tr>\n<td>Airain</td>\n<td>Ligne</td>\n<td>Feu</td>\n<td>Réflexes</td>\n</tr>\n<tr>\n<td>Argent</td>\n<td>Cône</td>\n<td>Froid</td>\n<td>Réflexes</td>\n</tr>\n<tr>\n<td>Blanc</td>\n<td>Cône</td>\n<td>Froid</td>\n<td>Réflexes</td>\n</tr>\n<tr>\n<td>Bleu</td>\n<td>Ligne</td>\n<td>Électricité</td>\n<td>Réflexes</td>\n</tr>\n<tr>\n<td>Bronze</td>\n<td>Ligne</td>\n<td>Électricité</td>\n<td>Réflexes</td>\n</tr>\n<tr>\n<td>Cuivre</td>\n<td>Ligne</td>\n<td>Acide</td>\n<td>Réflexes</td>\n</tr>\n<tr>\n<td>Noir</td>\n<td>Ligne</td>\n<td>Acide</td>\n<td>Réflexes</td>\n</tr>\n<tr>\n<td>Or</td>\n<td>Cône</td>\n<td>Feu</td>\n<td>Réflexes</td>\n</tr>\n<tr>\n<td>Rouge</td>\n<td>Cône</td>\n<td>Feu</td>\n<td>Réflexes</td>\n</tr>\n<tr>\n<td>Vert</td>\n<td>Cône</td>\n<td>Poison</td>\n<td>Vigueur</td>\n</tr>\n</tbody>\n</table>"
        },
        "Plant Nourishment": {
            "name": "Plant Nourishment",
            "description": "<p>Vous obtenez de quoi vous alimenter de la même manière que le font les plantes ou les champignons qui correspondent à votre type de corps, au travers d'une combinaison de photosynthèse, d'absorption des minéraux avec vos racines ou de récupération de matière en décomposition. Vous n'avez pas besoin de payer pour votre nourriture. Si vous dépendez normalement de la photosynthèse et que vous ne voyez pas la lumière du soleil pendant une semaine, vous commencez à dépérir. Vous pouvez obtenir une alimentation à partir de bouteilles spécialement formulées à base de lumière du soleil en remplacement de la lumière du soleil naturelle mais ces bouteilles coûtent 10 fois plus que des rations ordinaires (40 pa).</p>"
        },
        "Change Shape (Anadi)": {
            "name": "Change Shape (Anadi)",
            "description": "<p>En tant qu'anadi, vous obtenez la capacité de @UUID[Compendium.pf2e.actionspf2e.Item.34E7k2YRcsOU5uyl]{Changement de forme (Anadi)}.</p>"
        },
        "Unusual Anatomy": {
            "name": "Unusual Anatomy",
            "description": "<p>Votre corps non orthodoxe résiste aux agressions physiques conçues pour d'autres créatures. Vous obtenez un bonus de circonstances de +1 aux jets de sauvegarde contre les maladies et les poisons.</p>"
        },
        "Emotionally Unaware": {
            "name": "Emotionally Unaware",
            "description": "<p>Vous trouvez qu'il est difficile de comprendre et d'exprimer des émotions complexes. Vous subissez une pénalité de circonstances de –1 aux tests de Diplomatie et de Représentation et aux tests de Perception pour Deviner les intentions.</p>",
            "rules": {
                "0": {
                    "label": "Émotionnellement non préparé (pour Deviner les émotions)"
                }
            }
        },
        "Fangs": {
            "name": "Fangs",
            "description": "<p>Vous êtes né avec un moyen naturel de chasser et de vous défendre. Vous obtenez une attaque de crocs à mains nues qui inflige @Damage[1d6[piercing]]{1d6 dégâts perforants}. Vos crocs sont dans le groupe pugilat et possèdent le trait finesse et à mains nues.</p>"
        },
        "Prehensile Tail": {
            "name": "Prehensile Tail",
            "description": "<p>Vous pouvez utiliser votre longue queue flexible pour accomplir des actions Interagir nécessitant une main libre, même si vos deux mains sont occupées par ailleurs. Votre queue ne peut pas effectuer d'actions qui nécessitent des doigts ou une dextérité manuelle importante, y compris une action qui nécessiterait un test pour être accomplie et vous ne pouvez pas l'utiliser pour tenir des objets.</p>"
        },
        "Low-Light Vision": {
            "name": "Low-Light Vision",
            "description": "<p>Vous pouvez voir dans la lumière faible comme s'il s'agissait de lumière vive. Vous ignorez ainsi l'état @UUID[Compendium.pf2e.conditionitems.Item.DmAIPqOBomZ7H95W]{Masqué} dû à la lumière faible.</p>"
        },
        "Basic Undead Benefits": {
            "name": "Basic Undead Benefits",
            "description": "<p><strong>Nécril</strong> Vous connaissez le nécril.</p>\n<p><strong>Vision de mort-vivant</strong> Vous obtenez la vision nocturne ou la vision dans le noir si votre ascendance possédait déjà la vision nocturne.</p>\n<p><strong>Guérison du vide</strong> Vous êtes blessé par les dégâts de vitalité et n'êtes pas soigné par les effets de guérison de vitalité. Vous ne subissez pas les dégâts de vide et vous êtes soigné par les effets de vide qui soignent les morts-vivants.</p>\n<p><strong>Survie négative</strong> Contrairement au morts-vivants normaux, vous n'êtes pas détruit lorsque vous êtes réduit à 0 Points de vie. À la place, une puissante énergie négative tente de vous éviter d'être détruit même dans des situations désespérées. Vous êtes assommé et commencez à mourir lorsque vous êtes réduit à 0 point de vie. Parce que vous êtes un mort-vivant, de nombreuses méthodes pour ramener quelqu'un à la vie, comme la stabilisation, ne vous profitent pas. Lorsque vous mourrez, vous êtes détruit plutôt que mort, tout comme les autres morts-vivants.</p>\n<p><strong>Immunité aux effets de mort</strong> Vous êtes immunisé aux effets de mort. Cela vous permet d'éviter d'être automatiquement tué ou de voir la valeur de votre état mourant augmenter automatiquement mais cela ne vous immunise pas contre les autres aspects du sort ou de l'effet. Par exemple, vous pouvez toujours subir des dégâts mentaux et être Effrayé par un <em>Assassin imaginaire</em> mais vous n'en mourrez pas instantanément.</p>\n<p><strong>Protection contre la maladie et le poison</strong> Vous obtenez un bonus de circonstances de +1 aux jets de sauvegarde (ou à tout autre type de défense) contre la maladie et le poison.</p>\n<p><strong>Faim de mort-vivant</strong> Bien que vous ne mangiez ou ne buviez pas la même nourriture que les humanoïdes, vous avez généralement une soif et une faim liée à votre état de mort-vivant, comme la faim de chair humanoïde d'une goule, la soif de cervelle d'un zombie ou le désir de sang d'un vampire. De plus, bien que vous ne dormiez pas, vous entrez dans un état de ralentissement pendant au moins 4 heures par jour pour récupérer, ce qui permet à votre chair de mort-vivant de se recoudre et de récupérer naturellement. De nombreux morts-vivants choisissent de se reposer lorsque le soleil est à son zénith.</p>"
        },
        "Change Shape (Kitsune)": {
            "name": "Change Shape (Kitsune)",
            "description": "<p>En tant que kitsune, vous obtenez la capacité @UUID[Compendium.pf2e.actionspf2e.Item.wwvPiG2kET2rkSAG]{Changement de forme (Kitsune)}.</p>"
        },
        "Swim": {
            "name": "Swim",
            "description": "<p>Les azarketi ont une Vitesse de nage de 9 m.</p>"
        },
        "Aquatic Adaptation": {
            "name": "Aquatic Adaptation",
            "description": "<p>Votre biologie reptilienne vous permet de retenir votre souffle pendant très longtemps. Vous obtenez le don général @UUID[Compendium.pf2e.feats-srd.Item.aJUXbe9HJVvv0Mxa]{Contrôle de la respiration} comme don supplémentaire.</p>"
        },
        "Glowing Horn": {
            "name": "Glowing Horn",
            "description": "<p>Votre corne réagit à l'énergie psychique en s'illuminant doucement. La corne émet une faible lumière dans une @Template[type:emanation|distance:10]{émanation de 3 m} jusqu'au début de votre prochain tour chaque fois que vous utilisez une action occulte acquise grâce à un don d'ascendance, que vous lancez un sort occulte inné ou que vous lancez un sort possédant le trait mental.</p>"
        },
        "Claws": {
            "name": "Claws",
            "description": "<p>Vos griffes aiguisées vous offrent une alternative aux poings que d'autres humanoïdes utilisent pour se battre. Vous disposez d'une attaque à mains nues de griffe qui inflige 1d4 dégâts tranchants et possède les traits agile et finesse.</p>"
        },
        "Hydration": {
            "name": "Hydration",
            "description": "<p>Bien que vous soyez amphibie et autant à l'aise sur terre que dans l'eau, votre corps nécessite que vous retourniez dans les environnements aquatiques au moins une fois par 24 heures. Vous devez vous immerger totalement dans l'eau en vue de réhydrater votre peau acclimatée à l'eau.</p>\n<p>Si vous ne parvenez pas à le faire, votre peau commence à se craqueler et vos ouïes deviennent douloureuses. Après les premières 24 heures hors de l'eau, vous subissez une pénalité de statut de –1 aux jets de Vigueur. Après 48 heures, vous luttez pour respirer de l'air et commencez à suffoquer jusqu'à ce que vous retourniez dans l'eau.</p>\n<p>@UUID[Compendium.pf2e.feat-effects.Item.Q5FUu7yhWPJlcXei]{Effet : Hydratation}</p>"
        },
        "Constructed (Poppet)": {
            "name": "Constructed (Poppet)",
            "description": "<p>Les matériaux de votre corps résistent aux maux qui assaillent la chair. Vous obtenez un bonus de circonstances de +1 aux jets de sauvegarde contre les effets de mort, les maladies et le poison ainsi qu'aux jets de sauvegarde contre les effets qui vous donneraient les états Drainé, Paralysé ou Malade/nauséeux. Votre étincelle de vie signifie que vous êtes une créature vivante et que vous pouvez être guéri par l'énergie de vitalité et blessé par l'énergie de vide comme à l'ordinaire.</p>",
            "rules": {
                "0": {
                    "label": "Construit (contre effetts de mort, maladies, poison, Drainé, Paralysé et Malade/nauséeux.)"
                }
            }
        },
        "Land on Your Feet": {
            "name": "Land on Your Feet",
            "description": "<p>Lorsque vous chutez, vous ne subissez que la moitié des dégâts normaux et vous ne vous retrouvez pas @UUID[Compendium.pf2e.conditionitems.Item.j91X7x0XSomq8d60]{À terre}.</p>"
        },
        "Blunt Snout": {
            "name": "Blunt Snout",
            "description": "<p>Votre museau court et le système labyrinthique de vos sinus vous rendent résistant aux phénomènes qui assaillent vos narines. Lorsque vous lancez un jet de sauvegarde contre les menaces inhalées (comme les poisons inhalés) et les effets olfactifs (comme la puanteur des xulgaths), vous obtenez le résultat d'un degré supérieur à celui obtenu sur votre jet.</p>",
            "rules": {
                "0": {
                    "text": "Lorsque vous lancez un jet de sauvegarde contre un effet inhalé ou olfactif, vous obtenez le résultat d'un degré supérieur à celui obtenu sur votre jet."
                }
            }
        },
        "Keen Eyes": {
            "name": "Keen Eyes",
            "description": "<p>Votre vue est perçante, vous permettant de distinguer des détails sur les créatures @UUID[Compendium.pf2e.conditionitems.Item.DmAIPqOBomZ7H95W]{Masquées} ou même @UUID[Compendium.pf2e.conditionitems.Item.zJxUflt9np0q4yML]{Invisibles} que d'autres pourraient manquer. Vous obtenez un bonus de circonstances de +2 quand vous utilisez l'action @UUID[Compendium.pf2e.actionspf2e.Item.BlAOM2X92SI6HMtJ]{Chercher} pour trouver des créatures @UUID[Compendium.pf2e.conditionitems.Item.iU0fEDdBp3rXpTMC]{Cachées} ou @UUID[Compendium.pf2e.conditionitems.Item.VRSef5y1LmL2Hkjf]{Non détectées} dans un rayon de 9 m autour de vous. Quand vous prenez pour cible un adversaire qui vous est @UUID[Compendium.pf2e.conditionitems.Item.DmAIPqOBomZ7H95W]{Masqué} ou Caché, réduisez le DD du test nu à 3 pour une cible Masquée et à 9 pour une cible Cachée.</p>"
        },
        "Constructed": {
            "name": "Constructed",
            "description": "<p>Votre corps synthétique résiste aux affections mieux que les organismes purement biologiques. Vous obtenez un bonus de circonstances de +1 aux jets de sauvegarde contre les maladies, les poisons et les radiations.</p>",
            "rules": {
                "0": {
                    "label": "Construit (contre maladies, poisons et radiations)"
                }
            }
        },
        "Sunlight": {
            "name": "Sunlight",
            "description": "<p>Si vous êtes exposé directement à la lumière du soleil, vous devenez immédiatement @UUID[Compendium.pf2e.conditionitems.Item.xYTAsEpcJE1Ccni3]{Ralenti 1}. La valeur de l'état Ralenti augment de 1 chaque fois que vous terminée votre tour sous la lumière riecte du soleil. Si vous perdez toutes vos actions de cette manière, vous êtes déruit. Du fait de votre aversion surnaturelle au soleil, vous ne projetez aucune ombre et ne vous reflétez pas dans les miroirs.</p>"
        },
        "Bite": {
            "name": "Bite",
            "description": "<p>Vos dents acérées et vos puissantes mâchoires sont des armes redoutables. Vous disposez d'une attaque à mains nues de mâchoires qui inflige 1d6 dégâts perforants. Vos mâchoires font partie du groupe pugilat.</p>"
        },
        "Flammable": {
            "name": "Flammable",
            "description": "<p>Vous avez une faiblesse aux dégâts de feu égal à un tiers de votre niveau (minimum 1).</p>"
        },
        "Eyes in Back": {
            "name": "Eyes in Back",
            "description": "<p>Vous avez des yeux qui pointent dans plusieurs directions à la fois et vous remarquez instinctivement les mouvements à la périphérie de votre vision. Lorsque vous utilisez l'action de base Chercher, vous pouvez chercher des créatures dans deux zones au lieu d'une. Si la précision est nécessaire, vous pouvez sélectionner deux @Template[type:cone|distance:30]{cônes de 9 m} ou deux @Template[type:burst|distance:15]{explosions de 4,5 m} dans votre ligne de mire au lieu d'une seule.</p>"
        },
        "Sharp Beak": {
            "name": "Sharp Beak",
            "description": "<p>Avec votre bec aiguisé, vous n'êtes jamais dépourvu d'une arme. Vous disposez d'une attaque à mains nues de bec qui inflige @Damage[1d6[piercing]]{1d6 dégâts perforants}. Votre bec est dans le groupe d'arme pugilat et possède les traits finesse et à mains nues.</p>"
        }
    },
    "mapping": {
        "description": "system.description.value",
        "gm": "system.description.gm",
        "rules": {
            "path": "system.rules",
            "converter": "translateRules"
        }
    }
}